2,3,
4,7,
8,15,
10,18,
15,26,
16,31,
63,120,
64,127,
1000,1994,
1023,2036,
1024,2047,
5000,9995,
10000,19995,
16384,32767,
30000,59993,
60000,119993,
65535,131054,
65536,131071,
100000,199994,
500000,999993,
750000,1499990,
1000000,1999993,
2000000,3999993,
