Input size: 2
Total mpi time: 0.00007
Total sequential time: 0.00000
CHECK SUCCESSFUL - Results match

Input size: 4
Total mpi time: 0.00894
Total sequential time: 0.00000
CHECK SUCCESSFUL - Results match

Input size: 8
Total mpi time: 0.00010
Total sequential time: 0.00000
CHECK SUCCESSFUL - Results match

Input size: 10
Total mpi time: 0.00009
Total sequential time: 0.00000
CHECK SUCCESSFUL - Results match

Input size: 15
Total mpi time: 0.00011
Total sequential time: 0.00000
CHECK SUCCESSFUL - Results match

Input size: 16
Total mpi time: 0.00009
Total sequential time: 0.00000
CHECK SUCCESSFUL - Results match

Input size: 63
Total mpi time: 0.00011
Total sequential time: 0.00000
CHECK SUCCESSFUL - Results match

Input size: 64
Total mpi time: 0.00009
Total sequential time: 0.00000
CHECK SUCCESSFUL - Results match

Input size: 1000
Total mpi time: 0.00009
Total sequential time: 0.00002
CHECK SUCCESSFUL - Results match

Input size: 1023
Total mpi time: 0.00012
Total sequential time: 0.00003
CHECK SUCCESSFUL - Results match

Input size: 1024
Total mpi time: 0.00012
Total sequential time: 0.00002
CHECK SUCCESSFUL - Results match

Input size: 5000
Total mpi time: 0.00018
Total sequential time: 0.00011
CHECK SUCCESSFUL - Results match

Input size: 10000
Total mpi time: 0.00025
Total sequential time: 0.00025
CHECK SUCCESSFUL - Results match

Input size: 16384
Total mpi time: 0.00018
Total sequential time: 0.00015
CHECK SUCCESSFUL - Results match

Input size: 30000
Total mpi time: 0.00028
Total sequential time: 0.00026
CHECK SUCCESSFUL - Results match

Input size: 60000
Total mpi time: 0.00061
Total sequential time: 0.00041
CHECK SUCCESSFUL - Results match

Input size: 65535
Total mpi time: 0.00069
Total sequential time: 0.00056
CHECK SUCCESSFUL - Results match

Input size: 65536
Total mpi time: 0.00069
Total sequential time: 0.00046
CHECK SUCCESSFUL - Results match

Input size: 100000
Total mpi time: 0.00091
Total sequential time: 0.00081
CHECK SUCCESSFUL - Results match

Input size: 500000
Total mpi time: 0.00416
Total sequential time: 0.00369
CHECK SUCCESSFUL - Results match

Input size: 750000
Total mpi time: 0.00635
Total sequential time: 0.00566
CHECK SUCCESSFUL - Results match

Input size: 1000000
Total mpi time: 0.00872
Total sequential time: 0.00781
CHECK SUCCESSFUL - Results match

Input size: 2000000
Total mpi time: 0.01657
Total sequential time: 0.01780
CHECK SUCCESSFUL - Results match

Input size: 4194303
Total mpi time: 0.03530
Total sequential time: 0.03729
CHECK SUCCESSFUL - Results match

Input size: 4194304
Total mpi time: 0.03479
Total sequential time: 0.03294
CHECK SUCCESSFUL - Results match

Input size: 5000000
Total mpi time: 0.04206
Total sequential time: 0.03960
CHECK SUCCESSFUL - Results match

Input size: 8388608
Total mpi time: 0.06799
Total sequential time: 0.07388
CHECK SUCCESSFUL - Results match

Input size: 10000000
Total mpi time: 0.08455
Total sequential time: 0.08826
CHECK SUCCESSFUL - Results match

Input size: 16777215
Total mpi time: 0.13955
Total sequential time: 0.15028
CHECK SUCCESSFUL - Results match

Input size: 16777216
Total mpi time: 0.14264
Total sequential time: 0.13182
CHECK SUCCESSFUL - Results match

Input size: 20000000
Total mpi time: 0.16330
Total sequential time: 0.17914
CHECK SUCCESSFUL - Results match

Input size: 30000000
Total mpi time: 0.24840
Total sequential time: 0.25956
CHECK SUCCESSFUL - Results match

Input size: 33554432
Total mpi time: 0.28179
Total sequential time: 0.29821
CHECK SUCCESSFUL - Results match

