Input size: 2
Total mpi time: 0.00007
Total sequential time: 0.00000
CHECK SUCCESSFUL - Results match

Input size: 4
Total mpi time: 0.00010
Total sequential time: 0.00000
CHECK SUCCESSFUL - Results match

Input size: 8
Total mpi time: 0.00010
Total sequential time: 0.00000
CHECK SUCCESSFUL - Results match

Input size: 10
Total mpi time: 0.00009
Total sequential time: 0.00000
CHECK SUCCESSFUL - Results match

Input size: 15
Total mpi time: 0.00009
Total sequential time: 0.00000
CHECK SUCCESSFUL - Results match

Input size: 16
Total mpi time: 0.00009
Total sequential time: 0.00000
CHECK SUCCESSFUL - Results match

Input size: 63
Total mpi time: 0.00009
Total sequential time: 0.00000
CHECK SUCCESSFUL - Results match

Input size: 64
Total mpi time: 0.00009
Total sequential time: 0.00000
CHECK SUCCESSFUL - Results match

Input size: 1000
Total mpi time: 0.00010
Total sequential time: 0.00003
CHECK SUCCESSFUL - Results match

Input size: 1023
Total mpi time: 0.00011
Total sequential time: 0.00002
CHECK SUCCESSFUL - Results match

Input size: 1024
Total mpi time: 0.00010
Total sequential time: 0.00002
CHECK SUCCESSFUL - Results match

Input size: 5000
Total mpi time: 0.00017
Total sequential time: 0.00012
CHECK SUCCESSFUL - Results match

Input size: 10000
Total mpi time: 0.00028
Total sequential time: 0.00009
CHECK SUCCESSFUL - Results match

Input size: 16384
Total mpi time: 0.00016
Total sequential time: 0.00010
CHECK SUCCESSFUL - Results match

Input size: 30000
Total mpi time: 0.00054
Total sequential time: 0.00020
CHECK SUCCESSFUL - Results match

Input size: 60000
Total mpi time: 0.00062
Total sequential time: 0.00051
CHECK SUCCESSFUL - Results match

Input size: 65535
Total mpi time: 0.00066
Total sequential time: 0.00045
CHECK SUCCESSFUL - Results match

Input size: 65536
Total mpi time: 0.00067
Total sequential time: 0.00052
CHECK SUCCESSFUL - Results match

Input size: 100000
Total mpi time: 0.00092
Total sequential time: 0.00083
CHECK SUCCESSFUL - Results match

Input size: 500000
Total mpi time: 0.00402
Total sequential time: 0.00401
CHECK SUCCESSFUL - Results match

Input size: 750000
Total mpi time: 0.00634
Total sequential time: 0.00616
CHECK SUCCESSFUL - Results match

Input size: 1000000
Total mpi time: 0.00881
Total sequential time: 0.00769
CHECK SUCCESSFUL - Results match

Input size: 2000000
Total mpi time: 0.01670
Total sequential time: 0.01807
CHECK SUCCESSFUL - Results match

Input size: 4194303
Total mpi time: 0.03488
Total sequential time: 0.03615
CHECK SUCCESSFUL - Results match

Input size: 4194304
Total mpi time: 0.03430
Total sequential time: 0.03687
CHECK SUCCESSFUL - Results match

Input size: 5000000
Total mpi time: 0.04223
Total sequential time: 0.03927
CHECK SUCCESSFUL - Results match

Input size: 8388608
Total mpi time: 0.06975
Total sequential time: 0.07569
CHECK SUCCESSFUL - Results match

Input size: 10000000
Total mpi time: 0.08563
Total sequential time: 0.08792
CHECK SUCCESSFUL - Results match

Input size: 16777215
Total mpi time: 0.13572
Total sequential time: 0.15012
CHECK SUCCESSFUL - Results match

Input size: 16777216
Total mpi time: 0.13961
Total sequential time: 0.15012
CHECK SUCCESSFUL - Results match

Input size: 20000000
Total mpi time: 0.16552
Total sequential time: 0.17897
CHECK SUCCESSFUL - Results match

Input size: 30000000
Total mpi time: 0.24745
Total sequential time: 0.26116
CHECK SUCCESSFUL - Results match

Input size: 33554432
Total mpi time: 0.27595
Total sequential time: 0.29522
CHECK SUCCESSFUL - Results match

