Input size: 2
Total mpi time: 0.00005
Total sequential time: 0.00000
CHECK SUCCESSFUL - Results match

Input size: 4
Total mpi time: 0.00011
Total sequential time: 0.00000
CHECK SUCCESSFUL - Results match

Input size: 8
Total mpi time: 0.00010
Total sequential time: 0.00000
CHECK SUCCESSFUL - Results match

Input size: 10
Total mpi time: 0.00010
Total sequential time: 0.00000
CHECK SUCCESSFUL - Results match

Input size: 15
Total mpi time: 0.00011
Total sequential time: 0.00000
CHECK SUCCESSFUL - Results match

Input size: 16
Total mpi time: 0.00009
Total sequential time: 0.00000
CHECK SUCCESSFUL - Results match

Input size: 63
Total mpi time: 0.00010
Total sequential time: 0.00000
CHECK SUCCESSFUL - Results match

Input size: 64
Total mpi time: 0.00010
Total sequential time: 0.00000
CHECK SUCCESSFUL - Results match

Input size: 1000
Total mpi time: 0.00011
Total sequential time: 0.00002
CHECK SUCCESSFUL - Results match

Input size: 1023
Total mpi time: 0.00010
Total sequential time: 0.00002
CHECK SUCCESSFUL - Results match

Input size: 1024
Total mpi time: 0.00010
Total sequential time: 0.00002
CHECK SUCCESSFUL - Results match

Input size: 5000
Total mpi time: 0.00018
Total sequential time: 0.00004
CHECK SUCCESSFUL - Results match

Input size: 10000
Total mpi time: 0.00019
Total sequential time: 0.00009
CHECK SUCCESSFUL - Results match

Input size: 16384
Total mpi time: 0.00025
Total sequential time: 0.00015
CHECK SUCCESSFUL - Results match

Input size: 30000
Total mpi time: 0.00029
Total sequential time: 0.00028
CHECK SUCCESSFUL - Results match

Input size: 60000
Total mpi time: 0.00060
Total sequential time: 0.00041
CHECK SUCCESSFUL - Results match

Input size: 65535
Total mpi time: 0.00066
Total sequential time: 0.00045
CHECK SUCCESSFUL - Results match

Input size: 65536
Total mpi time: 0.00069
Total sequential time: 0.00045
CHECK SUCCESSFUL - Results match

Input size: 100000
Total mpi time: 0.00091
Total sequential time: 0.00071
CHECK SUCCESSFUL - Results match

Input size: 500000
Total mpi time: 0.00418
Total sequential time: 0.00364
CHECK SUCCESSFUL - Results match

Input size: 750000
Total mpi time: 0.00635
Total sequential time: 0.00623
CHECK SUCCESSFUL - Results match

Input size: 1000000
Total mpi time: 0.00862
Total sequential time: 0.00849
CHECK SUCCESSFUL - Results match

Input size: 2000000
Total mpi time: 0.01714
Total sequential time: 0.01770
CHECK SUCCESSFUL - Results match

Input size: 4194303
Total mpi time: 0.03421
Total sequential time: 0.03750
CHECK SUCCESSFUL - Results match

Input size: 4194304
Total mpi time: 0.03406
Total sequential time: 0.03323
CHECK SUCCESSFUL - Results match

Input size: 5000000
Total mpi time: 0.04185
Total sequential time: 0.03985
CHECK SUCCESSFUL - Results match

Input size: 8388608
Total mpi time: 0.07310
Total sequential time: 0.07497
CHECK SUCCESSFUL - Results match

Input size: 10000000
Total mpi time: 0.08208
Total sequential time: 0.07668
CHECK SUCCESSFUL - Results match

Input size: 16777215
Total mpi time: 0.13794
Total sequential time: 0.15033
CHECK SUCCESSFUL - Results match

Input size: 16777216
Total mpi time: 0.13966
Total sequential time: 0.13137
CHECK SUCCESSFUL - Results match

Input size: 20000000
Total mpi time: 0.16279
Total sequential time: 0.17950
CHECK SUCCESSFUL - Results match

Input size: 30000000
Total mpi time: 0.24776
Total sequential time: 0.23720
CHECK SUCCESSFUL - Results match

Input size: 33554432
Total mpi time: 0.27234
Total sequential time: 0.26752
CHECK SUCCESSFUL - Results match

