Input size: 2
./run_test.sh: line 380: bin/openmp_blocked_hillis_steele_prefix_sum_double: No such file or directory
Input size: 4
./run_test.sh: line 380: bin/openmp_blocked_hillis_steele_prefix_sum_double: No such file or directory
Input size: 8
./run_test.sh: line 380: bin/openmp_blocked_hillis_steele_prefix_sum_double: No such file or directory
Input size: 10
./run_test.sh: line 380: bin/openmp_blocked_hillis_steele_prefix_sum_double: No such file or directory
Input size: 15
./run_test.sh: line 380: bin/openmp_blocked_hillis_steele_prefix_sum_double: No such file or directory
Input size: 16
./run_test.sh: line 380: bin/openmp_blocked_hillis_steele_prefix_sum_double: No such file or directory
Input size: 63
./run_test.sh: line 380: bin/openmp_blocked_hillis_steele_prefix_sum_double: No such file or directory
Input size: 64
./run_test.sh: line 380: bin/openmp_blocked_hillis_steele_prefix_sum_double: No such file or directory
Input size: 1000
./run_test.sh: line 380: bin/openmp_blocked_hillis_steele_prefix_sum_double: No such file or directory
Input size: 1023
./run_test.sh: line 380: bin/openmp_blocked_hillis_steele_prefix_sum_double: No such file or directory
Input size: 1024
./run_test.sh: line 380: bin/openmp_blocked_hillis_steele_prefix_sum_double: No such file or directory
Input size: 5000
./run_test.sh: line 380: bin/openmp_blocked_hillis_steele_prefix_sum_double: No such file or directory
Input size: 10000
./run_test.sh: line 380: bin/openmp_blocked_hillis_steele_prefix_sum_double: No such file or directory
Input size: 16384
./run_test.sh: line 380: bin/openmp_blocked_hillis_steele_prefix_sum_double: No such file or directory
Input size: 30000
./run_test.sh: line 380: bin/openmp_blocked_hillis_steele_prefix_sum_double: No such file or directory
Input size: 60000
./run_test.sh: line 380: bin/openmp_blocked_hillis_steele_prefix_sum_double: No such file or directory
Input size: 65535
./run_test.sh: line 380: bin/openmp_blocked_hillis_steele_prefix_sum_double: No such file or directory
Input size: 65536
./run_test.sh: line 380: bin/openmp_blocked_hillis_steele_prefix_sum_double: No such file or directory
Input size: 100000
./run_test.sh: line 380: bin/openmp_blocked_hillis_steele_prefix_sum_double: No such file or directory
Input size: 500000
./run_test.sh: line 380: bin/openmp_blocked_hillis_steele_prefix_sum_double: No such file or directory
Input size: 750000
./run_test.sh: line 380: bin/openmp_blocked_hillis_steele_prefix_sum_double: No such file or directory
Input size: 1000000
./run_test.sh: line 380: bin/openmp_blocked_hillis_steele_prefix_sum_double: No such file or directory
Input size: 2000000
./run_test.sh: line 380: bin/openmp_blocked_hillis_steele_prefix_sum_double: No such file or directory
Input size: 4194303
./run_test.sh: line 380: bin/openmp_blocked_hillis_steele_prefix_sum_double: No such file or directory
Input size: 4194304
./run_test.sh: line 380: bin/openmp_blocked_hillis_steele_prefix_sum_double: No such file or directory
Input size: 5000000
./run_test.sh: line 380: bin/openmp_blocked_hillis_steele_prefix_sum_double: No such file or directory
Input size: 8388608
./run_test.sh: line 380: bin/openmp_blocked_hillis_steele_prefix_sum_double: No such file or directory
Input size: 10000000
./run_test.sh: line 380: bin/openmp_blocked_hillis_steele_prefix_sum_double: No such file or directory
Input size: 16777215
./run_test.sh: line 380: bin/openmp_blocked_hillis_steele_prefix_sum_double: No such file or directory
Input size: 16777216
./run_test.sh: line 380: bin/openmp_blocked_hillis_steele_prefix_sum_double: No such file or directory
Input size: 20000000
./run_test.sh: line 380: bin/openmp_blocked_hillis_steele_prefix_sum_double: No such file or directory
Input size: 30000000
./run_test.sh: line 380: bin/openmp_blocked_hillis_steele_prefix_sum_double: No such file or directory
Input size: 33554432
./run_test.sh: line 380: bin/openmp_blocked_hillis_steele_prefix_sum_double: No such file or directory
Input size: 67108864
./run_test.sh: line 380: bin/openmp_blocked_hillis_steele_prefix_sum_double: No such file or directory
Input size: 134217728
./run_test.sh: line 380: bin/openmp_blocked_hillis_steele_prefix_sum_double: No such file or directory
