Input size: 64
Total mpi time: 0.07495
Input size: 1000
Total mpi time: 0.07704
Input size: 1023
Total mpi time: 0.08079
Input size: 1024
Total mpi time: 0.07839
Input size: 5000
Total mpi time: 0.07739
Input size: 10000
Total mpi time: 0.07494
Input size: 16384
Total mpi time: 0.07967
Input size: 30000
Total mpi time: 0.08540
Input size: 60000
Total mpi time: 0.08426
Input size: 65535
Total mpi time: 0.07099
Input size: 65536
Total mpi time: 0.07481
Input size: 100000
Total mpi time: 0.09025
Input size: 500000
Total mpi time: 0.07616
Input size: 750000
Total mpi time: 0.08425
Input size: 1000000
Total mpi time: 0.08604
Input size: 2000000
Total mpi time: 0.09399
Input size: 4194303
Total mpi time: 0.10936
Input size: 4194304
Total mpi time: 0.13471
Input size: 5000000
Total mpi time: 0.16403
Input size: 8388608
Total mpi time: 0.18593
Input size: 10000000
Total mpi time: 0.32318
Input size: 16777215
Total mpi time: 0.21079
Input size: 16777216
Total mpi time: 0.28127
Input size: 20000000
Total mpi time: 0.23230
Input size: 30000000
Total mpi time: 0.36471
Input size: 33554432
Total mpi time: 0.46811
Input size: 67108864
Total mpi time: 1.12202
Input size: 134217728
Total mpi time: 1.18158
Input size: 268435456
Total mpi time: 1.89099
Input size: 536870912
Total mpi time: 3.61897
