Input size: 64
Total mpi time: 0.02126
Input size: 1000
Total mpi time: 0.04619
Input size: 1023
Total mpi time: 0.03186
Input size: 1024
Total mpi time: 0.06596
Input size: 5000
Total mpi time: 0.03795
Input size: 10000
Total mpi time: 0.04399
Input size: 16384
Total mpi time: 0.05404
Input size: 30000
Total mpi time: 0.04034
Input size: 60000
Total mpi time: 0.04169
Input size: 65535
Total mpi time: 0.06137
Input size: 65536
Total mpi time: 0.04524
Input size: 100000
Total mpi time: 0.04182
Input size: 500000
Total mpi time: 0.07087
Input size: 750000
Total mpi time: 0.05226
Input size: 1000000
Total mpi time: 0.05940
Input size: 2000000
Total mpi time: 0.06123
Input size: 4194303
Total mpi time: 0.11723
Input size: 4194304
Total mpi time: 0.07330
Input size: 5000000
Total mpi time: 1.54991
Input size: 8388608
Total mpi time: 0.12971
Input size: 10000000
Total mpi time: 0.11807
Input size: 16777215
Total mpi time: 0.14966
Input size: 16777216
Total mpi time: 0.14282
Input size: 20000000
Total mpi time: 0.30230
Input size: 30000000
Total mpi time: 0.46388
Input size: 33554432
Total mpi time: 0.27647
Input size: 67108864
Total mpi time: 0.73007
Input size: 134217728
Total mpi time: 0.91700
Input size: 268435456
Total mpi time: 1.88222
Input size: 536870912
Total mpi time: 3.79832
