Input size: 64
Total mpi time: 0.05349
Input size: 1000
Total mpi time: 0.03228
Input size: 1023
Total mpi time: 0.02771
Input size: 1024
Total mpi time: 0.02248
Input size: 5000
Total mpi time: 0.03492
Input size: 10000
Total mpi time: 0.04326
Input size: 16384
Total mpi time: 0.03649
Input size: 30000
Total mpi time: 0.03864
Input size: 60000
Total mpi time: 0.04525
Input size: 65535
Total mpi time: 0.03770
Input size: 65536
Total mpi time: 0.03808
Input size: 100000
Total mpi time: 0.03858
Input size: 500000
Total mpi time: 0.05573
Input size: 750000
Total mpi time: 0.07567
Input size: 1000000
Total mpi time: 0.05524
Input size: 2000000
Total mpi time: 0.06344
Input size: 4194303
Total mpi time: 0.07046
Input size: 4194304
Total mpi time: 0.07946
Input size: 5000000
Total mpi time: 0.10095
Input size: 8388608
Total mpi time: 0.09003
Input size: 10000000
Total mpi time: 0.26369
Input size: 16777215
Total mpi time: 0.24112
Input size: 16777216
Total mpi time: 0.23915
Input size: 20000000
Total mpi time: 0.16646
Input size: 30000000
Total mpi time: 0.26895
Input size: 33554432
Total mpi time: 0.31425
Input size: 67108864
Total mpi time: 0.46657
Input size: 134217728
Total mpi time: 0.93432
Input size: 268435456
Total mpi time: 2.08962
Input size: 536870912
Total mpi time: 3.41487
