Input size: 2
Total sequential time: 0.00000
Input size: 4
Total sequential time: 0.00000
Input size: 8
Total sequential time: 0.00000
Input size: 10
Total sequential time: 0.00000
Input size: 15
Total sequential time: 0.00000
Input size: 16
Total sequential time: 0.00000
Input size: 63
Total sequential time: 0.00000
Input size: 64
Total sequential time: 0.00000
Input size: 1000
Total sequential time: 0.00001
Input size: 1023
Total sequential time: 0.00001
Input size: 1024
Total sequential time: 0.00001
Input size: 5000
Total sequential time: 0.00003
Input size: 10000
Total sequential time: 0.00005
Input size: 16384
Total sequential time: 0.00008
Input size: 30000
Total sequential time: 0.00015
Input size: 60000
Total sequential time: 0.00030
Input size: 65535
Total sequential time: 0.00033
Input size: 65536
Total sequential time: 0.00033
Input size: 100000
Total sequential time: 0.00051
Input size: 500000
Total sequential time: 0.00122
Input size: 750000
Total sequential time: 0.00210
Input size: 1000000
Total sequential time: 0.00282
Input size: 2000000
Total sequential time: 0.00606
Input size: 4194303
Total sequential time: 0.01275
Input size: 4194304
Total sequential time: 0.01255
Input size: 5000000
Total sequential time: 0.01532
Input size: 8388608
Total sequential time: 0.02486
Input size: 10000000
Total sequential time: 0.03011
Input size: 16777215
Total sequential time: 0.04956
Input size: 16777216
Total sequential time: 0.04984
Input size: 20000000
Total sequential time: 0.05936
Input size: 30000000
Total sequential time: 0.08899
Input size: 33554432
Total sequential time: 0.09956
Input size: 67108864
Total sequential time: 0.19723
Input size: 134217728
Total sequential time: 0.39468
