Input size: 2
Total mpi time: 0.10100
Input size: 4
Total mpi time: 0.07008
Input size: 8
Total mpi time: 0.11109
Input size: 10
Total mpi time: 0.10682
Input size: 15
Total mpi time: 0.12503
Input size: 16
Total mpi time: 0.14437
Input size: 63
Total mpi time: 0.10996
Input size: 64
Total mpi time: 0.08668
Input size: 1000
Total mpi time: 0.13603
Input size: 1023
Total mpi time: 0.09904
Input size: 1024
Total mpi time: 0.09416
Input size: 5000
Total mpi time: 0.08499
Input size: 10000
Total mpi time: 0.11007
Input size: 16384
Total mpi time: 0.10900
Input size: 30000
Total mpi time: 0.13899
Input size: 60000
Total mpi time: 0.10175
Input size: 65535
Total mpi time: 0.07901
Input size: 65536
Total mpi time: 0.11333
Input size: 100000
Total mpi time: 0.12379
Input size: 500000
Total mpi time: 0.15002
Input size: 750000
Total mpi time: 0.26189
Input size: 1000000
Total mpi time: 0.23188
Input size: 2000000
Total mpi time: 0.21349
Input size: 4194303
Total mpi time: 0.22468
Input size: 4194304
Total mpi time: 0.35736
Input size: 5000000
Total mpi time: 0.46965
Input size: 8388608
Total mpi time: 0.35002
Input size: 10000000
Total mpi time: 0.65316
Input size: 16777215
Total mpi time: 0.74821
Input size: 16777216
Total mpi time: 0.62379
Input size: 20000000
Total mpi time: 0.66212
Input size: 30000000
Total mpi time: 0.64222
Input size: 33554432
Total mpi time: 0.83883
Input size: 67108864
Total mpi time: 0.85244
Input size: 134217728
Total mpi time: 1.17381
