Input size: 2
Total mpi time: 0.10787
Input size: 4
Total mpi time: 0.09503
Input size: 8
Total mpi time: 0.05417
Input size: 10
Total mpi time: 0.13015
Input size: 15
Total mpi time: 0.06217
Input size: 16
Total mpi time: 0.06118
Input size: 63
Total mpi time: 0.06990
Input size: 64
Total mpi time: 0.06565
Input size: 1000
Total mpi time: 0.04996
Input size: 1023
Total mpi time: 0.04320
Input size: 1024
Total mpi time: 0.03437
Input size: 5000
Total mpi time: 0.04546
Input size: 10000
Total mpi time: 0.09497
Input size: 16384
Total mpi time: 0.10000
Input size: 30000
Total mpi time: 0.08008
Input size: 60000
Total mpi time: 0.08290
Input size: 65535
Total mpi time: 0.08010
Input size: 65536
Total mpi time: 0.08479
Input size: 100000
Total mpi time: 0.04992
Input size: 500000
Total mpi time: 0.15999
Input size: 750000
Total mpi time: 0.23403
Input size: 1000000
Total mpi time: 0.20279
Input size: 2000000
Total mpi time: 0.15278
Input size: 4194303
Total mpi time: 0.03757
Input size: 4194304
Total mpi time: 0.04153
Input size: 5000000
Total mpi time: 0.07357
Input size: 8388608
Total mpi time: 0.19794
Input size: 10000000
Total mpi time: 0.24837
Input size: 16777215
Total mpi time: 0.22484
Input size: 16777216
Total mpi time: 0.18502
Input size: 20000000
Total mpi time: 0.17814
Input size: 30000000
Total mpi time: 0.47129
Input size: 33554432
Total mpi time: 0.23567
Input size: 67108864
Total mpi time: 0.38893
Input size: 134217728
Total mpi time: 0.61672
