Input size: 2
Total mpi time: 0.11998
Input size: 4
Total mpi time: 0.15377
Input size: 8
Total mpi time: 0.12709
Input size: 10
Total mpi time: 0.14003
Input size: 15
Total mpi time: 0.09002
Input size: 16
Total mpi time: 0.10700
Input size: 63
Total mpi time: 0.12000
Input size: 64
Total mpi time: 0.15000
Input size: 1000
Total mpi time: 0.13698
Input size: 1023
Total mpi time: 0.13993
Input size: 1024
Total mpi time: 0.13000
Input size: 5000
Total mpi time: 0.16000
Input size: 10000
Total mpi time: 0.10303
Input size: 16384
Total mpi time: 0.11786
Input size: 30000
Total mpi time: 0.13508
Input size: 60000
Total mpi time: 0.15999
Input size: 65535
Total mpi time: 0.10089
Input size: 65536
Total mpi time: 0.12309
Input size: 100000
Total mpi time: 0.12996
Input size: 500000
Total mpi time: 0.11635
Input size: 750000
Total mpi time: 0.14895
Input size: 1000000
Total mpi time: 0.14713
Input size: 2000000
Total mpi time: 0.14635
Input size: 4194303
Total mpi time: 0.16025
Input size: 4194304
Total mpi time: 0.17931
Input size: 5000000
Total mpi time: 0.14693
Input size: 8388608
Total mpi time: 0.18396
Input size: 10000000
Total mpi time: 0.17838
Input size: 16777215
Total mpi time: 0.22350
Input size: 16777216
Total mpi time: 0.23734
Input size: 20000000
Total mpi time: 0.37303
Input size: 30000000
Total mpi time: 0.30172
Input size: 33554432
Total mpi time: 0.48562
Input size: 67108864
Total mpi time: 0.64529
Input size: 134217728
Total mpi time: 1.06037
