Input size: 2
Total mpi time: 0.11415
Input size: 4
Total mpi time: 0.11502
Input size: 8
Total mpi time: 0.12999
Input size: 10
Total mpi time: 0.10997
Input size: 15
Total mpi time: 0.12093
Input size: 16
Total mpi time: 0.12699
Input size: 63
Total mpi time: 0.09816
Input size: 64
Total mpi time: 0.07248
Input size: 1000
Total mpi time: 0.07314
Input size: 1023
Total mpi time: 0.07218
Input size: 1024
Total mpi time: 0.09527
Input size: 5000
Total mpi time: 0.09396
Input size: 10000
Total mpi time: 0.07898
Input size: 16384
Total mpi time: 0.14017
Input size: 30000
Total mpi time: 0.12182
Input size: 60000
Total mpi time: 0.07786
Input size: 65535
Total mpi time: 0.09290
Input size: 65536
Total mpi time: 0.12902
Input size: 100000
Total mpi time: 0.08503
Input size: 500000
Total mpi time: 0.11457
Input size: 750000
Total mpi time: 0.23489
Input size: 1000000
Total mpi time: 0.34868
Input size: 2000000
Total mpi time: 0.29974
Input size: 4194303
Total mpi time: 0.23411
Input size: 4194304
Total mpi time: 0.35372
Input size: 5000000
Total mpi time: 0.49608
Input size: 8388608
Total mpi time: 0.43955
Input size: 10000000
Total mpi time: 0.77887
Input size: 16777215
Total mpi time: 0.53569
Input size: 16777216
Total mpi time: 0.70874
Input size: 20000000
Total mpi time: 0.70305
Input size: 30000000
Total mpi time: 0.71640
Input size: 33554432
Total mpi time: 0.79326
Input size: 67108864
Total mpi time: 0.80793
Input size: 134217728
Total mpi time: 1.10639
