Input size: 2
Total mpi time: 0.26597
Input size: 4
Total mpi time: 0.24064
Input size: 8
Total mpi time: 0.32999
Input size: 10
Total mpi time: 0.37404
Input size: 15
Total mpi time: 0.21418
Input size: 16
Total mpi time: 0.34408
Input size: 63
Total mpi time: 0.34821
Input size: 64
Total mpi time: 0.27124
Input size: 1000
Total mpi time: 0.19901
Input size: 1023
Total mpi time: 0.23609
Input size: 1024
Total mpi time: 0.27112
Input size: 5000
Total mpi time: 0.29189
Input size: 10000
Total mpi time: 0.43514
Input size: 16384
Total mpi time: 0.24550
Input size: 30000
Total mpi time: 0.21078
Input size: 60000
Total mpi time: 0.35653
Input size: 65535
Total mpi time: 0.28092
Input size: 65536
Total mpi time: 0.28197
Input size: 100000
Total mpi time: 0.26970
Input size: 500000
Total mpi time: 0.26077
Input size: 750000
Total mpi time: 0.31060
Input size: 1000000
Total mpi time: 0.28989
Input size: 2000000
Total mpi time: 0.56094
Input size: 4194303
Total mpi time: 0.71789
Input size: 4194304
Total mpi time: 0.61980
Input size: 5000000
Total mpi time: 0.76768
Input size: 8388608
Total mpi time: 0.78540
Input size: 10000000
Total mpi time: 1.18321
Input size: 16777215
Total mpi time: 1.17656
Input size: 16777216
Total mpi time: 1.14172
Input size: 20000000
Total mpi time: 1.48905
Input size: 30000000
Total mpi time: 1.46840
Input size: 33554432
Total mpi time: 1.25426
Input size: 67108864
Total mpi time: 1.16697
Input size: 134217728
Total mpi time: 3.37055
