Input size: 2
Total mpi time: 0.25075
Input size: 4
Total mpi time: 0.25871
Input size: 8
Total mpi time: 0.30608
Input size: 10
Total mpi time: 0.29890
Input size: 15
Total mpi time: 0.25735
Input size: 16
Total mpi time: 0.22838
Input size: 63
Total mpi time: 0.39729
Input size: 64
Total mpi time: 0.27349
Input size: 1000
Total mpi time: 0.24527
Input size: 1023
Total mpi time: 0.21268
Input size: 1024
Total mpi time: 0.26290
Input size: 5000
Total mpi time: 0.24785
Input size: 10000
Total mpi time: 0.27490
Input size: 16384
Total mpi time: 0.28994
Input size: 30000
Total mpi time: 0.22851
Input size: 60000
Total mpi time: 0.33042
Input size: 65535
Total mpi time: 0.31096
Input size: 65536
Total mpi time: 0.31947
Input size: 100000
Total mpi time: 0.42065
Input size: 500000
Total mpi time: 0.31914
Input size: 750000
Total mpi time: 0.61323
Input size: 1000000
Total mpi time: 0.54499
Input size: 2000000
Total mpi time: 0.61999
Input size: 4194303
Total mpi time: 0.64162
Input size: 4194304
Total mpi time: 0.80999
Input size: 5000000
Total mpi time: 1.34193
Input size: 8388608
Total mpi time: 2.36431
Input size: 10000000
Total mpi time: 2.86501
Input size: 16777215
Total mpi time: 1.55543
Input size: 16777216
Total mpi time: 2.28058
Input size: 20000000
Total mpi time: 2.45092
Input size: 30000000
Total mpi time: 1.25649
Input size: 33554432
Total mpi time: 1.63946
Input size: 67108864
Total mpi time: 3.61714
Input size: 134217728
Total mpi time: 2.95750
