2,0.0299185291,0.0314220600,0.0154464412,0.0001693852,0.0213218573,0.0084620956,0.0420741327,0.0186770651,0.0210502613,0.0077132005,0.0161445290,0.0338827353,0.0115432758,0.0639025271,0.0026712697,0.0272902511,0.0438291449,0.0089990292,0.0206291173,0.0276230443,0.0343980715,0.0324827842,0.0000422671,0.0232452229,0.0180001222,
4,0.0183486454,0.0080536120,0.0166707784,0.0001296960,0.0165219437,0.0015038587,0.0782421995,0.0128024593,0.0028255489,0.0119449403,0.0098899398,0.0242530052,0.0293691158,0.0463758707,0.0061614681,0.0133435447,0.0489701387,0.0040265303,0.0128464196,0.0081586186,0.0508588720,0.0391749442,0.0000405032,0.0096507650,0.0243600942,
8,0.0129448343,0.0154418740,0.0126804654,0.0000381134,0.0005665030,0.0064113848,0.2097335011,0.0064739976,0.0171540510,0.0135104228,0.0157266501,0.0467722453,0.0294407029,0.0489467494,0.0057930071,0.0040822793,0.0476855282,0.0054478850,0.0163864158,0.0117576458,0.0963475350,0.0602212381,0.0000522528,0.0167086069,0.0000507142,
10,0.0274163280,0.0134805460,0.0101633836,0.0000371672,0.0221604910,0.0000355858,0.1317746192,0.0097190067,0.0070722830,0.0048242509,0.0101559386,0.0231689718,0.0288148839,0.0725595020,0.0069761034,0.0000262279,0.0560918096,0.0170954019,0.0195474252,0.0158370659,0.1391585469,0.0651489347,0.0000417177,0.0244546961,0.0113435704,
15,0.0324810594,0.0117291193,0.0050199702,0.0000498965,0.0086357575,0.0000340696,0.0137750916,0.0201713759,0.0220257919,0.0033611096,0.0206600782,0.0289279055,0.0298871566,0.0755437128,0.0072543770,0.0202077255,0.0440168735,0.0179132335,0.0167057812,0.0000314023,0.2122829333,0.0949409865,0.0000342950,0.0160162728,0.0305685531,
16,0.1329575889,0.0178874582,0.0129688047,0.0000688061,0.0082774647,0.0009222403,0.0062448289,0.0954875406,0.0113389753,0.0069645047,0.0070058350,0.0216086879,0.0146822352,0.0827886015,0.0080325902,0.0050992668,0.0579112414,0.0456370898,0.0123871807,0.0158923790,0.0045425594,0.0301550906,0.0000367146,0.0000287574,0.0077901743,
63,0.0197880827,0.0000320412,0.0162616223,0.0000389516,0.0118677914,0.0054721609,0.0062212646,0.0417504162,0.0255716089,0.0038105845,0.0247722548,0.0277156420,0.0310504511,0.0502736568,0.0056563579,0.0022706091,0.0369421989,0.0592512917,0.0187255554,0.0105095599,0.0000419822,0.0651930105,0.0000335854,0.0000603870,0.0091172662,
64,0.0136147644,0.0196860433,0.0059502032,0.0000353400,0.0255477987,0.0001771376,0.0056353789,0.0003271103,0.0159757063,0.0075911414,0.0177843217,0.0088797603,0.0231715702,0.0659242664,0.0042668395,0.0069237724,0.0640496165,0.0320778769,0.0152687468,0.0141131580,0.0000300147,0.0839458052,0.0000345446,0.0000364631,0.0068719573,
1000,0.0089237448,0.0139475744,0.0217493493,0.0000472013,0.0129523482,0.0004933681,0.0053268429,0.0273371488,0.0055079293,0.0091578886,0.0362067465,0.0219777897,0.0217773020,0.0727867689,0.0000290740,0.0048963428,0.0628298540,0.0248129014,0.0272791889,0.0000344981,0.0000304729,0.1336351763,0.0000454597,0.0000414625,0.0147841945,
1023,0.0058432613,0.0014054663,0.0131377298,0.0000432413,0.0039840974,0.0000425223,0.0045253672,0.0500698276,0.0106742661,0.0041732527,0.0098637994,0.0035077259,0.0050293226,0.0853499211,0.0064599868,0.0070373993,0.0600080527,0.0658509266,0.0348090846,0.0069744028,0.0000360478,0.0078423321,0.0000467468,0.0000434294,0.0000281259,
1024,0.0421179477,0.0040035620,0.0173865668,0.0000553429,0.0112515800,0.0040450748,0.0069437604,0.0187483244,0.0006421544,0.0039949454,0.0213129912,0.0171767697,0.0051283315,0.0702895653,0.0147870779,0.0009553917,0.0537641663,0.0559501573,0.0290876441,0.0000258312,0.0000668932,0.0006028265,0.0000430029,0.0000402499,0.0000278763,
5000,0.0192815326,0.0092935413,0.0347074158,0.0000456646,0.0114065763,0.0069795828,0.0055168830,0.0193731189,0.0122482590,0.0083181038,0.0188013595,0.0378089640,0.0103884786,0.0598354638,0.0430590492,0.0020863004,0.0435616113,0.0587219000,0.0247297194,0.0092844907,0.0000491496,0.0000342876,0.0000494756,0.0000447854,0.0232809894,
10000,0.0070183892,0.0136520118,0.0142271481,0.0000548959,0.0138867889,0.0014858916,0.0041043870,0.0053471252,0.0131565332,0.0093839057,0.0275088456,0.2564832419,0.0634784233,0.0614345130,0.0237978846,0.0054894034,0.0479981210,0.0549216419,0.0446914490,0.0000511203,0.0000631250,0.0000570230,0.0000649281,0.0002067052,0.0121879280,
16384,0.0187370405,0.0171815474,0.0042634364,0.0001453273,0.0198331792,0.0000632964,0.0085622147,0.0045315139,0.0101863500,0.0035503618,0.0128232595,0.0177457407,0.0322244130,0.1463787071,0.0719709992,0.0004801136,0.0498130899,0.0355803594,0.0541299209,0.0000445228,0.0012040492,0.0000700038,0.0000722203,0.0000634305,0.0187009797,
30000,0.0139288791,0.0225087721,0.0227325000,0.0000833403,0.0088516232,0.0000795666,0.0043214057,0.0232332684,0.0000555888,0.0005209446,0.0042507332,0.0041109100,0.0420563314,0.1979577150,0.0655468814,0.0006411485,0.0480066985,0.0659234636,0.0372956619,0.0084649101,0.0000952259,0.0001358408,0.0000814088,0.0000921674,0.0091854073,
60000,0.0105101988,0.0028228331,0.0158630852,0.0001152828,0.0168033447,0.0023584105,0.0077291876,0.0327203963,0.0120647848,0.0091712791,0.0155225471,0.0042131003,0.0185619332,0.0750423279,0.0479274001,0.0046251845,0.0388718061,0.0599707942,0.0441222955,0.0080292523,0.0001128279,0.0000782590,0.0024709105,0.0001181290,0.0048458185,
65535,0.0122592784,0.0133334324,0.0026219282,0.0001850948,0.0217138156,0.0027010832,0.0083873179,0.0321357399,0.0233605653,0.0000772271,0.0165431071,0.0108937155,0.0701291524,0.2387257777,0.0678647999,0.0028258767,0.0520064235,0.0540073533,0.0042710230,0.0131670814,0.0001189616,0.0006631110,0.0001123995,0.0001220927,0.0209112708,
65536,0.0042273160,0.0000797920,0.0231473017,0.0004404951,0.0130232368,0.0047578849,0.0057527274,0.0444018058,0.0080568735,0.0001532640,0.0222618170,0.0222501121,0.1658884306,0.0579454545,0.0740918294,0.0000782162,0.1237287894,0.0480828099,0.0052062068,0.0041705053,0.0002400484,0.0039217826,0.0001535397,0.0001860671,0.0104138535,
100000,0.0173051916,0.0036725365,0.0138659049,0.0001478810,0.0160412677,0.0001232345,0.0042201653,0.0064042285,0.0254474506,0.0018962547,0.0001169257,0.0481703691,0.1334025003,0.3679845482,0.0481585488,0.0039749183,0.0540869292,0.0589660015,0.0082143098,0.0000804327,0.0001791436,0.0001877993,0.0008665491,0.0211569853,0.0053347182,
500000,0.0224843770,0.0003107525,0.0138042979,0.0005878694,0.0042647272,0.0034352224,0.0132719912,0.0206281040,0.0170147195,0.0136057362,0.0195143744,0.0043062195,0.0274393223,0.0510562416,0.0724953450,0.0071295761,0.0588064026,0.0639860351,0.0065493044,0.0114798788,0.0019418858,0.0004677922,0.0004187133,0.0117516983,0.0064975955,
750000,0.0446516927,0.0004933756,0.0226594731,0.0008239299,0.0090234410,0.0054530706,0.0008953735,0.0175002441,0.0097311158,0.0090049747,0.0200657565,0.0671525244,0.0081926268,0.0511056799,0.0770083945,0.0089625046,0.0615611468,0.0565426610,0.0047423486,0.0006248876,0.0006272607,0.0006708410,0.0006796550,0.0200636480,0.0265911631,
1000000,0.0145455450,0.0085179228,0.0249366928,0.0008185972,0.0132244341,0.0010131393,0.0283545200,0.0170424767,0.0107887238,0.0037886035,0.0185801797,0.0150822923,0.0363783836,0.0451732054,0.0616256557,0.0731681846,0.0493094027,0.0541365743,0.0088504758,0.0131189674,0.0007864628,0.0055750739,0.0009917133,0.0104553029,0.0027661435,
2000000,0.0244628824,0.0137867127,0.0177461132,0.0018323287,0.0229576938,0.0053908043,0.0149106588,0.0976144150,0.0138689820,0.0123928059,0.0186297819,0.0156709887,0.0121140312,0.0761518627,0.5133149568,0.0631439351,0.0533413943,0.0543472059,0.0037200488,0.0283427164,0.0018656887,0.0021892376,0.0016677324,0.0068981275,0.0184795391,
4194303,0.0408480428,0.0197442137,0.0283745192,0.0097428728,0.0071035046,0.0098910239,0.0132032298,0.0122148525,0.0167717300,0.0243201759,0.0185196046,0.0055924822,0.0492538232,0.0720307790,0.0484071653,0.0646863114,0.0600083005,0.0679944046,0.0051602703,0.0241739899,0.0054237917,0.0050366409,0.0049772933,0.0151148085,0.0251211170,
4194304,0.0358917285,0.0259954836,0.0259677060,0.0205449667,0.0238577817,0.0104319453,0.0267132800,0.0271327160,0.0122188441,0.0206792038,0.0151720531,0.0109254774,0.0681651197,0.0663931128,0.0681315884,0.0704277325,0.0639647208,0.0920650754,0.0141121875,0.0159182847,0.0087065008,0.0097742993,0.0224179886,0.0214375332,0.0524812862,
5000000,0.0226305984,0.1779582109,0.0282590017,0.0254487842,0.0230144020,0.0352590196,0.0281609856,0.0265863668,0.0079544857,0.0328578185,0.0236237850,0.1425478794,0.0155283548,0.0596030056,0.0679259580,0.0540936347,0.0640209801,0.0816443525,0.0259298980,0.0178405643,0.0074128285,0.0232479423,0.0342097972,0.0623244904,0.1550393496,
8388608,0.0468285382,0.0194850955,0.0245261081,0.0297961943,0.0205698702,0.0401715692,0.0267070271,0.0288066473,0.0256058145,0.0335997101,0.0242418721,0.0445057992,0.1256692186,0.2443253268,0.0799890514,0.1039654128,0.0713286456,0.0839043036,0.0273533277,0.0259701144,0.0433688145,0.0252930149,0.0364570003,0.0442239679,0.0168511551,
10000000,0.0292889718,0.0208305474,0.0750042126,0.0289789457,0.0718903560,0.0318327248,0.0254112147,0.0459263176,0.0460084453,0.0225569773,0.0315029137,0.0323654804,0.0424811170,0.0425309688,0.0426855274,0.1358971372,0.0710508712,0.0743244737,0.0433041714,0.0313166939,0.0669509787,0.0443593804,0.0243360382,0.0461979043,0.0171601083,
16777215,0.0465961359,0.0466799457,0.1390261482,0.0466956887,0.0321903899,0.0441026427,0.0474341102,0.0559837092,0.1034394894,0.0559444409,0.0333327837,0.0523822419,0.1189289056,0.0470597669,0.0337388255,0.1324321553,0.0376727544,0.1523670740,0.0533638317,0.0332460199,0.0351228323,0.0402285159,0.0360019114,0.0509444643,0.0449641012,
16777216,0.0547175352,0.0513848439,0.0391633455,0.0279663913,0.0318712126,0.0554204863,0.0475667808,0.0889414810,0.0212694388,0.0489552040,0.0342474114,0.0459554400,0.0375189148,0.1628764011,0.2004828714,0.0293224715,0.0577851571,0.0297307987,0.0493664686,0.0342743602,0.0296956934,0.0473341718,0.0748199578,0.0439045411,0.0411091354,
20000000,0.0566701759,0.0632474665,0.0643797424,0.0386613794,0.0255708341,0.0703543033,0.0458278470,0.0319076031,0.3102061562,0.0702641457,0.0606100094,0.0456827935,0.0833593979,0.4744441081,0.1612339467,0.0362317208,0.1673117187,0.3199342359,0.0521251261,0.0308675170,0.0475509576,0.0440133270,0.0390669201,0.0564512052,0.0571532678,
30000000,0.0780433211,0.0578681584,0.0353286080,0.0621562935,0.1170541942,0.0388753805,0.0618317444,0.1993260235,0.0766669009,0.0871859528,0.0684006121,0.1133991517,0.0484451801,0.0377630889,0.2451255824,0.2161607109,0.2172756717,0.6424594242,0.0754132420,0.0710395500,0.1036407016,0.1432011202,0.0687538814,0.0604231879,0.0632044598,
33554432,0.0842722412,0.0821312275,0.0577023588,0.0689061172,0.1485219393,0.1403096057,0.0882868376,0.0434615519,0.0713477880,0.0647841003,0.0887349173,0.1047884952,0.0752926208,5.3631040193,0.0390577912,0.2724540923,0.0493708886,0.0298111998,0.0839352105,0.0600739457,0.0884515755,0.0840411801,0.0418339092,0.2850074247,0.0790120512,
67108864,0.0918377433,0.3655436039,0.1512022093,0.2782467399,0.2715249080,0.1326789334,0.1605862658,0.0868284795,0.1515220664,0.0958642997,0.1513095517,0.7782139834,0.1350505017,0.4184725657,0.1186710242,0.0779367983,0.5123854186,0.4680939112,0.1404085942,0.1521467883,0.1456718519,0.1003077980,0.1519740000,0.1541596334,0.3382241856,
134217728,0.1721592564,0.1739766002,0.4504541866,0.2080336325,0.2784812227,0.5117247589,0.3053901494,0.3756412808,0.2248205747,0.1953416951,0.3203909714,0.2448286489,0.6237609051,0.1471318603,11.4652982503,0.6530949604,0.2335577626,0.3040664513,0.3765186332,0.2632590253,0.2526326291,0.3383631334,1.9037779104,0.2012209259,0.2490800582,
