2,0.00000,0.00000,0.00000,0.00000,0.00000,0.00000,0.00000,0.00000,0.00000,0.00000,0.00000,0.00000,0.00000,0.00000,0.00000,0.00000,0.00000,0.00000,0.00000,0.00000,0.00000,0.00000,0.00000,0.00000,0.00000,
4,0.00000,0.00000,0.00000,0.00000,0.00000,0.00000,0.00000,0.00000,0.00000,0.00000,0.00000,0.00000,0.00000,0.00000,0.00000,0.00000,0.00000,0.00000,0.00000,0.00000,0.00000,0.00000,0.00000,0.00000,0.00000,
8,0.00000,0.00000,0.00000,0.00000,0.00000,0.00000,0.00000,0.00000,0.00000,0.00000,0.00000,0.00000,0.00000,0.00000,0.00000,0.00000,0.00000,0.00000,0.00000,0.00000,0.00000,0.00000,0.00000,0.00000,0.00000,
10,0.00000,0.00000,0.00000,0.00000,0.00000,0.00000,0.00000,0.00000,0.00000,0.00000,0.00000,0.00000,0.00000,0.00000,0.00000,0.00000,0.00000,0.00000,0.00000,0.00000,0.00000,0.00000,0.00000,0.00000,0.00000,
15,0.00000,0.00000,0.00000,0.00000,0.00000,0.00000,0.00000,0.00000,0.00000,0.00000,0.00000,0.00000,0.00000,0.00000,0.00000,0.00000,0.00000,0.00000,0.00000,0.00000,0.00000,0.00000,0.00000,0.00000,0.00000,
16,0.00000,0.00000,0.00000,0.00000,0.00000,0.00000,0.00000,0.00000,0.00000,0.00000,0.00000,0.00000,0.00000,0.00000,0.00000,0.00000,0.00000,0.00000,0.00000,0.00000,0.00000,0.00000,0.00000,0.00000,0.00000,
63,0.00000,0.00000,0.00000,0.00000,0.00000,0.00000,0.00000,0.00000,0.00000,0.00000,0.00000,0.00000,0.00000,0.00000,0.00000,0.00000,0.00000,0.00000,0.00000,0.00000,0.00000,0.00000,0.00000,0.00000,0.00000,
64,0.00000,0.00000,0.00000,0.00000,0.00000,0.00000,0.00000,0.00000,0.00000,0.00000,0.00000,0.00000,0.00000,0.00000,0.00000,0.00000,0.00000,0.00000,0.00000,0.00000,0.00000,0.00000,0.00000,0.00000,0.00000,
1000,0.00000,0.00000,0.00000,0.00000,0.00000,0.00000,0.00000,0.00000,0.00000,0.00000,0.00000,0.00000,0.00000,0.00000,0.00000,0.00000,0.00000,0.00000,0.00000,0.00000,0.00000,0.00000,0.00000,0.00000,0.00000,
1023,0.00000,0.00000,0.00000,0.00000,0.00000,0.00000,0.00000,0.00000,0.00000,0.00000,0.00000,0.00000,0.00000,0.00000,0.00000,0.00000,0.00000,0.00000,0.00000,0.00000,0.00000,0.00000,0.00000,0.00000,0.00000,
1024,0.00000,0.00000,0.00000,0.00000,0.00000,0.00000,0.00000,0.00000,0.00000,0.00000,0.00000,0.00000,0.00000,0.00000,0.00000,0.00000,0.00000,0.00000,0.00000,0.00000,0.00000,0.00000,0.00000,0.00000,0.00000,
5000,0.00001,0.00001,0.00001,0.00001,0.00001,0.00001,0.00001,0.00001,0.00001,0.00001,0.00001,0.00001,0.00001,0.00001,0.00001,0.00001,0.00001,0.00001,0.00001,0.00001,0.00001,0.00001,0.00001,0.00001,0.00001,
10000,0.00001,0.00001,0.00003,0.00001,0.00001,0.00001,0.00003,0.00003,0.00001,0.00001,0.00001,0.00001,0.00003,0.00003,0.00001,0.00003,0.00001,0.00001,0.04427,0.00003,0.00001,0.00001,0.00001,0.00001,0.00001,
16384,0.00002,0.00002,0.00004,0.00002,0.00004,0.00002,0.00005,0.00004,0.00002,0.00002,0.00002,0.00004,0.00004,0.00005,0.00002,0.00004,0.00002,0.00002,0.01893,0.00005,0.00002,0.00002,0.00002,0.00002,0.00002,
30000,0.00004,0.00004,0.00009,0.00014,0.00007,0.00004,0.00009,0.00008,0.00004,0.00004,0.00004,0.00005,0.00009,0.00009,0.00004,0.00009,0.00006,0.00004,0.00004,0.00009,0.00004,0.00087,0.00004,0.00004,0.00004,
60000,0.00008,0.00008,0.00017,0.00011,0.00009,0.01318,0.00008,0.00017,0.00050,0.02067,0.00007,0.00007,0.00018,0.00018,0.00008,0.00017,0.00011,0.00008,0.00008,0.00017,0.00007,0.00007,0.00007,0.00007,0.00008,
65535,0.00009,0.00008,0.00019,0.00019,0.00019,0.00008,0.00008,0.00019,0.00008,0.00012,0.00008,0.00019,0.00019,0.00019,0.00019,0.00019,0.00008,0.00008,0.00008,0.00019,0.00011,0.00009,0.00008,0.00008,0.00008,
65536,0.00008,0.00008,0.00019,0.00009,0.00019,0.00009,0.00030,0.00019,0.00009,0.00008,0.00008,0.00019,0.00019,0.00019,0.00019,0.00019,0.00019,0.00008,0.00008,0.00019,0.00008,0.00008,0.00008,0.00008,0.00008,
100000,0.00018,0.00012,0.00029,0.00012,0.00029,0.00013,0.00012,0.00029,0.00013,0.00017,0.00012,0.00029,0.00032,0.00029,0.00029,0.00029,0.00030,0.00014,0.00012,0.00029,0.00012,0.00012,0.00013,0.00012,0.00012,
500000,0.00096,0.00122,0.00063,0.00104,0.00103,0.00207,0.00087,0.00064,0.00104,0.00079,0.03531,0.00071,0.00063,0.00061,0.00217,0.00069,0.00068,0.00071,0.00123,0.00063,0.00076,0.00070,0.00065,0.00064,0.00064,
750000,0.00118,0.00113,0.00113,0.00201,0.00100,0.00119,0.00143,0.00136,0.00111,0.00367,0.00099,0.00127,0.00114,0.00099,0.00109,0.00113,0.00113,0.00815,0.00155,0.00121,0.00272,0.00116,0.00117,0.00138,0.01139,
1000000,0.00179,0.00199,0.00155,0.00268,0.00145,0.00280,0.00175,0.01370,0.00167,0.00504,0.00152,0.00148,0.00173,0.00160,0.00155,0.00157,0.00151,0.12402,0.00158,0.00221,0.00158,0.16162,0.00157,0.00171,0.04150,
2000000,0.00338,0.01195,0.00330,0.00525,0.00613,0.01424,0.00534,0.00371,0.00410,0.02474,0.00415,0.00348,0.00368,0.00341,0.00474,0.00358,0.00336,0.00520,0.00414,0.00630,0.00481,0.32434,0.00350,0.01030,0.02907,
4194303,0.00878,0.01945,0.00963,0.02339,0.00773,0.01843,0.00771,0.00849,0.00737,0.00800,0.00841,0.00749,0.00924,0.00718,0.00804,0.00839,0.00805,0.00823,0.01202,0.01666,0.00754,0.00727,0.00773,0.02153,1.06805,
4194304,0.00790,0.00790,0.00813,0.02707,0.00978,0.01284,0.04398,0.00821,0.00809,0.00852,0.00744,0.00705,0.00783,0.00711,0.00770,0.00782,0.00811,0.00736,0.00743,0.02095,0.00757,0.00817,0.00821,0.00738,0.00792,
5000000,0.00958,0.00985,0.01279,0.02246,0.00913,0.00977,0.01636,0.00987,0.00921,0.01067,0.01879,0.00940,0.00903,0.00825,0.00919,0.00813,0.00913,0.00918,0.00941,0.06805,0.00883,0.01070,0.00919,0.00953,0.00914,
8388608,0.01988,0.01529,0.01499,0.02434,0.01928,0.01552,0.01576,0.01856,0.01780,0.01563,0.02388,0.02986,0.03866,0.01955,0.01516,0.02612,0.01519,0.01556,0.01945,0.08762,0.08742,0.01513,0.05486,0.01553,0.01516,
10000000,0.02609,0.01997,0.02491,0.08454,0.02316,0.01800,0.01995,0.01786,0.01865,0.06319,0.18421,0.01836,0.02826,0.01719,0.01807,0.02348,0.01754,0.01610,0.01865,0.40484,0.05113,0.03948,0.01928,0.03605,0.06618,
16777215,0.03604,0.03170,0.04950,0.03164,0.03349,0.02986,0.03080,0.05167,0.03279,0.02772,0.03903,0.03051,0.03300,0.02899,0.03018,0.03943,0.03003,0.03073,0.04627,0.03058,0.04440,0.03126,0.08388,0.03155,0.04871,
16777216,0.03689,0.03078,0.02859,0.03100,0.21204,0.03039,0.06889,0.03139,0.04515,0.04569,0.03597,0.03099,0.03000,0.03426,0.03147,0.02734,0.04484,0.10086,0.06381,0.03361,0.03052,0.04506,0.12081,0.03148,0.03117,
20000000,0.05424,0.03489,0.06590,0.09909,0.03389,0.07148,0.05282,0.03739,0.24152,0.06291,0.10236,0.05125,0.03725,0.04042,0.03255,0.03907,0.03551,0.12764,0.03932,0.29528,0.03467,0.03688,0.05034,0.05239,0.03445,
30000000,0.05752,0.05518,0.06540,0.06599,0.07020,0.05632,0.06467,0.74614,0.21763,0.79801,0.05430,0.11553,0.05361,0.04820,0.05342,0.08386,0.06414,0.05507,0.06106,0.11328,0.05915,0.05558,0.06287,0.07005,0.08490,
33554432,0.08859,0.06127,0.06254,0.37426,0.07186,0.09323,0.05964,0.17259,0.07404,0.06197,0.32465,0.09375,0.06122,0.05725,0.09148,0.06336,0.05908,0.08786,0.46426,0.07292,0.05824,0.06052,0.07259,0.07398,0.05873,
67108864,0.18856,0.21178,0.17449,0.26764,0.24800,0.32650,0.64272,0.21734,0.12471,0.11779,0.12891,0.20116,0.13613,0.16163,0.15319,0.18417,0.14934,0.20670,0.32156,0.11323,0.11698,0.35626,2.08685,0.25936,0.20232,
134217728,1.81407,0.74282,0.67170,0.34243,1.84275,0.90245,0.45756,0.39936,0.29011,0.25410,0.36000,0.28430,0.23811,0.26490,0.21738,0.35236,0.39969,1.80408,0.71568,0.39699,1.47378,0.24197,0.33922,3.59640,0.31740,
