2,0.0181917008,0.0355374869,0.0181206539,0.0316501837,0.0180323925,0.0243961699,0.0141329225,0.0167701282,0.0547455605,0.0357465129,0.0422543567,0.1385293622,0.0309249088,0.0547455717,0.0423965715,0.0167182367,0.0249803290,0.0692870207,0.0349481050,0.0346013270,0.0413654558,0.0410417095,0.0433280729,0.0170285664,0.0502706580,
4,0.0249072630,0.0445146840,0.0228052270,0.0193919037,0.0515539125,0.0259505324,0.0123915579,0.0218713321,0.0532933306,0.0760699715,0.0701582246,0.0176859368,0.0550621692,0.0577092543,0.0662841499,0.0220708475,0.0827274881,0.0474130642,0.0360017773,0.0474553294,0.0484392289,0.0532545652,0.0379087143,0.0193549804,0.1163480747,
8,0.0302249845,0.0655068960,0.0477441307,0.0358853955,0.0781354494,0.0288290661,0.0218577143,0.0318127852,0.1562152207,0.1388776768,0.0765133500,0.0213651694,0.0765532535,0.0641913936,0.0919699650,0.0311090183,0.0546414200,0.0317320079,0.0726622045,0.0794897042,0.0564097594,0.0678414237,0.0643443409,0.0315880161,0.1755560283,
10,0.0300341956,0.0874423981,0.0851418320,0.0310226716,0.0273555312,0.0388758350,0.0267192982,0.0408506989,0.2413881309,0.1041728891,0.0702492055,0.0364400428,0.0905647874,0.1476620324,0.2456930373,0.0356800295,0.0837098695,0.0497127622,0.0776775572,0.0847751591,0.0703252777,0.0771440249,0.0904078800,0.0279229395,0.0877252035,
15,0.0309050120,0.0691850074,0.1844825298,0.0328728743,0.0366696138,0.0363312811,0.0344962180,0.0432032160,0.1879323106,0.0743574481,0.0599605907,0.0333983358,0.0759737901,0.1835788172,0.1638772357,0.0369127933,0.0652702525,0.0374179557,0.0743960235,0.0889851861,0.0629118439,0.0591079108,0.0856170077,0.0795983579,0.0915122535,
16,0.0297299400,0.1072927155,0.3359881472,0.0362989735,0.0339778848,0.0383487977,0.0336548872,0.0305681899,0.0790959876,0.0922470260,0.0601295885,0.0373153444,0.0958446264,0.0767249577,0.0365186129,0.0362648647,0.0747107770,0.0321938638,0.1462582685,0.0859873798,0.0749192815,0.0551626068,0.0756861418,0.0229027234,0.0833378173,
63,0.0387722142,0.1432345789,0.0882411618,0.0491729807,0.0388004277,0.0553146563,0.0451123416,0.0374161694,0.1240058299,0.0726690888,0.0998413227,0.0395458881,0.1013439167,0.3355307616,0.0502649043,0.0581197198,0.1247314103,0.0451179072,0.1090766769,0.1075868066,0.2037225533,0.1204205826,0.1150571220,0.0553820804,0.0880580526,
64,0.0424513686,0.1807387471,0.1332819816,0.0523661878,0.1123695336,0.0667833518,0.0415197909,0.0478548314,0.0960416440,0.0679995362,0.1491022706,0.0417311825,0.1009557787,0.0709700342,0.0320455544,0.0514874868,0.3276632689,0.0485751405,0.1351278909,0.0972119924,0.1182081345,0.0988744050,0.1284366660,0.0408474840,0.1298780888,
1000,0.0632663295,0.1773717776,0.3625345062,0.3999306429,0.0592857283,0.0812384933,0.0601113215,0.0940288268,0.1625614129,0.1277088113,0.1695949417,0.0755136311,0.1593853049,0.1104491949,0.0597372930,0.0612655785,0.1341251731,0.0744408313,0.1441594940,0.1663009655,0.1460052263,0.1382667720,0.1474901251,0.1982250623,0.1609066222,
1023,0.0700153559,0.1551545840,0.3536910973,0.1391003728,0.0606176592,0.0685657132,0.0592690483,0.2614418287,0.4352874905,0.0784113780,0.1644066926,0.2180554233,0.1622400992,0.0791846793,0.0693836678,0.0835868232,0.0758172274,0.0681847576,0.1602293886,0.1328476239,0.1567365378,0.1323841363,0.1844662409,0.0638826340,0.1321625337,
1024,0.0757332910,0.1951774098,0.0625092164,0.1859884355,0.2061180640,0.1148662828,0.0664229393,0.0662318673,0.1410557497,0.0866496395,0.3119140174,0.0643150602,0.1453462392,0.0776037611,0.0711453650,0.0557647254,0.0704883970,0.1527030990,0.2443696912,0.1522946339,0.1293827333,0.1034999210,0.4699911922,0.2257013824,0.3645919263,
5000,0.0811526719,0.2926011886,0.0950126201,0.1944099646,0.1665845197,0.0917669088,0.0845701117,0.0959647465,0.2112367097,0.0993123502,0.2928026207,0.2086734027,0.1712092496,0.0952701494,0.2088567354,0.0840316042,0.0912069753,0.1412954219,0.5647937525,0.2103534881,0.1204726454,0.0875830147,0.1587420404,0.0770502575,0.0792919174,
10000,0.1273460910,0.1928433534,0.1108776797,0.3851010911,0.2287978530,0.0886715800,0.0973763987,0.0921679474,0.4864488244,0.2614649776,0.1441619750,0.2425731793,0.2180056591,0.0825227927,0.1974661388,0.1035154760,0.0981171615,0.6290122885,0.0953090210,0.2030332237,0.1235176865,0.0997873899,0.1098117288,0.0900941528,0.0942884814,
16384,0.0971645229,0.1975027416,0.3568251301,0.2208168693,0.2544286381,0.0874993801,0.0977530293,0.1563537642,0.2146218773,0.1970038619,0.0896802545,0.2358322330,0.3040134460,0.0827187896,0.2056988478,0.1075129658,0.1046332829,0.2577862013,0.1196292937,0.1911891811,0.1012535151,0.1080345698,0.0903641712,0.0882297680,0.1002113372,
30000,0.1589850504,0.1706333496,0.2530875318,0.4326332472,0.5844971742,0.3609320987,0.1095360443,0.2544345707,0.2240479179,0.4309106506,0.1190165430,0.3391757198,0.2245645132,0.4419431835,0.4746248201,0.0970733203,0.2604556978,0.2458901089,0.1013325788,0.1981104631,0.0944752041,0.1008003522,0.0871161669,0.0917287469,0.1871793345,
60000,0.2103311755,0.1668499708,0.4491969999,0.2099270225,0.2568062134,0.3914002329,0.0997201707,0.7147056405,0.3416022323,0.3780204020,0.1890076008,0.3008026071,0.1406673770,0.0996537786,0.3773690406,0.1178440880,0.2866654489,0.5073986668,0.1185074653,0.2006068062,0.1285040174,0.1271580625,0.1042510998,0.1195182037,0.3352309465,
65535,0.1463529039,0.1265640222,0.5768480506,0.3201647438,0.1763439160,0.2838850226,0.1325085890,0.2619369254,0.2138709091,0.3104023170,0.2934563253,0.2965089642,0.1136669405,0.2753637265,0.4256044049,0.1132708844,0.6292423215,0.3671302684,0.2434591725,0.1342244595,0.1039846763,0.2076216936,0.1169363298,0.0993087422,0.3094341476,
65536,0.1600541342,0.1113521475,0.3309778646,0.1956353225,0.1730139740,0.1115947105,0.1066529695,0.2617230099,0.1791797634,0.2250349466,0.6753179450,0.2344575804,0.1220793948,0.2714464683,0.2692623306,0.1193046812,0.2561519425,0.2497235294,0.5542286336,0.1236039884,0.1211014669,0.2977219820,0.2831414696,0.1011855621,0.2769318856,
100000,0.1219169237,0.3072063606,0.3177950531,0.2595343031,0.2845120616,0.1184868626,0.1411964670,0.5223463792,0.2675796300,0.5999568868,0.1781387851,0.3207153063,0.1345558800,0.3293369506,0.6150320638,0.1364464723,0.2592852600,0.3079324644,0.1973217204,0.1359995548,0.3215847928,0.3207464237,0.8044372723,0.1192977019,0.2727638129,
500000,0.2762761712,0.5357410014,0.3285763953,0.2986226138,0.2616817225,0.2982327938,0.2884272728,0.3148523681,0.9151009228,0.2872549109,0.3397332523,0.4619886279,0.5417414717,0.5597935785,0.2663270086,0.2639485989,0.4353697319,0.6625507642,0.3096311986,0.2689372078,0.2873394955,0.5196214765,0.3284315541,0.2602696661,0.8692812398,
750000,0.3547137585,0.8896687720,1.1452537347,0.7291815598,0.8372266907,0.6071586702,0.3681960460,0.3418275584,0.5980511121,0.5132409949,0.6023019571,0.4706144016,0.6055934150,0.5867642742,0.3630596045,1.4466188103,0.4529938363,0.3961902931,0.3456406444,0.6969183460,0.3748697676,0.7740003690,0.3654839694,0.4464484118,0.4014110696,
1000000,0.5569849461,0.5763430540,0.6619096026,1.0677155275,0.6428364553,0.7707871217,0.5014091898,0.4991820809,0.7774345390,0.6962491907,0.7703026310,0.5392969400,0.8782219253,0.6029599272,0.7253411226,0.4429080747,0.5352917481,1.1074480824,0.5504038222,0.8647439443,0.6618717480,0.6879313383,1.1061765905,0.6824281663,0.7951636203,
2000000,0.7107337955,1.0174268968,1.0753509924,1.2256107312,0.8793818224,1.0159533862,0.9506560545,1.0558608696,1.2671377901,1.1534254849,0.9446488488,1.5029693823,1.0983404461,0.9074588623,0.9977593478,1.0040313210,1.2821821589,1.6068644803,1.1045890581,0.7739000730,1.1597169153,1.1641465388,0.8019607849,0.7433615569,1.2329262439,
4194303,2.5986457188,1.7290633619,1.7937580831,1.9848290905,1.9943086337,1.7349277530,1.5715703275,1.7756261639,1.9770201799,1.7887930777,1.8585070036,1.5515150744,1.8477670178,2.2029561177,1.5761727989,1.5097966101,1.8567725755,1.5455827825,1.6655238643,1.7884210888,1.5122903585,1.9385780375,2.2063835710,1.8325291313,1.6501164585,
4194304,1.6829050221,1.7724538483,1.6781309247,1.9410340544,1.5386703499,1.4554281496,1.4843941163,1.7875230964,1.7881885916,1.8133702613,1.7804821953,1.7108424250,1.9089097250,1.7073108759,3.3973013330,2.2578231953,2.5822610725,2.0188754033,1.8376957867,1.6010523252,1.8598842509,2.2185707148,1.6123112328,1.5646654665,1.8507533949,
5000000,1.7672802787,2.1347173490,2.4583523367,2.0322217923,2.1612586863,2.2818975374,3.3301891461,2.0236991309,2.2987792958,2.9026808143,2.0759402495,2.0197817609,1.9956997223,2.4021802675,2.1269091498,1.8053379897,2.3561593369,1.6725440808,1.8413527906,2.4306640737,2.2803516891,2.0886702966,2.0545452461,1.9654528219,1.9824047498,
8388608,2.4884114787,4.1889181491,3.2385607548,3.3128426410,3.0322577581,3.2282649335,2.7640973404,4.8947015982,4.0538810734,3.0749431700,3.1310072411,3.1105163489,2.6069148164,2.8027571794,4.3608233221,2.8126973622,3.6531911325,3.3291373067,3.0375167765,3.1332718618,3.1080666315,2.9956649262,3.0110407751,2.8002935220,2.9953589514,
10000000,3.4089954700,3.6100924332,3.5064899623,3.6396087427,3.5799410734,3.7004440278,3.6308426242,3.7377848085,3.7872492783,3.6536883861,3.5950308833,3.3087872751,3.6445856299,3.7332637645,3.3986771926,3.4487186763,3.7362179849,3.3891216144,3.4069442526,3.7745449767,3.7021566294,3.3128952030,3.7732979804,3.8129803222,3.6016953308,
16777215,5.2864813134,5.7183271274,5.7077876758,7.4375757482,4.9416043814,6.0372682437,5.8374704849,5.4210393149,5.3785097152,5.7499842010,5.6275875773,6.1018451862,5.9328672178,5.0732942577,5.6250993405,6.1797535364,6.5043096747,5.9552518781,6.1000400279,6.1454665903,5.9481702019,5.6632090285,5.6990305949,5.4783275351,5.9717166182,
16777216,5.5959716439,5.5985633302,6.2064811978,5.9904279821,5.6191096976,5.5845152866,6.4548446350,5.8548350055,6.0184196513,5.1830334645,5.5254003331,5.2498293296,6.0046227034,5.3188496828,5.9040792584,4.4119535089,6.0737271160,5.4932304304,6.4836085159,5.7790733799,5.4753084555,4.9846413378,5.7097898386,5.4386372138,6.0415802561,
20000000,6.3894124422,6.6940584667,6.6653483268,7.3393543679,6.4508312400,7.4351995829,7.2720112316,6.7425704338,6.4929582868,7.9422696009,6.3367397785,9.4788285755,6.6825259682,6.5929922033,7.0087572429,6.8042789940,7.4232540391,6.0225034412,6.4443969987,6.5568411741,7.0076949932,6.9318424426,6.4925159998,6.2895633318,6.7754356563,
30000000,9.0041534975,9.7516994141,9.7015961371,10.1332928855,9.1079593804,9.6580658834,9.9546495322,10.0818829518,10.7156464662,8.9768945575,8.8823653348,9.6315757334,9.9128399063,8.3235826809,8.1774910856,8.8416633438,10.2300322969,9.0735838655,9.9431926869,9.0332944542,9.2311110683,10.8779373579,9.4082293864,9.8086971268,9.6945846807,
33554432,10.1787268482,11.1043328568,11.7387896627,11.2955400385,10.1435665060,10.6700964682,11.6152953710,10.8917180710,11.2637681887,10.3940656818,9.3163398504,11.1323815379,10.2359756716,14.7893628832,11.3860480040,11.0691201780,10.2680253778,10.2672032267,10.6124892868,10.1389048360,10.3820005879,11.6054266728,11.1271269824,11.0861520134,10.5579608623,
67108864,21.4073391687,20.8149889614,19.3011731058,21.1088565253,17.1663750205,20.4279787615,19.1210761648,21.5689878762,18.7202769071,18.2562274858,20.0033031683,18.6911637615,19.0784660131,19.9633637257,16.4670064393,20.6330733933,20.9504401013,19.7263053842,20.8327037841,21.3779962920,22.7909871917,20.9535522964,19.7125865649,17.5650509819,19.7293358576,
134217728,41.0028884932,40.6497266460,37.8747877330,39.5946314074,38.7279339693,39.9345306251,45.2818324044,42.8770263307,35.9002310708,36.6385749429,36.9926050361,42.4057422448,40.4331885539,38.2628787253,43.7260747235,38.7330093496,34.8415644914,37.0756504573,42.2328228820,40.5123251434,41.1269622874,38.2582152151,38.2221396938,39.1990055479,40.7798074428,
