mpi;	mpi;	mpi;	mpi;	mpi
0.08441;	0.08687;	0.09999;	0.06999;	0.08959
0.08891;	0.09671;	0.06273;	0.10700;	0.10187
0.05889;	0.08017;	0.05452;	0.06672;	0.06359
0.06987;	0.10392;	0.05999;	0.05962;	0.05554
0.07993;	0.09591;	0.08055;	0.06703;	0.05292
0.10893;	0.11593;	0.17769;	0.08357;	0.07235
0.16493;	0.06319;	0.06619;	0.08624;	0.06998
0.07678;	0.11777;	0.06909;	0.07993;	0.05924
0.07992;	0.05977;	0.07400;	0.05344;	0.12460
0.08202;	0.07915;	0.06811;	0.06469;	0.06692
0.08157;	0.08900;	0.06901;	0.07163;	0.05286
0.06555;	0.11652;	0.10491;	0.11691;	0.07999
0.05590;	0.08498;	0.05963;	0.07901;	0.06666
0.07299;	0.07549;	0.07306;	0.07527;	0.06590
0.09998;	0.10864;	0.09803;	0.05203;	0.06635
0.08000;	0.09041;	0.07752;	0.07530;	0.10378
0.07997;	0.07297;	0.07803;	0.08998;	0.05293
0.08998;	0.07412;	0.07612;	0.08153;	0.06475
0.06533;	0.07440;	0.09736;	0.08998;	0.08683
0.09312;	0.09994;	0.10399;	0.08497;	0.10634
0.07281;	0.08946;	0.07532;	0.08185;	0.07187
0.08754;	0.07601;	0.12520;	0.09101;	0.07766
0.11325;	0.09120;	0.11254;	0.13339;	0.18020
0.33250;	0.43215;	0.24375;	0.25610;	0.40646
0.51982;	0.42068;	0.30010;	0.35933;	0.31348
0.69564;	0.37444;	0.25099;	0.30400;	0.45608
0.93211;	0.96054;	0.99894;	0.64581;	0.65559
1.41472;	1.22650;	1.53385;	0.37652;	1.00395
3.14132;	1.79689;	2.37517;	2.84491;	3.15860
1.96754;	2.37430;	2.58313;	2.80562;	2.31474
2.99866;	2.89855;	1.94001;	3.41833;	3.39452
5.16329;	2.01453;	2.23342;	2.18678;	4.26064
4.03917;	4.09408;	2.94088;	4.65903;	7.59042
