mpi;	mpi;	mpi;	mpi;	mpi
0.00019;	0.00019;	0.02460;	0.00014;	0.00017
0.00997;	0.01993;	0.00023;	0.02979;	0.01070
0.03980;	0.02300;	0.00016;	0.00880;	0.00017
0.02979;	0.04093;	0.02266;	0.00110;	0.00065
0.01974;	0.00715;	0.05219;	0.01970;	0.00489
0.01093;	0.04882;	0.01989;	0.03974;	0.02975
0.00066;	0.03979;	0.03972;	0.01974;	0.01186
0.01674;	0.01174;	0.01545;	0.00068;	0.03381
0.00064;	0.02963;	0.01866;	0.02003;	0.01952
0.00071;	0.02200;	0.03993;	0.00065;	0.02952
0.00900;	0.01643;	0.01463;	0.00071;	0.03353
0.02774;	0.01069;	0.00069;	0.04797;	0.01639
0.03583;	0.01227;	0.00073;	0.00071;	0.01538
0.01444;	0.02573;	0.00287;	0.01496;	0.04783
0.00084;	0.00086;	0.03993;	0.00091;	0.02963
0.00215;	0.00115;	0.03572;	0.00151;	0.00114
0.01489;	0.00477;	0.00133;	0.01423;	0.00541
0.00122;	0.03373;	0.00115;	0.01543;	0.00120
0.00155;	0.03674;	0.02690;	0.00154;	0.00159
0.00464;	0.00478;	0.00469;	0.00480;	0.00472
0.02820;	0.01981;	0.00595;	0.00595;	0.00617
0.00743;	0.00737;	0.08792;	0.00751;	0.00750
0.01523;	0.01493;	0.01527;	0.01501;	0.01641
0.03277;	0.03244;	0.03283;	0.03271;	0.03286
0.03252;	0.03300;	0.03266;	0.03271;	0.03237
0.03867;	0.03824;	0.03962;	0.03925;	0.03906
0.06573;	0.06310;	0.06405;	0.06479;	0.06325
0.07845;	0.07811;	0.07505;	0.07532;	0.07432
0.12237;	0.12714;	0.12812;	0.12567;	0.12706
0.12880;	0.12719;	0.13043;	0.12309;	0.12520
0.14590;	0.15203;	0.15295;	0.14971;	0.15071
0.22550;	0.22733;	0.23339;	0.22676;	0.22452
0.25256;	0.25426;	0.24799;	0.25322;	0.25480
