2,0.00000,0.00000,0.00000,0.00000,0.00000,0.00000
4,0.00000,0.00000,0.00000,0.00000,0.00000,0.00000
8,0.00000,0.00000,0.00000,0.00000,0.00000,0.00000
10,0.00000,0.00000,0.00000,0.00000,0.00000,0.00000
15,0.00000,0.00000,0.00000,0.00000,0.00000,0.00000
16,0.00000,0.00000,0.00000,0.00000,0.00000,0.00000
63,0.00000,0.00000,0.00000,0.00000,0.00000,0.00000
64,0.00000,0.00000,0.00000,0.00000,0.00000,0.00000
1000,0.00000,0.00000,0.00000,0.00000,0.00000,0.00000
1023,0.00000,0.00000,0.00000,0.00000,0.00000,0.00000
1024,0.00000,0.00000,0.00000,0.00000,0.00001,0.00000
5000,0.00001,0.00001,0.00001,0.00001,0.00002,0.00002
10000,0.00001,0.00001,0.00001,0.00001,0.00004,0.00004
16384,0.00002,0.00002,0.00002,0.00002,0.00006,0.00006
30000,0.00004,0.00004,0.00004,0.00004,0.00011,0.00011
60000,0.00008,0.00008,0.00008,0.00008,0.00023,0.00015
65535,0.00009,0.00009,0.00009,0.00008,0.00027,0.00025
65536,0.00009,0.00009,0.00009,0.00009,0.00027,0.00025
100000,0.00013,0.00013,0.00013,0.00013,0.00038,0.00039
500000,0.00069,0.00068,0.00068,0.00068,0.00069,0.00074
750000,0.00110,0.00104,0.00106,0.00101,0.00103,0.00116
1000000,0.00147,0.00143,0.00144,0.00144,0.00146,0.00156
2000000,0.00333,0.00323,0.00331,0.00322,0.00322,0.00352
4194303,0.00692,0.00680,0.01715,0.01686,0.00673,0.00689
4194304,0.00716,0.00681,0.01697,0.00695,0.00670,0.00688
5000000,0.02019,0.01820,0.01824,0.01824,0.00802,0.00842
8388608,0.02377,0.01354,0.01381,0.01381,0.01352,0.01352
10000000,0.01637,0.01616,0.02633,0.03639,0.01587,0.01616
16777215,0.02684,0.02748,0.05722,0.03733,0.02678,0.02692
16777216,0.02790,0.02752,0.05737,0.04722,0.02679,0.02720
20000000,0.06319,0.03227,0.06264,0.04252,0.03202,0.03186
30000000,0.05909,0.04911,0.04904,0.09893,0.04762,0.04792
33554432,0.05476,0.05445,0.05455,0.09451,0.05339,0.05290
67108864,0.11395,0.10964,0.16932,0.15495,0.10733,0.10448
134217728,0.21819,0.28871,0.34664,0.34210,0.21280,0.20500
