2,0.04000,0.00003,0.03999,0.02915,0.03001,0.04000,0.03999,0.03999,0.00004,0.04003
4,0.03997,0.00002,0.03999,0.03999,0.00003,0.00002,0.03999,0.03999,0.00003,0.00003
8,0.03999,0.00002,0.00002,0.03993,0.04000,0.00003,0.03999,0.03999,0.00003,0.00002
10,0.04504,0.00002,0.00002,0.05002,0.00002,0.00002,0.00002,0.03998,0.00003,0.00003
15,0.07909,0.00002,0.05999,0.00003,0.00002,0.00003,0.04985,0.03999,0.00003,0.00002
16,0.03984,0.00002,0.02302,0.03998,0.03999,0.00002,0.00002,0.03998,0.00004,0.03999
63,0.04000,0.00002,0.00758,0.04002,0.00020,0.00002,0.00002,0.03999,0.00004,0.00003
64,0.07000,0.03300,0.00002,0.01999,0.00002,0.00002,0.00003,0.03999,0.00004,0.03999
1000,0.06299,0.00964,0.02175,0.04000,0.01092,0.00002,0.00002,0.03999,0.00004,0.01999
1023,0.03999,0.00002,0.00003,0.05001,0.00089,0.04000,0.04999,0.03999,0.00006,0.03999
1024,0.04000,0.03302,0.00002,0.02000,0.00002,0.03911,0.03999,0.03999,0.00003,0.03769
5000,0.03999,0.00003,0.00003,0.02997,0.00002,0.00003,0.07999,0.01998,0.00003,0.00003
10000,0.07701,0.00003,0.00460,0.09000,0.07999,0.00002,0.03999,0.03998,0.00005,0.00005
16384,0.06298,0.00004,0.01994,0.03996,0.03996,0.00003,0.00003,0.03997,0.00005,0.00005
30000,0.03998,0.00004,0.02297,0.03998,0.03998,0.00003,0.00004,0.03992,0.00009,0.00008
60000,0.03990,0.00014,0.00015,0.02989,0.00014,0.00014,0.02970,0.03981,0.00037,0.00036
65535,0.03982,0.03977,0.03996,0.03993,0.00016,0.00015,0.07285,0.03980,0.00031,0.00042
65536,0.03988,0.02277,0.00017,0.03975,0.00014,0.00016,0.03887,0.01980,0.00044,0.00043
100000,0.04965,0.00029,0.01993,0.03992,0.00026,0.00024,0.01985,0.03970,0.00021,0.00067
500000,0.08822,0.03962,0.03930,0.01951,0.02826,0.01131,0.01031,0.00123,0.00122,0.03824
750000,0.03966,0.00232,0.05860,0.05886,0.03887,0.00216,0.01159,0.00193,0.00227,0.03853
1000000,0.05866,0.01927,0.03833,0.00265,0.03871,0.00280,0.01400,0.05842,0.00300,0.00299
2000000,0.03196,0.07006,0.07945,0.06323,0.00579,0.01926,0.00602,0.05103,0.00577,0.01272
4194303,0.04084,0.03656,0.05916,0.02129,0.02248,0.02249,0.02236,0.01561,0.01327,0.01224
4194304,0.15980,0.04575,0.12790,0.01659,0.17764,0.17557,0.04252,0.02101,0.01224,0.01232
5000000,0.20770,0.10723,0.03407,0.10072,0.11438,0.18160,0.17928,0.19528,0.01502,0.01561
8388608,0.35394,0.05639,0.18490,0.03568,0.05508,0.12258,0.05318,0.05464,0.02374,0.03660
10000000,0.35391,0.15897,0.33925,0.04392,0.13671,0.13447,0.16351,0.02653,0.02778,0.03733
16777215,0.18261,0.11982,0.10400,0.09013,0.61202,0.06006,0.50614,0.19858,0.04757,0.08751
16777216,0.06934,0.07391,0.60937,0.08739,0.09793,0.05610,0.10141,0.06403,0.04593,0.06816
20000000,0.10253,0.23691,0.31948,0.08365,0.76259,0.39265,0.15292,0.07595,0.05496,0.05756
30000000,0.10047,0.31178,0.35688,0.08037,0.17462,0.17439,0.13235,0.15274,0.08418,0.10426
33554432,0.74656,0.14012,0.17596,0.12736,0.66351,0.12740,0.47828,0.09382,0.09423,0.12377
67108864,0.30487,0.67367,1.28425,0.24617,0.56076,0.19679,0.48407,0.28323,0.18566,0.17741
134217728,0.37743,0.71899,0.53655,0.47813,4.17200,0.40790,0.83203,0.31025,0.35771,0.69459
