64,0.02491,0.03630,0.04279,0.04067,0.02636,0.04740,0.03182,0.02126,0.03531,0.02376,0.03809,0.03226,0.03067,0.03404,0.02372,0.02337,0.04412,0.03324,0.03406,0.04211,0.03402,0.02931,0.03372,0.05349,0.04629,0.03673,0.04355,0.03980,0.02580,0.02918,0.03795,0.02529,0.04739,0.04089,0.03597
1000,0.03875,0.04583,0.03120,0.04396,0.02378,0.04823,0.02966,0.04619,0.02297,0.03016,0.04347,0.03270,0.03604,0.03549,0.03997,0.04124,0.02635,0.04983,0.03094,0.02962,0.02746,0.02560,0.03714,0.03228,0.03339,0.02407,0.04577,0.03771,0.04311,0.02722,0.03452,0.04129,0.02343,0.03820,0.03372
1023,0.02845,0.04491,0.03538,0.04950,0.03072,0.05834,0.02222,0.03186,0.04560,0.02356,0.03325,0.04578,0.02337,0.02885,0.03397,0.04641,0.03949,0.02966,0.02933,0.03772,0.03153,0.04070,0.03781,0.02771,0.02828,0.02732,0.03760,0.03408,0.05559,0.02636,0.03488,0.03886,0.04095,0.03099,0.03358
1024,0.03523,0.03659,0.03744,0.02584,0.03022,0.03304,0.04283,0.06596,0.04787,0.03935,0.03664,0.05765,0.02839,0.03772,0.04466,0.04376,0.03915,0.04842,0.03772,0.03258,0.03488,0.02496,0.06661,0.02248,0.02602,0.03892,0.02875,0.02635,0.03675,0.04524,0.02049,0.04391,0.03696,0.03016,0.03450
5000,0.03358,0.03599,0.04244,0.03820,0.03457,0.04187,0.04155,0.03795,0.04522,0.04462,0.03825,0.04574,0.05800,0.04005,0.03490,0.03390,0.03599,0.03957,0.04786,0.03348,0.03394,0.03454,0.03963,0.03492,0.03197,0.04144,0.04017,0.03233,0.04456,0.03549,0.04045,0.04045,0.04055,0.03406,0.03521
10000,0.03696,0.03888,0.03883,0.03735,0.03238,0.04285,0.03840,0.04399,0.05192,0.04391,0.03563,0.04141,0.04649,0.04274,0.04313,0.03277,0.04332,0.03744,0.03555,0.04179,0.03806,0.04382,0.04222,0.04326,0.03382,0.04001,0.03537,0.04423,0.04325,0.04343,0.05165,0.04568,0.04772,0.03303,0.04348
16384,0.03344,0.05043,0.04852,0.03953,0.03357,0.03427,0.03732,0.05404,0.04890,0.03456,0.04576,0.03432,0.05371,0.03483,0.03961,0.05070,0.03962,0.03635,0.03802,0.03975,0.03304,0.05041,0.05446,0.03649,0.03864,0.03900,0.03922,0.03750,0.04132,0.03429,0.03556,0.04115,0.04537,0.03999,0.03199
30000,0.04941,0.03945,0.03458,0.03713,0.03545,0.03770,0.03411,0.04034,0.03361,0.03345,0.03966,0.04968,0.03535,0.05251,0.05149,0.03334,0.04877,0.03760,0.04258,0.04344,0.04641,0.04225,0.04361,0.03864,0.03972,0.04995,0.03181,0.05569,0.03545,0.05793,0.03421,0.07603,0.03997,0.04093,0.03535
60000,0.03793,0.04064,0.03190,0.04560,0.03284,0.03135,0.03883,0.04169,0.04037,0.04706,0.03943,0.03997,0.04173,0.03309,0.04809,0.04148,0.03748,0.04847,0.04110,0.03586,0.03657,0.03704,0.03323,0.04525,0.04036,0.05540,0.04334,0.04641,0.04935,0.03989,0.04282,0.03558,0.03839,0.03963,0.03962
65535,0.03698,0.04190,0.03897,0.03820,0.03211,0.04650,0.03838,0.06137,0.05867,0.03694,0.03409,0.03242,0.03368,0.03539,0.03953,0.03701,0.03535,0.03990,0.03566,0.05420,0.03352,0.04785,0.04234,0.03770,0.04130,0.04981,0.03295,0.04222,0.06272,0.04058,0.03996,0.03871,0.04256,0.03481,0.03959
65536,0.04019,0.06816,0.03411,0.05576,0.04505,0.04310,0.04688,0.04524,0.05048,0.04817,0.04355,0.04114,0.04211,0.03483,0.03405,0.03644,0.03665,0.04510,0.04438,0.03584,0.04023,0.03307,0.05169,0.03808,0.03724,0.04124,0.04356,0.04024,0.05858,0.03310,0.04197,0.03833,0.04125,0.03492,0.03509
100000,0.04388,0.05537,0.05750,0.04087,0.04434,0.04037,0.03793,0.04182,0.03424,0.03271,0.04504,0.03508,0.03834,0.06559,0.03601,0.04791,0.03417,0.03963,0.03933,0.04062,0.03318,0.03775,0.04228,0.03858,0.03254,0.03680,0.03971,0.04061,0.04082,0.04611,0.04730,0.04153,0.04437,0.05210,0.03372
500000,0.05793,0.06428,0.06775,0.08400,0.06165,0.06092,0.04989,0.07087,0.06564,0.06160,0.05296,0.06360,0.08284,0.05273,0.06328,0.05157,0.05750,0.05347,0.05298,0.06091,0.06107,0.06390,0.03959,0.05573,0.09778,0.06171,0.04958,0.05260,0.06175,0.04476,0.05640,0.03651,0.04228,0.06850,0.05186
750000,0.04681,0.06222,0.07106,0.06436,0.07117,0.05008,0.04887,0.05226,0.05245,0.06730,0.03992,0.07932,0.05338,0.07683,0.04987,0.08070,0.07649,0.07631,0.06014,0.04491,0.06337,0.06405,0.05924,0.07567,0.06915,0.07501,0.08401,0.07212,0.04923,0.04495,0.07446,0.08547,0.06706,0.09252,0.04218
1000000,0.06302,0.06077,0.05660,0.09759,0.05424,0.05062,0.07335,0.05940,0.04294,0.05777,0.07325,0.06461,0.06196,0.04608,0.06075,0.07131,0.07451,0.05778,0.05971,0.05658,0.03994,0.05393,0.05760,0.05524,0.07403,0.06287,0.05571,0.06036,0.04196,0.04236,0.08014,0.07702,0.06188,0.05043,0.06382
2000000,0.07041,0.08471,0.06031,0.06910,0.04468,0.07089,0.06584,0.06123,0.10025,0.11994,0.04460,0.04930,0.07054,0.06619,0.08072,0.12194,0.07828,0.06985,0.06903,0.05554,0.05667,0.14024,0.06700,0.06344,0.05389,0.09642,0.08291,0.08444,0.10729,0.05584,0.06618,0.07729,0.05674,0.06603,0.08903
4194303,0.18452,0.11506,0.11213,0.15960,0.08793,0.09130,0.10007,0.11723,0.07531,0.06168,0.08468,0.06466,0.09583,0.09444,0.07209,0.07596,0.07301,0.08415,0.08553,0.08100,0.07999,0.21259,0.07348,0.07046,0.06383,0.09831,0.09176,0.09490,0.09488,0.06666,0.08826,0.07650,0.08355,0.08583,0.17758
4194304,0.08699,0.08876,0.46577,0.07071,0.07699,0.08566,0.08641,0.07330,0.16031,0.08311,0.06781,0.11639,0.08746,0.06092,0.08419,0.09037,0.08542,0.10213,0.06450,0.11438,0.13313,0.07614,0.11475,0.07946,0.06339,0.08143,0.08033,0.09423,0.06459,0.20830,0.09162,0.06164,0.07290,0.08506,0.09367
5000000,0.09223,0.08764,0.09381,0.16784,0.09029,0.12961,0.11800,1.54991,0.07619,0.07830,0.06680,0.07528,0.26368,0.06486,0.08982,0.09109,0.69782,0.10762,0.07678,0.10989,0.06573,0.08750,0.12052,0.10095,0.08570,0.07318,0.07742,0.07773,0.11660,0.08389,0.09226,0.11852,0.08629,0.21883,0.09781
8388608,0.17372,0.09706,0.10546,0.13963,0.10642,0.18885,0.22248,0.12971,0.11134,0.12288,0.12777,0.14675,0.08609,0.10084,0.24492,0.21091,0.12185,0.15446,0.09628,0.15312,0.14009,0.55547,0.11189,0.09003,0.15065,0.10618,0.28654,0.29709,0.09930,0.10194,0.10067,0.10300,0.13984,0.10594,0.10858
10000000,0.30631,0.12967,0.34734,0.18319,0.12664,0.20093,0.31771,0.11807,0.17705,0.44364,0.17697,0.12404,0.11654,0.09734,0.24151,0.18092,0.12265,0.29039,0.13199,0.10009,0.12749,0.11028,0.11753,0.26369,0.12231,0.11886,0.19232,0.13824,0.10325,0.10037,0.18849,0.36504,0.10510,0.12760,0.12385
16777215,0.27236,0.16064,0.17351,0.18327,0.17948,0.26173,0.22625,0.14966,0.29354,0.27355,0.16512,0.15141,0.15051,0.17496,0.16517,0.17198,0.14597,0.16207,0.17002,0.16583,0.17243,0.16070,0.17087,0.24112,0.26814,0.16914,0.55718,0.24448,0.15169,0.38487,0.16162,0.17858,0.71576,0.23913,0.17024
16777216,0.17310,0.25694,0.17223,0.16289,0.16985,0.39384,0.30297,0.14282,0.28204,0.16006,0.24437,0.36692,0.17147,0.31369,0.14380,0.15084,0.34199,0.16328,0.15454,0.26359,0.16952,0.16441,0.72307,0.23915,0.23727,0.25947,0.16308,0.34009,0.17019,0.18588,0.17623,0.39363,0.39327,0.17255,0.16801
20000000,0.16659,0.19205,0.18624,0.18583,0.67345,0.18351,0.26209,0.30230,0.34492,0.18031,0.17028,0.19991,0.35381,0.18180,0.19515,0.18702,0.30052,0.28380,0.17386,0.25950,0.31282,0.36690,0.19749,0.16646,0.20264,0.29417,0.21343,0.18553,0.16756,0.16428,0.40619,0.70565,0.20504,0.20977,0.34436
30000000,0.49300,0.26783,0.24414,0.24544,0.24187,0.26659,0.41083,0.46388,0.23200,0.23328,0.38431,0.99229,0.58436,0.39391,0.26618,0.23134,0.23777,0.39023,0.60734,0.58752,0.27391,0.66004,0.25086,0.26895,0.36283,0.49022,0.25900,0.45861,0.40700,0.24955,0.73073,0.23681,0.59567,0.36663,0.37626
33554432,0.27500,0.25119,0.26040,0.25793,0.26960,0.40583,0.26782,0.27647,0.28240,0.25300,0.28965,0.27060,0.65491,0.45108,0.25662,1.00283,0.28053,0.50585,0.25918,0.25501,0.43165,0.26697,0.50514,0.31425,0.25025,0.29589,0.54245,0.38377,0.27337,0.25695,0.59913,0.85480,0.25377,0.25803,0.46119
67108864,0.51579,0.54031,0.55945,0.50566,0.53172,0.50625,0.50052,0.73007,0.54687,0.47717,0.48442,0.90571,0.49980,0.47417,0.46224,0.49473,1.35720,0.46944,0.46346,0.48169,1.00629,0.55337,0.78629,0.46657,0.58808,2.13160,0.53743,0.47202,0.47349,0.90500,0.54000,0.49065,0.47654,0.47418,0.54471
134217728,1.03848,0.94301,1.00423,1.32565,1.35449,1.05542,1.38168,0.91700,0.93036,0.93643,1.01718,1.51069,1.05834,1.35990,1.07999,0.92191,1.01920,0.97979,0.94267,1.89375,0.92262,1.39430,5.42038,0.93432,0.98214,1.46615,0.95708,1.52999,1.50799,0.97446,1.06515,0.96582,0.90088,1.02738,1.08194
268435456,2.07601,2.10052,2.19156,1.91727,1.83630,2.57808,2.12897,1.88222,2.05460,1.86823,2.52748,2.09245,1.74945,2.48389,2.51614,1.81118,1.79129,2.10138,1.85349,2.07478,1.95500,1.95363,1.94235,2.08962,2.19359,1.96700,1.74880,2.03098,1.77836,2.35176,1.82733,2.89140,1.87096,2.58040,2.06475
536870912,4.10964,3.46682,4.19342,3.62987,3.61545,3.70261,3.47489,3.79832,4.23666,15.90041,3.77544,4.11369,4.32630,4.29815,3.58178,4.71749,3.68492,4.39019,3.71525,3.98604,3.82074,3.95005,3.65946,3.41487,3.68308,11.37520,3.59260,3.81511,3.71895,3.81999,3.63240,4.03570,4.84466,3.72452,3.99916
