mpi;	mpi;	mpi;	mpi;	mpi
0.02968;	0.00007;	0.00008;	0.00009;	0.00008
0.00014;	0.00012;	0.01976;	0.02978;	0.00682
0.00404;	0.00013;	0.00008;	0.00010;	0.00013
0.00012;	0.00712;	0.00012;	0.00412;	0.00010
0.02982;	0.00012;	0.00010;	0.00014;	0.01994
0.00009;	0.02951;	0.00011;	0.00010;	0.01089
0.00011;	0.02982;	0.00014;	0.00012;	0.03984
0.02979;	0.00008;	0.00010;	0.00011;	0.04281
0.00011;	0.01994;	0.00012;	0.03950;	0.03959
0.00013;	0.03993;	0.00009;	0.00295;	0.03257
0.01171;	0.03954;	0.00012;	0.02951;	0.01994
0.00783;	0.00013;	0.00021;	0.02851;	0.00013
0.00075;	0.01443;	0.03739;	0.00020;	0.00024
0.00500;	0.00028;	0.03998;	0.02496;	0.00018
0.02736;	0.00401;	0.00042;	0.00028;	0.00029
0.03992;	0.00056;	0.00056;	0.00058;	0.00060
0.00073;	0.00084;	0.05496;	0.02786;	0.00075
0.00075;	0.00079;	0.00076;	0.00075;	0.01471
0.03881;	0.00112;	0.00107;	0.00108;	0.03999
0.00373;	0.00376;	0.05047;	0.00376;	0.03959
0.00644;	0.00575;	0.00559;	0.00548;	0.00556
0.03529;	0.00787;	0.00800;	0.00771;	0.00772
0.01642;	0.01607;	0.01611;	0.01620;	0.01608
0.03276;	0.03232;	0.03322;	0.03241;	0.03309
0.03344;	0.03273;	0.03387;	0.03280;	0.03325
0.03879;	0.03817;	0.04044;	0.03844;	0.03897
0.06610;	0.06605;	0.06310;	0.06497;	0.06635
0.07735;	0.07699;	0.08339;	0.07825;	0.07807
0.13070;	0.12639;	0.13270;	0.13094;	0.13063
0.13307;	0.12811;	0.14215;	0.13135;	0.13209
0.15478;	0.15592;	0.15918;	0.15616;	0.15489
0.23438;	0.23254;	0.24003;	0.23201;	0.23215
0.25794;	0.27103;	0.25749;	0.26114;	0.26461
