Input size: 2

RUNTIME SYSTEM STATISTICS:

Wall-clock running time on 1 processor: 523.674000 ms
Total work = 523.338000 ms
Total work (accumulated) = 523.262000 ms
Span = 523.253000 ms
Parallelism = 1.000017
Total cilk time: 0.00005
Total sequential time: 0.00000
CHECK SUCCESSFUL - Results match

Input size: 4

RUNTIME SYSTEM STATISTICS:

Wall-clock running time on 1 processor: 672.000000 us
Total work = 362.000000 us
Total cilk time: 0.00004
Total sequential time: 0.00000
CHECK SUCCESSFUL - Results match

Input size: 8

RUNTIME SYSTEM STATISTICS:

Wall-clock running time on 1 processor: 944.000000 us
Total work = 609.000000 us
Total cilk time: 0.00009
Total sequential time: 0.00000
CHECK SUCCESSFUL - Results match

Input size: 10

RUNTIME SYSTEM STATISTICS:

Wall-clock running time on 1 processor: 892.000000 us
Total work = 547.000000 us
Total cilk time: 0.00010
Total sequential time: 0.00000
CHECK SUCCESSFUL - Results match

Input size: 15

RUNTIME SYSTEM STATISTICS:

Wall-clock running time on 1 processor: 895.000000 us
Total work = 563.000000 us
Total cilk time: 0.00011
Total sequential time: 0.00000
CHECK SUCCESSFUL - Results match

Input size: 16

RUNTIME SYSTEM STATISTICS:

Wall-clock running time on 1 processor: 973.000000 us
Total work = 613.000000 us
Total cilk time: 0.00012
Total sequential time: 0.00000
CHECK SUCCESSFUL - Results match

Input size: 63

RUNTIME SYSTEM STATISTICS:

Wall-clock running time on 1 processor: 1.088000 ms
Total work = 761.000000 us
Total cilk time: 0.00026
Total sequential time: 0.00000
CHECK SUCCESSFUL - Results match

Input size: 64

RUNTIME SYSTEM STATISTICS:

Wall-clock running time on 1 processor: 1.081000 ms
Total work = 751.000000 us
Total cilk time: 0.00026
Total sequential time: 0.00000
CHECK SUCCESSFUL - Results match

Input size: 1000

RUNTIME SYSTEM STATISTICS:

Wall-clock running time on 1 processor: 4.892000 ms
Total work = 4.560000 ms
Total work (accumulated) = 3.881000 ms
Span = 1.691000 ms
Parallelism = 2.295092
Total cilk time: 0.00302
Total sequential time: 0.00003
CHECK SUCCESSFUL - Results match

Input size: 1023

RUNTIME SYSTEM STATISTICS:

Wall-clock running time on 1 processor: 4.998000 ms
Total work = 4.667000 ms
Total work (accumulated) = 4.030000 ms
Span = 1.774000 ms
Parallelism = 2.271702
Total cilk time: 0.00313
Total sequential time: 0.00003
CHECK SUCCESSFUL - Results match

Input size: 1024

RUNTIME SYSTEM STATISTICS:

Wall-clock running time on 1 processor: 5.128000 ms
Total work = 4.701000 ms
Total work (accumulated) = 4.030000 ms
Span = 1.574000 ms
Parallelism = 2.560356
Total cilk time: 0.00316
Total sequential time: 0.00003
CHECK SUCCESSFUL - Results match

Input size: 5000

RUNTIME SYSTEM STATISTICS:

Wall-clock running time on 1 processor: 11.901000 ms
Total work = 11.579000 ms
Total work (accumulated) = 9.838000 ms
Span = 2.911000 ms
Parallelism = 3.379595
Total cilk time: 0.00883
Total sequential time: 0.00014
CHECK SUCCESSFUL - Results match

Input size: 10000

RUNTIME SYSTEM STATISTICS:

Wall-clock running time on 1 processor: 31.674000 ms
Total work = 31.384000 ms
Total work (accumulated) = 26.791000 ms
Span = 8.565000 ms
Parallelism = 3.127963
Total cilk time: 0.02305
Total sequential time: 0.00030
CHECK SUCCESSFUL - Results match

Input size: 16384

RUNTIME SYSTEM STATISTICS:

Wall-clock running time on 1 processor: 44.244000 ms
Total work = 43.939000 ms
Total work (accumulated) = 37.768000 ms
Span = 14.159000 ms
Parallelism = 2.667420
Total cilk time: 0.02990
Total sequential time: 0.00047
CHECK SUCCESSFUL - Results match

Input size: 30000

RUNTIME SYSTEM STATISTICS:

Wall-clock running time on 1 processor: 68.616000 ms
Total work = 68.305000 ms
Total work (accumulated) = 58.924000 ms
Span = 25.616000 ms
Parallelism = 2.300281
Total cilk time: 0.04299
Total sequential time: 0.00035
CHECK SUCCESSFUL - Results match

Input size: 60000

RUNTIME SYSTEM STATISTICS:

Wall-clock running time on 1 processor: 120.470000 ms
Total work = 120.099000 ms
Total work (accumulated) = 103.956000 ms
Span = 37.509000 ms
Parallelism = 2.771495
Total cilk time: 0.08301
Total sequential time: 0.00071
CHECK SUCCESSFUL - Results match

Input size: 65535

RUNTIME SYSTEM STATISTICS:

Wall-clock running time on 1 processor: 125.654000 ms
Total work = 125.220000 ms
Total work (accumulated) = 107.867000 ms
Span = 40.462000 ms
Parallelism = 2.665884
Total cilk time: 0.08529
Total sequential time: 0.00078
CHECK SUCCESSFUL - Results match

Input size: 65536

RUNTIME SYSTEM STATISTICS:

Wall-clock running time on 1 processor: 103.558000 ms
Total work = 103.156000 ms
Total work (accumulated) = 90.510000 ms
Span = 37.449000 ms
Parallelism = 2.416887
Total cilk time: 0.06578
Total sequential time: 0.00078
CHECK SUCCESSFUL - Results match

Input size: 100000

RUNTIME SYSTEM STATISTICS:

Wall-clock running time on 1 processor: 161.214000 ms
Total work = 160.927000 ms
Total work (accumulated) = 140.448000 ms
Span = 53.501000 ms
Parallelism = 2.625147
Total cilk time: 0.10784
Total sequential time: 0.00112
CHECK SUCCESSFUL - Results match

Input size: 500000

RUNTIME SYSTEM STATISTICS:

Wall-clock running time on 1 processor: 575.389000 ms
Total work = 574.970000 ms
Total work (accumulated) = 529.881000 ms
Span = 267.407000 ms
Parallelism = 1.981552
Total cilk time: 0.31942
Total sequential time: 0.00607
CHECK SUCCESSFUL - Results match

Input size: 750000

RUNTIME SYSTEM STATISTICS:

Wall-clock running time on 1 processor: 755.081000 ms
Total work = 754.653000 ms
Total work (accumulated) = 712.576000 ms
Span = 403.025000 ms
Parallelism = 1.768069
Total cilk time: 0.37562
Total sequential time: 0.00911
CHECK SUCCESSFUL - Results match

Input size: 1000000

RUNTIME SYSTEM STATISTICS:

Wall-clock running time on 1 processor: 994.437000 ms
Total work = 993.992000 ms
Total work (accumulated) = 940.250000 ms
Span = 531.549000 ms
Parallelism = 1.768887
Total cilk time: 0.49514
Total sequential time: 0.01211
CHECK SUCCESSFUL - Results match

Input size: 2000000

RUNTIME SYSTEM STATISTICS:

Wall-clock running time on 1 processor: 1.984465 s
Total work = 1.983966 s
Total work (accumulated) = 1.928964 s
Span = 1.289144 s
Parallelism = 1.496314
Total cilk time: 0.77313
Total sequential time: 0.02445
CHECK SUCCESSFUL - Results match

Input size: 4194303

RUNTIME SYSTEM STATISTICS:

Wall-clock running time on 1 processor: 3.680097 s
Total work = 3.679671 s
Total work (accumulated) = 3.594095 s
Span = 2.418571 s
Parallelism = 1.486041
Total cilk time: 1.43686
Total sequential time: 0.04872
CHECK SUCCESSFUL - Results match

Input size: 4194304

RUNTIME SYSTEM STATISTICS:

Wall-clock running time on 1 processor: 3.626748 s
Total work = 3.626306 s
Total work (accumulated) = 3.615029 s
Span = 2.689540 s
Parallelism = 1.344107
Total cilk time: 0.93744
Total sequential time: 0.05116
CHECK SUCCESSFUL - Results match

Input size: 5000000

RUNTIME SYSTEM STATISTICS:

Wall-clock running time on 1 processor: 3.909423 s
Total work = 3.909034 s
Total work (accumulated) = 3.868908 s
Span = 2.696453 s
Parallelism = 1.434814
Total cilk time: 1.44030
Total sequential time: 0.06068
CHECK SUCCESSFUL - Results match

Input size: 8388608

RUNTIME SYSTEM STATISTICS:

Wall-clock running time on 1 processor: 5.794868 s
Total work = 5.794372 s
Total work (accumulated) = 5.782714 s
Span = 4.147157 s
Parallelism = 1.394380
Total cilk time: 1.64734
Total sequential time: 0.10196
CHECK SUCCESSFUL - Results match

Input size: 10000000

RUNTIME SYSTEM STATISTICS:

Wall-clock running time on 1 processor: 7.541979 s
Total work = 7.541558 s
Total work (accumulated) = 7.497137 s
Span = 5.402015 s
Parallelism = 1.387841
Total cilk time: 2.60628
Total sequential time: 0.12129
CHECK SUCCESSFUL - Results match

Input size: 16777215

RUNTIME SYSTEM STATISTICS:

Wall-clock running time on 1 processor: 13.081247 s
Total work = 13.080929 s
Total work (accumulated) = 12.972700 s
Span = 9.276563 s
Parallelism = 1.398438
Total cilk time: 4.57106
Total sequential time: 0.20272
CHECK SUCCESSFUL - Results match

Input size: 16777216

RUNTIME SYSTEM STATISTICS:

Wall-clock running time on 1 processor: 11.605580 s
Total work = 11.605113 s
Total work (accumulated) = 11.593677 s
Span = 8.449423 s
Parallelism = 1.372126
Total cilk time: 3.15615
Total sequential time: 0.20339
CHECK SUCCESSFUL - Results match

Input size: 20000000

RUNTIME SYSTEM STATISTICS:

Wall-clock running time on 1 processor: 15.044269 s
Total work = 15.043628 s
Total work (accumulated) = 14.995500 s
Span = 11.038195 s
Parallelism = 1.358510
Total cilk time: 4.94369
Total sequential time: 0.24349
CHECK SUCCESSFUL - Results match

Input size: 30000000

RUNTIME SYSTEM STATISTICS:

Wall-clock running time on 1 processor: 22.452578 s
Total work = 22.452127 s
Total work (accumulated) = 22.381530 s
Span = 16.423116 s
Parallelism = 1.362807
Total cilk time: 7.44634
Total sequential time: 0.36537
CHECK SUCCESSFUL - Results match

Input size: 33554432

RUNTIME SYSTEM STATISTICS:

Wall-clock running time on 1 processor: 23.267409 s
Total work = 23.267031 s
Total work (accumulated) = 23.255649 s
Span = 17.065701 s
Parallelism = 1.362713
Total cilk time: 6.20195
Total sequential time: 0.40915
CHECK SUCCESSFUL - Results match

Input size: 67108864

RUNTIME SYSTEM STATISTICS:

Wall-clock running time on 1 processor: 46.450239 s
Total work = 46.449071 s
Total work (accumulated) = 46.437347 s
Span = 34.230178 s
Parallelism = 1.356620
Total cilk time: 12.21983
Total sequential time: 0.81884
CHECK SUCCESSFUL - Results match

Input size: 134217728

RUNTIME SYSTEM STATISTICS:

Wall-clock running time on 1 processor: 92.584008 s
Total work = 92.583578 s
Total work (accumulated) = 92.571995 s
Span = 68.217227 s
Parallelism = 1.357018
Total cilk time: 24.36757
Total sequential time: 1.62550
CHECK SUCCESSFUL - Results match

