Input size: 2

RUNTIME SYSTEM STATISTICS:

Wall-clock running time on 2 processors: 488.887000 ms
Total work = 487.837000 ms
Total work (accumulated) = 487.647000 ms
Span = 487.643000 ms
Parallelism = 1.000008
Total cilk time: 0.00022
Total sequential time: 0.00000
CHECK SUCCESSFUL - Results match

Input size: 4

RUNTIME SYSTEM STATISTICS:

Wall-clock running time on 2 processors: 1.978000 ms
Total work = 881.000000 us
Total cilk time: 0.00028
Total sequential time: 0.00000
CHECK SUCCESSFUL - Results match

Input size: 8

RUNTIME SYSTEM STATISTICS:

Wall-clock running time on 2 processors: 2.107000 ms
Total work = 1.008000 ms
Total cilk time: 0.00027
Total sequential time: 0.00000
CHECK SUCCESSFUL - Results match

Input size: 10

RUNTIME SYSTEM STATISTICS:

Wall-clock running time on 2 processors: 1.996000 ms
Total work = 1.044000 ms
Total cilk time: 0.00034
Total sequential time: 0.00000
CHECK SUCCESSFUL - Results match

Input size: 15

RUNTIME SYSTEM STATISTICS:

Wall-clock running time on 2 processors: 2.006000 ms
Total work = 946.000000 us
Total cilk time: 0.00033
Total sequential time: 0.00000
CHECK SUCCESSFUL - Results match

Input size: 16

RUNTIME SYSTEM STATISTICS:

Wall-clock running time on 2 processors: 1.793000 ms
Total work = 927.000000 us
Total cilk time: 0.00021
Total sequential time: 0.00000
CHECK SUCCESSFUL - Results match

Input size: 63

RUNTIME SYSTEM STATISTICS:

Wall-clock running time on 2 processors: 2.542000 ms
Total work = 1.427000 ms
Total cilk time: 0.00079
Total sequential time: 0.00000
CHECK SUCCESSFUL - Results match

Input size: 64

RUNTIME SYSTEM STATISTICS:

Wall-clock running time on 2 processors: 2.345000 ms
Total work = 1.081000 ms
Total cilk time: 0.00069
Total sequential time: 0.00000
CHECK SUCCESSFUL - Results match

Input size: 1000

RUNTIME SYSTEM STATISTICS:

Wall-clock running time on 2 processors: 5.727000 ms
Total work = 5.891000 ms
Total work (accumulated) = 4.327000 ms
Span = 2.010000 ms
Parallelism = 2.152736
Total cilk time: 0.00326
Total sequential time: 0.00003
CHECK SUCCESSFUL - Results match

Input size: 1023

RUNTIME SYSTEM STATISTICS:

Wall-clock running time on 2 processors: 5.921000 ms
Total work = 6.064000 ms
Total work (accumulated) = 4.470000 ms
Span = 2.101000 ms
Parallelism = 2.127558
Total cilk time: 0.00332
Total sequential time: 0.00003
CHECK SUCCESSFUL - Results match

Input size: 1024

RUNTIME SYSTEM STATISTICS:

Wall-clock running time on 2 processors: 4.720000 ms
Total work = 5.027000 ms
Total work (accumulated) = 4.047000 ms
Span = 1.670000 ms
Parallelism = 2.423353
Total cilk time: 0.00194
Total sequential time: 0.00003
CHECK SUCCESSFUL - Results match

Input size: 5000

RUNTIME SYSTEM STATISTICS:

Wall-clock running time on 2 processors: 15.971000 ms
Total work = 21.875000 ms
Total work (accumulated) = 18.111000 ms
Span = 6.379000 ms
Parallelism = 2.839160
Total cilk time: 0.00906
Total sequential time: 0.00014
CHECK SUCCESSFUL - Results match

Input size: 10000

RUNTIME SYSTEM STATISTICS:

Wall-clock running time on 2 processors: 21.953000 ms
Total work = 32.131000 ms
Total work (accumulated) = 27.022000 ms
Span = 8.794000 ms
Parallelism = 3.072777
Total cilk time: 0.01252
Total sequential time: 0.00012
CHECK SUCCESSFUL - Results match

Input size: 16384

RUNTIME SYSTEM STATISTICS:

Wall-clock running time on 2 processors: 40.408000 ms
Total work = 58.651000 ms
Total work (accumulated) = 50.100000 ms
Span = 19.466000 ms
Parallelism = 2.573718
Total cilk time: 0.02037
Total sequential time: 0.00045
CHECK SUCCESSFUL - Results match

Input size: 30000

RUNTIME SYSTEM STATISTICS:

Wall-clock running time on 2 processors: 44.877000 ms
Total work = 62.534000 ms
Total work (accumulated) = 53.999000 ms
Span = 23.534000 ms
Parallelism = 2.294510
Total cilk time: 0.02089
Total sequential time: 0.00035
CHECK SUCCESSFUL - Results match

Input size: 60000

RUNTIME SYSTEM STATISTICS:

Wall-clock running time on 2 processors: 85.340000 ms
Total work = 121.760000 ms
Total work (accumulated) = 105.400000 ms
Span = 45.076000 ms
Parallelism = 2.338273
Total cilk time: 0.04016
Total sequential time: 0.00072
CHECK SUCCESSFUL - Results match

Input size: 65535

RUNTIME SYSTEM STATISTICS:

Wall-clock running time on 2 processors: 89.326000 ms
Total work = 129.094000 ms
Total work (accumulated) = 110.128000 ms
Span = 45.003000 ms
Parallelism = 2.447126
Total cilk time: 0.04428
Total sequential time: 0.00070
CHECK SUCCESSFUL - Results match

Input size: 65536

RUNTIME SYSTEM STATISTICS:

Wall-clock running time on 2 processors: 73.582000 ms
Total work = 103.604000 ms
Total work (accumulated) = 92.001000 ms
Span = 40.940000 ms
Parallelism = 2.247215
Total cilk time: 0.03184
Total sequential time: 0.00078
CHECK SUCCESSFUL - Results match

Input size: 100000

RUNTIME SYSTEM STATISTICS:

Wall-clock running time on 2 processors: 111.845000 ms
Total work = 162.648000 ms
Total work (accumulated) = 141.788000 ms
Span = 57.117000 ms
Parallelism = 2.482413
Total cilk time: 0.05458
Total sequential time: 0.00119
CHECK SUCCESSFUL - Results match

Input size: 500000

RUNTIME SYSTEM STATISTICS:

Wall-clock running time on 2 processors: 417.637000 ms
Total work = 568.721000 ms
Total work (accumulated) = 523.905000 ms
Span = 262.127000 ms
Parallelism = 1.998669
Total cilk time: 0.16267
Total sequential time: 0.00578
CHECK SUCCESSFUL - Results match

Input size: 750000

RUNTIME SYSTEM STATISTICS:

Wall-clock running time on 2 processors: 557.181000 ms
Total work = 727.236000 ms
Total work (accumulated) = 684.295000 ms
Span = 381.690000 ms
Parallelism = 1.792803
Total cilk time: 0.18657
Total sequential time: 0.00911
CHECK SUCCESSFUL - Results match

Input size: 1000000

RUNTIME SYSTEM STATISTICS:

Wall-clock running time on 2 processors: 745.994000 ms
Total work = 964.982000 ms
Total work (accumulated) = 915.311000 ms
Span = 522.084000 ms
Parallelism = 1.753187
Total cilk time: 0.24378
Total sequential time: 0.01215
CHECK SUCCESSFUL - Results match

Input size: 2000000

RUNTIME SYSTEM STATISTICS:

Wall-clock running time on 2 processors: 1.415752 s
Total work = 1.758999 s
Total work (accumulated) = 1.702335 s
Span = 1.066744 s
Parallelism = 1.595823
Total cilk time: 0.40576
Total sequential time: 0.02328
CHECK SUCCESSFUL - Results match

Input size: 4194303

RUNTIME SYSTEM STATISTICS:

Wall-clock running time on 2 processors: 2.874006 s
Total work = 3.524603 s
Total work (accumulated) = 3.437496 s
Span = 2.216546 s
Parallelism = 1.550834
Total cilk time: 0.81909
Total sequential time: 0.05092
CHECK SUCCESSFUL - Results match

Input size: 4194304

RUNTIME SYSTEM STATISTICS:

Wall-clock running time on 2 processors: 2.540689 s
Total work = 2.983673 s
Total work (accumulated) = 2.971628 s
Span = 2.094746 s
Parallelism = 1.418610
Total cilk time: 0.44514
Total sequential time: 0.04826
CHECK SUCCESSFUL - Results match

Input size: 5000000

RUNTIME SYSTEM STATISTICS:

Wall-clock running time on 2 processors: 3.351375 s
Total work = 3.951727 s
Total work (accumulated) = 3.911657 s
Span = 2.745240 s
Parallelism = 1.424887
Total cilk time: 0.89509
Total sequential time: 0.06083
CHECK SUCCESSFUL - Results match

Input size: 8388608

RUNTIME SYSTEM STATISTICS:

Wall-clock running time on 2 processors: 6.302484 s
Total work = 5.809594 s
Total work (accumulated) = 5.797793 s
Span = 4.143274 s
Parallelism = 1.399326
Total cilk time: 0.83398
Total sequential time: 0.09548
CHECK SUCCESSFUL - Results match

Input size: 10000000

RUNTIME SYSTEM STATISTICS:

Wall-clock running time on 2 processors: 6.792503 s
Total work = 7.896453 s
Total work (accumulated) = 7.851985 s
Span = 5.683513 s
Parallelism = 1.381537
Total cilk time: 1.86505
Total sequential time: 0.12112
CHECK SUCCESSFUL - Results match

Input size: 16777215

RUNTIME SYSTEM STATISTICS:

Wall-clock running time on 2 processors: 11.054724 s
Total work = 12.977736 s
Total work (accumulated) = 12.865429 s
Span = 9.119197 s
Parallelism = 1.410807
Total cilk time: 2.68722
Total sequential time: 0.20252
CHECK SUCCESSFUL - Results match

Input size: 16777216

RUNTIME SYSTEM STATISTICS:

Wall-clock running time on 2 processors: 10.010966 s
Total work = 11.661031 s
Total work (accumulated) = 11.649567 s
Span = 8.357980 s
Parallelism = 1.393826
Total cilk time: 1.65210
Total sequential time: 0.19276
CHECK SUCCESSFUL - Results match

Input size: 20000000

RUNTIME SYSTEM STATISTICS:

Wall-clock running time on 2 processors: 12.991031 s
Total work = 15.035233 s
Total work (accumulated) = 14.985056 s
Span = 10.940792 s
Parallelism = 1.369650
Total cilk time: 3.00665
Total sequential time: 0.24289
CHECK SUCCESSFUL - Results match

Input size: 30000000

RUNTIME SYSTEM STATISTICS:

Wall-clock running time on 2 processors: 20.655629 s
Total work = 23.733254 s
Total work (accumulated) = 23.662946 s
Span = 17.571245 s
Parallelism = 1.346686
Total cilk time: 5.64286
Total sequential time: 0.36744
CHECK SUCCESSFUL - Results match

Input size: 33554432

RUNTIME SYSTEM STATISTICS:

Wall-clock running time on 2 processors: 19.920942 s
Total work = 23.096034 s
Total work (accumulated) = 23.083967 s
Span = 16.743114 s
Parallelism = 1.378714
Total cilk time: 3.17747
Total sequential time: 0.40667
CHECK SUCCESSFUL - Results match

Input size: 67108864

RUNTIME SYSTEM STATISTICS:

Wall-clock running time on 2 processors: 39.787791 s
Total work = 46.132603 s
Total work (accumulated) = 46.120364 s
Span = 33.440671 s
Parallelism = 1.379170
Total cilk time: 6.34707
Total sequential time: 0.81192
CHECK SUCCESSFUL - Results match

Input size: 134217728

RUNTIME SYSTEM STATISTICS:

Wall-clock running time on 2 processors: 79.581043 s
Total work = 92.230943 s
Total work (accumulated) = 92.218680 s
Span = 66.928558 s
Parallelism = 1.377867
Total cilk time: 12.65248
Total sequential time: 1.61761
CHECK SUCCESSFUL - Results match

