Input size: 2

RUNTIME SYSTEM STATISTICS:

Wall-clock running time on 16 processors: 553.203000 ms
Total work = 550.232000 ms
Total work (accumulated) = 548.982000 ms
Span = 548.976000 ms
Parallelism = 1.000011
Total cilk time: 0.00132
Total sequential time: 0.00000
CHECK SUCCESSFUL - Results match

Input size: 4

RUNTIME SYSTEM STATISTICS:

Wall-clock running time on 16 processors: 4.788000 ms
Total work = 1.952000 ms
Total cilk time: 0.00118
Total sequential time: 0.00000
CHECK SUCCESSFUL - Results match

Input size: 8

RUNTIME SYSTEM STATISTICS:

Wall-clock running time on 16 processors: 4.938000 ms
Total work = 1.916000 ms
Total work (accumulated) = 1.295000 ms
Span = 1.279000 ms
Parallelism = 1.012510
Total cilk time: 0.00075
Total sequential time: 0.00000
CHECK SUCCESSFUL - Results match

Input size: 10

RUNTIME SYSTEM STATISTICS:

Wall-clock running time on 16 processors: 5.510000 ms
Total work = 2.450000 ms
Total cilk time: 0.00176
Total sequential time: 0.00000
CHECK SUCCESSFUL - Results match

Input size: 15

RUNTIME SYSTEM STATISTICS:

Wall-clock running time on 16 processors: 6.921000 ms
Total work = 3.626000 ms
Total cilk time: 0.00332
Total sequential time: 0.00000
CHECK SUCCESSFUL - Results match

Input size: 16

RUNTIME SYSTEM STATISTICS:

Wall-clock running time on 16 processors: 3.967000 ms
Total work = 1.485000 ms
Total cilk time: 0.00067
Total sequential time: 0.00000
CHECK SUCCESSFUL - Results match

Input size: 63

RUNTIME SYSTEM STATISTICS:

Wall-clock running time on 16 processors: 7.298000 ms
Total work = 3.889000 ms
Total work (accumulated) = 1.320000 ms
Span = 1.120000 ms
Parallelism = 1.178571
Total cilk time: 0.00376
Total sequential time: 0.00000
CHECK SUCCESSFUL - Results match

Input size: 64

RUNTIME SYSTEM STATISTICS:

Wall-clock running time on 16 processors: 5.259000 ms
Total work = 2.999000 ms
Total work (accumulated) = 1.224000 ms
Span = 1.081000 ms
Parallelism = 1.132285
Total cilk time: 0.00208
Total sequential time: 0.00000
CHECK SUCCESSFUL - Results match

Input size: 1000

RUNTIME SYSTEM STATISTICS:

Wall-clock running time on 16 processors: 17.044000 ms
Total work = 19.468000 ms
Total work (accumulated) = 9.928000 ms
Span = 4.815000 ms
Parallelism = 2.061890
Total cilk time: 0.01234
Total sequential time: 0.00003
CHECK SUCCESSFUL - Results match

Input size: 1023

RUNTIME SYSTEM STATISTICS:

Wall-clock running time on 16 processors: 12.592000 ms
Total work = 14.162000 ms
Total work (accumulated) = 7.375000 ms
Span = 4.106000 ms
Parallelism = 1.796152
Total cilk time: 0.00803
Total sequential time: 0.00003
CHECK SUCCESSFUL - Results match

Input size: 1024

RUNTIME SYSTEM STATISTICS:

Wall-clock running time on 16 processors: 8.604000 ms
Total work = 10.701000 ms
Total work (accumulated) = 6.056000 ms
Span = 2.604000 ms
Parallelism = 2.325653
Total cilk time: 0.00391
Total sequential time: 0.00003
CHECK SUCCESSFUL - Results match

Input size: 5000

RUNTIME SYSTEM STATISTICS:

Wall-clock running time on 16 processors: 18.710000 ms
Total work = 33.480000 ms
Total work (accumulated) = 22.349000 ms
Span = 8.437000 ms
Parallelism = 2.648927
Total cilk time: 0.00939
Total sequential time: 0.00014
CHECK SUCCESSFUL - Results match

Input size: 10000

RUNTIME SYSTEM STATISTICS:

Wall-clock running time on 16 processors: 25.234000 ms
Total work = 58.503000 ms
Total work (accumulated) = 41.619000 ms
Span = 13.972000 ms
Parallelism = 2.978743
Total cilk time: 0.01062
Total sequential time: 0.00028
CHECK SUCCESSFUL - Results match

Input size: 16384

RUNTIME SYSTEM STATISTICS:

Wall-clock running time on 16 processors: 29.965000 ms
Total work = 78.221000 ms
Total work (accumulated) = 62.461000 ms
Span = 20.533000 ms
Parallelism = 3.041981
Total cilk time: 0.00730
Total sequential time: 0.00046
CHECK SUCCESSFUL - Results match

Input size: 30000

RUNTIME SYSTEM STATISTICS:

Wall-clock running time on 16 processors: 56.718000 ms
Total work = 149.944000 ms
Total work (accumulated) = 111.498000 ms
Span = 34.666000 ms
Parallelism = 3.216350
Total cilk time: 0.02183
Total sequential time: 0.00084
CHECK SUCCESSFUL - Results match

Input size: 60000

RUNTIME SYSTEM STATISTICS:

Wall-clock running time on 16 processors: 77.315000 ms
Total work = 245.451000 ms
Total work (accumulated) = 193.410000 ms
Span = 52.848000 ms
Parallelism = 3.659741
Total cilk time: 0.02541
Total sequential time: 0.00071
CHECK SUCCESSFUL - Results match

Input size: 65535

RUNTIME SYSTEM STATISTICS:

Wall-clock running time on 16 processors: 83.565000 ms
Total work = 243.407000 ms
Total work (accumulated) = 189.123000 ms
Span = 55.856000 ms
Parallelism = 3.385903
Total cilk time: 0.03028
Total sequential time: 0.00078
CHECK SUCCESSFUL - Results match

Input size: 65536

RUNTIME SYSTEM STATISTICS:

Wall-clock running time on 16 processors: 57.406000 ms
Total work = 180.506000 ms
Total work (accumulated) = 152.696000 ms
Span = 43.970000 ms
Parallelism = 3.472731
Total cilk time: 0.01144
Total sequential time: 0.00099
CHECK SUCCESSFUL - Results match

Input size: 100000

RUNTIME SYSTEM STATISTICS:

Wall-clock running time on 16 processors: 101.281000 ms
Total work = 308.065000 ms
Total work (accumulated) = 250.906000 ms
Span = 75.364000 ms
Parallelism = 3.329255
Total cilk time: 0.02797
Total sequential time: 0.00120
CHECK SUCCESSFUL - Results match

Input size: 500000

RUNTIME SYSTEM STATISTICS:

Wall-clock running time on 16 processors: 317.112000 ms
Total work = 778.488000 ms
Total work (accumulated) = 694.730000 ms
Span = 271.358000 ms
Parallelism = 2.560197
Total cilk time: 0.05098
Total sequential time: 0.00547
CHECK SUCCESSFUL - Results match

Input size: 750000

RUNTIME SYSTEM STATISTICS:

Wall-clock running time on 16 processors: 450.112000 ms
Total work = 958.651000 ms
Total work (accumulated) = 877.259000 ms
Span = 397.098000 ms
Parallelism = 2.209175
Total cilk time: 0.06655
Total sequential time: 0.00910
CHECK SUCCESSFUL - Results match

Input size: 1000000

RUNTIME SYSTEM STATISTICS:

Wall-clock running time on 16 processors: 568.249000 ms
Total work = 1.145471 s
Total work (accumulated) = 1.071380 s
Span = 518.664000 ms
Parallelism = 2.065653
Total cilk time: 0.06062
Total sequential time: 0.01208
CHECK SUCCESSFUL - Results match

Input size: 2000000

RUNTIME SYSTEM STATISTICS:

Wall-clock running time on 16 processors: 1.139823 s
Total work = 2.018501 s
Total work (accumulated) = 1.933477 s
Span = 1.065091 s
Parallelism = 1.815316
Total cilk time: 0.11621
Total sequential time: 0.02422
CHECK SUCCESSFUL - Results match

Input size: 4194303

RUNTIME SYSTEM STATISTICS:

Wall-clock running time on 16 processors: 2.423777 s
Total work = 3.943142 s
Total work (accumulated) = 3.798103 s
Span = 2.292326 s
Parallelism = 1.656877
Total cilk time: 0.28514
Total sequential time: 0.04819
CHECK SUCCESSFUL - Results match

Input size: 4194304

RUNTIME SYSTEM STATISTICS:

Wall-clock running time on 16 processors: 2.155895 s
Total work = 3.131612 s
Total work (accumulated) = 3.113884 s
Span = 2.084578 s
Parallelism = 1.493772
Total cilk time: 0.06885
Total sequential time: 0.05094
CHECK SUCCESSFUL - Results match

Input size: 5000000

RUNTIME SYSTEM STATISTICS:

Wall-clock running time on 16 processors: 2.866638 s
Total work = 4.224676 s
Total work (accumulated) = 4.156286 s
Span = 2.758519 s
Parallelism = 1.506709
Total cilk time: 0.35300
Total sequential time: 0.06083
CHECK SUCCESSFUL - Results match

Input size: 8388608

RUNTIME SYSTEM STATISTICS:

Wall-clock running time on 16 processors: 4.335797 s
Total work = 6.091303 s
Total work (accumulated) = 6.073592 s
Span = 4.212861 s
Parallelism = 1.441679
Total cilk time: 0.12035
Total sequential time: 0.10254
CHECK SUCCESSFUL - Results match

Input size: 10000000

RUNTIME SYSTEM STATISTICS:

Wall-clock running time on 16 processors: 6.780713 s
Total work = 8.257419 s
Total work (accumulated) = 8.184483 s
Span = 5.745731 s
Parallelism = 1.424446
Total cilk time: 0.87729
Total sequential time: 0.12117
CHECK SUCCESSFUL - Results match

Input size: 16777215

RUNTIME SYSTEM STATISTICS:

Wall-clock running time on 16 processors: 9.415740 s
Total work = 13.491002 s
Total work (accumulated) = 13.323568 s
Span = 9.111951 s
Parallelism = 1.462208
Total cilk time: 1.06592
Total sequential time: 0.20168
CHECK SUCCESSFUL - Results match

Input size: 16777216

RUNTIME SYSTEM STATISTICS:

Wall-clock running time on 16 processors: 8.590720 s
Total work = 11.867807 s
Total work (accumulated) = 11.850833 s
Span = 8.366254 s
Parallelism = 1.416504
Total cilk time: 0.22267
Total sequential time: 0.20356
CHECK SUCCESSFUL - Results match

Input size: 20000000

RUNTIME SYSTEM STATISTICS:

Wall-clock running time on 16 processors: 11.807236 s
Total work = 16.099493 s
Total work (accumulated) = 16.017066 s
Span = 11.505253 s
Parallelism = 1.392152
Total cilk time: 1.94884
Total sequential time: 0.24184
CHECK SUCCESSFUL - Results match

Input size: 30000000

RUNTIME SYSTEM STATISTICS:

Wall-clock running time on 16 processors: 18.213333 s
Total work = 24.501563 s
Total work (accumulated) = 24.390068 s
Span = 17.774526 s
Parallelism = 1.372192
Total cilk time: 2.70754
Total sequential time: 0.36102
CHECK SUCCESSFUL - Results match

Input size: 33554432

RUNTIME SYSTEM STATISTICS:

Wall-clock running time on 16 processors: 17.562136 s
Total work = 23.857319 s
Total work (accumulated) = 23.840817 s
Span = 17.136482 s
Parallelism = 1.391232
Total cilk time: 0.42331
Total sequential time: 0.40273
CHECK SUCCESSFUL - Results match

Input size: 67108864

RUNTIME SYSTEM STATISTICS:

Wall-clock running time on 16 processors: 34.965234 s
Total work = 47.233166 s
Total work (accumulated) = 47.216320 s
Span = 34.141548 s
Parallelism = 1.382958
Total cilk time: 0.82209
Total sequential time: 0.81627
CHECK SUCCESSFUL - Results match

Input size: 134217728

RUNTIME SYSTEM STATISTICS:

Wall-clock running time on 16 processors: 70.041230 s
Total work = 94.411840 s
Total work (accumulated) = 94.395105 s
Span = 68.411493 s
Parallelism = 1.379814
Total cilk time: 1.62853
Total sequential time: 1.63056
CHECK SUCCESSFUL - Results match

