Input size: 2
type: int
threads: 32
Total openmp time: 0.0599622298
Input size: 4
type: int
threads: 32
Total openmp time: 0.0523313116
Input size: 8
type: int
threads: 32
Total openmp time: 0.0688997712
Input size: 10
type: int
threads: 32
Total openmp time: 0.0715322047
Input size: 15
type: int
threads: 32
Total openmp time: 0.2370991074
Input size: 16
type: int
threads: 32
Total openmp time: 0.4345925581
Input size: 63
type: int
threads: 32
Total openmp time: 0.0711138174
Input size: 64
type: int
threads: 32
Total openmp time: 0.0888047200
Input size: 1000
type: int
threads: 32
Total openmp time: 0.0752457734
Input size: 1023
type: int
threads: 32
Total openmp time: 0.0719349869
Input size: 1024
type: int
threads: 32
Total openmp time: 0.0536969323
Input size: 5000
type: int
threads: 32
Total openmp time: 0.0563819949
Input size: 10000
type: int
threads: 32
Total openmp time: 0.0824672971
Input size: 16384
type: int
threads: 32
Total openmp time: 0.1158645526
Input size: 30000
type: int
threads: 32
Total openmp time: 0.0953574851
Input size: 60000
type: int
threads: 32
Total openmp time: 0.0835377239
Input size: 65535
type: int
threads: 32
Total openmp time: 0.0463401247
Input size: 65536
type: int
threads: 32
Total openmp time: 0.0758023672
Input size: 100000
type: int
threads: 32
Total openmp time: 0.0482534282
Input size: 500000
type: int
threads: 32
Total openmp time: 0.2023122348
Input size: 750000
type: int
threads: 32
Total openmp time: 0.0783008430
Input size: 1000000
type: int
threads: 32
Total openmp time: 0.0578802843
Input size: 2000000
type: int
threads: 32
Total openmp time: 0.0617846791
Input size: 4194303
type: int
threads: 32
Total openmp time: 0.0822879039
Input size: 4194304
type: int
threads: 32
Total openmp time: 0.2681082767
Input size: 5000000
type: int
threads: 32
Total openmp time: 0.0286711957
Input size: 8388608
type: int
threads: 32
Total openmp time: 0.0220087841
Input size: 10000000
type: int
threads: 32
Total openmp time: 0.0198184568
Input size: 16777215
type: int
threads: 32
Total openmp time: 0.3428418357
Input size: 16777216
type: int
threads: 32
Total openmp time: 0.7711689807
Input size: 20000000
type: int
threads: 32
Total openmp time: 0.1513815466
Input size: 30000000
type: int
threads: 32
Total openmp time: 0.0437291767
Input size: 33554432
type: int
threads: 32
Total openmp time: 0.1854018532
Input size: 67108864
type: int
threads: 32
Total openmp time: 0.0819974709
Input size: 134217728
type: int
threads: 32
Total openmp time: 0.5060565099
