Input size: 2
type: int
threads: 16
Total openmp time: 0.0000422671
Input size: 4
type: int
threads: 16
Total openmp time: 0.0000405032
Input size: 8
type: int
threads: 16
Total openmp time: 0.0000522528
Input size: 10
type: int
threads: 16
Total openmp time: 0.0000417177
Input size: 15
type: int
threads: 16
Total openmp time: 0.0000342950
Input size: 16
type: int
threads: 16
Total openmp time: 0.0000367146
Input size: 63
type: int
threads: 16
Total openmp time: 0.0000335854
Input size: 64
type: int
threads: 16
Total openmp time: 0.0000345446
Input size: 1000
type: int
threads: 16
Total openmp time: 0.0000454597
Input size: 1023
type: int
threads: 16
Total openmp time: 0.0000467468
Input size: 1024
type: int
threads: 16
Total openmp time: 0.0000430029
Input size: 5000
type: int
threads: 16
Total openmp time: 0.0000494756
Input size: 10000
type: int
threads: 16
Total openmp time: 0.0000649281
Input size: 16384
type: int
threads: 16
Total openmp time: 0.0000722203
Input size: 30000
type: int
threads: 16
Total openmp time: 0.0000814088
Input size: 60000
type: int
threads: 16
Total openmp time: 0.0024709105
Input size: 65535
type: int
threads: 16
Total openmp time: 0.0001123995
Input size: 65536
type: int
threads: 16
Total openmp time: 0.0001535397
Input size: 100000
type: int
threads: 16
Total openmp time: 0.0008665491
Input size: 500000
type: int
threads: 16
Total openmp time: 0.0004187133
Input size: 750000
type: int
threads: 16
Total openmp time: 0.0006796550
Input size: 1000000
type: int
threads: 16
Total openmp time: 0.0009917133
Input size: 2000000
type: int
threads: 16
Total openmp time: 0.0016677324
Input size: 4194303
type: int
threads: 16
Total openmp time: 0.0049772933
Input size: 4194304
type: int
threads: 16
Total openmp time: 0.0224179886
Input size: 5000000
type: int
threads: 16
Total openmp time: 0.0342097972
Input size: 8388608
type: int
threads: 16
Total openmp time: 0.0364570003
Input size: 10000000
type: int
threads: 16
Total openmp time: 0.0243360382
Input size: 16777215
type: int
threads: 16
Total openmp time: 0.0360019114
Input size: 16777216
type: int
threads: 16
Total openmp time: 0.0748199578
Input size: 20000000
type: int
threads: 16
Total openmp time: 0.0390669201
Input size: 30000000
type: int
threads: 16
Total openmp time: 0.0687538814
Input size: 33554432
type: int
threads: 16
Total openmp time: 0.0418339092
Input size: 67108864
type: int
threads: 16
Total openmp time: 0.1519740000
Input size: 134217728
type: int
threads: 16
Total openmp time: 1.9037779104
