Input size: 2
type: int
threads: 1
Total openmp time: 0.0000021029
Input size: 4
type: int
threads: 1
Total openmp time: 0.0000044145
Input size: 8
type: int
threads: 1
Total openmp time: 0.0000018273
Input size: 10
type: int
threads: 1
Total openmp time: 0.0000020191
Input size: 15
type: int
threads: 1
Total openmp time: 0.0000020061
Input size: 16
type: int
threads: 1
Total openmp time: 0.0000018720
Input size: 63
type: int
threads: 1
Total openmp time: 0.0000022464
Input size: 64
type: int
threads: 1
Total openmp time: 0.0000020936
Input size: 1000
type: int
threads: 1
Total openmp time: 0.0000031255
Input size: 1023
type: int
threads: 1
Total openmp time: 0.0000074003
Input size: 1024
type: int
threads: 1
Total openmp time: 0.0000071190
Input size: 5000
type: int
threads: 1
Total openmp time: 0.0000174157
Input size: 10000
type: int
threads: 1
Total openmp time: 0.0000315923
Input size: 16384
type: int
threads: 1
Total openmp time: 0.0000523403
Input size: 30000
type: int
threads: 1
Total openmp time: 0.0000918396
Input size: 60000
type: int
threads: 1
Total openmp time: 0.0001809709
Input size: 65535
type: int
threads: 1
Total openmp time: 0.0001959670
Input size: 65536
type: int
threads: 1
Total openmp time: 0.0001997016
Input size: 100000
type: int
threads: 1
Total openmp time: 0.0002975501
Input size: 500000
type: int
threads: 1
Total openmp time: 0.0007109698
Input size: 750000
type: int
threads: 1
Total openmp time: 0.0011084937
Input size: 1000000
type: int
threads: 1
Total openmp time: 0.0015988946
Input size: 2000000
type: int
threads: 1
Total openmp time: 0.0033813324
Input size: 4194303
type: int
threads: 1
Total openmp time: 0.0073066261
Input size: 4194304
type: int
threads: 1
Total openmp time: 0.0094649252
Input size: 5000000
type: int
threads: 1
Total openmp time: 0.0197268426
Input size: 8388608
type: int
threads: 1
Total openmp time: 0.0248920806
Input size: 10000000
type: int
threads: 1
Total openmp time: 0.0217698440
Input size: 16777215
type: int
threads: 1
Total openmp time: 0.0333500635
Input size: 16777216
type: int
threads: 1
Total openmp time: 0.0342772212
Input size: 20000000
type: int
threads: 1
Total openmp time: 0.0874911547
Input size: 30000000
type: int
threads: 1
Total openmp time: 0.1414971240
Input size: 33554432
type: int
threads: 1
Total openmp time: 0.2100970820
Input size: 67108864
type: int
threads: 1
Total openmp time: 0.1650958359
Input size: 134217728
type: int
threads: 1
Total openmp time: 0.2793779764
