Input size: 2
type: int
Total openmp time: 0.06503
Input size: 4
type: int
Total openmp time: 0.13670
Input size: 8
type: int
Total openmp time: 0.10972
Input size: 10
type: int
Total openmp time: 0.01187
Input size: 15
type: int
Total openmp time: 0.01372
Input size: 16
type: int
Total openmp time: 0.00725
Input size: 63
type: int
Total openmp time: 0.03746
Input size: 64
type: int
Total openmp time: 0.00779
Input size: 1000
type: int
Total openmp time: 0.04183
Input size: 1023
type: int
Total openmp time: 0.05660
Input size: 1024
type: int
Total openmp time: 0.03594
Input size: 5000
type: int
Total openmp time: 0.03133
Input size: 10000
type: int
Total openmp time: 0.06305
Input size: 16384
type: int
Total openmp time: 0.03575
Input size: 30000
type: int
Total openmp time: 0.13599
Input size: 60000
type: int
Total openmp time: 0.14833
Input size: 65535
type: int
Total openmp time: 1.11008
Input size: 65536
type: int
Total openmp time: 1.77100
Input size: 100000
type: int
Total openmp time: 0.73411
Input size: 500000
type: int
Total openmp time: 0.38237
Input size: 750000
type: int
Total openmp time: 1.55391
Input size: 1000000
type: int
Total openmp time: 0.68429
Input size: 2000000
type: int
Total openmp time: 0.62673
Input size: 4194303
type: int
Total openmp time: 1.52457
Input size: 4194304
type: int
Total openmp time: 0.55526
Input size: 5000000
type: int
Total openmp time: 1.70535
Input size: 8388608
type: int
Total openmp time: 1.64416
Input size: 10000000
type: int
Total openmp time: 5.69488
Input size: 16777215
type: int
Total openmp time: 3.99112
Input size: 16777216
type: int
Total openmp time: 2.76852
Input size: 20000000
type: int
Total openmp time: 4.50827
Input size: 30000000
type: int
Total openmp time: 6.92814
Input size: 33554432
type: int
Total openmp time: 5.08955
Input size: 67108864
type: int
Total openmp time: 9.46884
Input size: 134217728
type: int
Total openmp time: 17.68181
