Input size: 2
type: int
threads: 32
Total openmp time: 0.1008523535
Input size: 4
type: int
threads: 32
Total openmp time: 0.1038362458
Input size: 8
type: int
threads: 32
Total openmp time: 0.0904895477
Input size: 10
type: int
threads: 32
Total openmp time: 0.2559555713
Input size: 15
type: int
threads: 32
Total openmp time: 0.1366258450
Input size: 16
type: int
threads: 32
Total openmp time: 0.1049392521
Input size: 63
type: int
threads: 32
Total openmp time: 0.2400194928
Input size: 64
type: int
threads: 32
Total openmp time: 0.1240099296
Input size: 1000
type: int
threads: 32
Total openmp time: 0.1017604452
Input size: 1023
type: int
threads: 32
Total openmp time: 0.1485357396
Input size: 1024
type: int
threads: 32
Total openmp time: 0.1239715479
Input size: 5000
type: int
threads: 32
Total openmp time: 0.1116514504
Input size: 10000
type: int
threads: 32
Total openmp time: 0.1079408266
Input size: 16384
type: int
threads: 32
Total openmp time: 0.1252342146
Input size: 30000
type: int
threads: 32
Total openmp time: 0.1219523847
Input size: 60000
type: int
threads: 32
Total openmp time: 0.0981416367
Input size: 65535
type: int
threads: 32
Total openmp time: 0.1857378241
Input size: 65536
type: int
threads: 32
Total openmp time: 0.2985014692
Input size: 100000
type: int
threads: 32
Total openmp time: 0.1994763985
Input size: 500000
type: int
threads: 32
Total openmp time: 1.3740921598
Input size: 750000
type: int
threads: 32
Total openmp time: 0.0195809174
Input size: 1000000
type: int
threads: 32
Total openmp time: 0.0258882605
Input size: 2000000
type: int
threads: 32
Total openmp time: 0.0140217356
Input size: 4194303
type: int
threads: 32
Total openmp time: 0.0095567871
Input size: 4194304
type: int
threads: 32
Total openmp time: 0.0108388178
Input size: 5000000
type: int
threads: 32
Total openmp time: 0.0205892250
Input size: 8388608
type: int
threads: 32
Total openmp time: 0.2781540584
Input size: 10000000
type: int
threads: 32
Total openmp time: 0.1734870151
Input size: 16777215
type: int
threads: 32
Total openmp time: 0.0360576287
Input size: 16777216
type: int
threads: 32
Total openmp time: 3.8236368205
Input size: 20000000
type: int
threads: 32
Total openmp time: 0.1707613487
Input size: 30000000
type: int
threads: 32
Total openmp time: 0.0718207750
Input size: 33554432
type: int
threads: 32
Total openmp time: 0.3481286298
Input size: 67108864
type: int
threads: 32
Total openmp time: 0.0887395386
Input size: 134217728
type: int
threads: 32
Total openmp time: 0.8292831481
