Input size: 2
type: int
Total openmp time: 0.03855
Input size: 4
type: int
Total openmp time: 0.04025
Input size: 8
type: int
Total openmp time: 0.03770
Input size: 10
type: int
Total openmp time: 0.03814
Input size: 15
type: int
Total openmp time: 0.05743
Input size: 16
type: int
Total openmp time: 0.03900
Input size: 63
type: int
Total openmp time: 0.14034
Input size: 64
type: int
Total openmp time: 0.03045
Input size: 1000
type: int
Total openmp time: 0.15120
Input size: 1023
type: int
Total openmp time: 0.18666
Input size: 1024
type: int
Total openmp time: 0.02921
Input size: 5000
type: int
Total openmp time: 0.11457
Input size: 10000
type: int
Total openmp time: 0.13660
Input size: 16384
type: int
Total openmp time: 0.05263
Input size: 30000
type: int
Total openmp time: 3.16360
Input size: 60000
type: int
Total openmp time: 3.21691
Input size: 65535
type: int
Total openmp time: 0.72486
Input size: 65536
type: int
Total openmp time: 0.47538
Input size: 100000
type: int
Total openmp time: 1.04899
Input size: 500000
type: int
Total openmp time: 0.57922
Input size: 750000
type: int
Total openmp time: 0.69826
Input size: 1000000
type: int
Total openmp time: 0.44246
Input size: 2000000
type: int
Total openmp time: 0.58869
Input size: 4194303
type: int
Total openmp time: 10.04946
Input size: 4194304
type: int
Total openmp time: 2.31598
Input size: 5000000
type: int
Total openmp time: 1.21367
Input size: 8388608
type: int
Total openmp time: 0.87673
Input size: 10000000
type: int
Total openmp time: 6.90003
Input size: 16777215
type: int
Total openmp time: 9.99974
Input size: 16777216
type: int
Total openmp time: 2.06110
Input size: 20000000
type: int
Total openmp time: 10.50366
Input size: 30000000
type: int
Total openmp time: 10.99159
Input size: 33554432
type: int
Total openmp time: 20.00981
Input size: 67108864
type: int
Total openmp time: 82.65357
Input size: 134217728
type: int
Total openmp time: 87.83795
