Input size: 2
type: int
Total openmp time: 0.0249803290
The total number of operations is: 0
Input size: 4
type: int
Total openmp time: 0.0827274881
The total number of operations is: 0
Input size: 8
type: int
Total openmp time: 0.0546414200
The total number of operations is: 0
Input size: 10
type: int
Total openmp time: 0.0837098695
The total number of operations is: 0
Input size: 15
type: int
Total openmp time: 0.0652702525
The total number of operations is: 0
Input size: 16
type: int
Total openmp time: 0.0747107770
The total number of operations is: 0
Input size: 63
type: int
Total openmp time: 0.1247314103
The total number of operations is: 0
Input size: 64
type: int
Total openmp time: 0.3276632689
The total number of operations is: 0
Input size: 1000
type: int
Total openmp time: 0.1341251731
The total number of operations is: 0
Input size: 1023
type: int
Total openmp time: 0.0758172274
The total number of operations is: 0
Input size: 1024
type: int
Total openmp time: 0.0704883970
The total number of operations is: 0
Input size: 5000
type: int
Total openmp time: 0.0912069753
The total number of operations is: 0
Input size: 10000
type: int
Total openmp time: 0.0981171615
The total number of operations is: 0
Input size: 16384
type: int
Total openmp time: 0.1046332829
The total number of operations is: 0
Input size: 30000
type: int
Total openmp time: 0.2604556978
The total number of operations is: 0
Input size: 60000
type: int
Total openmp time: 0.2866654489
The total number of operations is: 0
Input size: 65535
type: int
Total openmp time: 0.6292423215
The total number of operations is: 0
Input size: 65536
type: int
Total openmp time: 0.2561519425
The total number of operations is: 0
Input size: 100000
type: int
Total openmp time: 0.2592852600
The total number of operations is: 0
Input size: 500000
type: int
Total openmp time: 0.4353697319
The total number of operations is: 0
Input size: 750000
type: int
Total openmp time: 0.4529938363
The total number of operations is: 0
Input size: 1000000
type: int
Total openmp time: 0.5352917481
The total number of operations is: 0
Input size: 2000000
type: int
Total openmp time: 1.2821821589
The total number of operations is: 0
Input size: 4194303
type: int
Total openmp time: 1.8567725755
The total number of operations is: 0
Input size: 4194304
type: int
Total openmp time: 2.5822610725
The total number of operations is: 0
Input size: 5000000
type: int
Total openmp time: 2.3561593369
The total number of operations is: 0
Input size: 8388608
type: int
Total openmp time: 3.6531911325
The total number of operations is: 0
Input size: 10000000
type: int
Total openmp time: 3.7362179849
The total number of operations is: 0
Input size: 16777215
type: int
Total openmp time: 6.5043096747
The total number of operations is: 0
Input size: 16777216
type: int
Total openmp time: 6.0737271160
The total number of operations is: 0
Input size: 20000000
type: int
Total openmp time: 7.4232540391
The total number of operations is: 0
Input size: 30000000
type: int
Total openmp time: 10.2300322969
The total number of operations is: 0
Input size: 33554432
type: int
Total openmp time: 10.2680253778
The total number of operations is: 0
Input size: 67108864
type: int
Total openmp time: 20.9504401013
The total number of operations is: 0
Input size: 134217728
type: int
Total openmp time: 34.8415644914
The total number of operations is: 0
