Input size: 2

RUNTIME SYSTEM STATISTICS:

Wall-clock running time on 48 processors: 484.711000 ms
Total work = 477.634000 ms
Total work (accumulated) = 476.611000 ms
Span = 476.606000 ms
Parallelism = 1.000010
Total cilk time: 0.00143
Total sequential time: 0.00000
CHECK SUCCESSFUL - Results match

Input size: 4

RUNTIME SYSTEM STATISTICS:

Wall-clock running time on 48 processors: 15.095000 ms
Total work = 6.062000 ms
Total work (accumulated) = 1.242000 ms
Span = 1.211000 ms
Parallelism = 1.025599
Total cilk time: 0.00502
Total sequential time: 0.00000
CHECK SUCCESSFUL - Results match

Input size: 8

RUNTIME SYSTEM STATISTICS:

Wall-clock running time on 48 processors: 10.913000 ms
Total work = 2.452000 ms
Total work (accumulated) = 1.178000 ms
Span = 1.142000 ms
Parallelism = 1.031524
Total cilk time: 0.00128
Total sequential time: 0.00000
CHECK SUCCESSFUL - Results match

Input size: 10

RUNTIME SYSTEM STATISTICS:

Wall-clock running time on 48 processors: 9.915000 ms
Total work = 1.668000 ms
Total work (accumulated) = 1.264000 ms
Span = 1.208000 ms
Parallelism = 1.046358
Total cilk time: 0.00043
Total sequential time: 0.00000
CHECK SUCCESSFUL - Results match

Input size: 15

RUNTIME SYSTEM STATISTICS:

Wall-clock running time on 48 processors: 12.401000 ms
Total work = 4.171000 ms
Total cilk time: 0.00423
Total sequential time: 0.00000
CHECK SUCCESSFUL - Results match

Input size: 16

RUNTIME SYSTEM STATISTICS:

Wall-clock running time on 48 processors: 12.067000 ms
Total work = 2.968000 ms
Total work (accumulated) = 1.241000 ms
Span = 1.173000 ms
Parallelism = 1.057971
Total cilk time: 0.00192
Total sequential time: 0.00000
CHECK SUCCESSFUL - Results match

Input size: 63

RUNTIME SYSTEM STATISTICS:

Wall-clock running time on 48 processors: 16.740000 ms
Total work = 9.851000 ms
Total work (accumulated) = 1.222000 ms
Span = 955.000000 us
Parallelism = 1.279581
Total cilk time: 0.00835
Total sequential time: 0.00000
CHECK SUCCESSFUL - Results match

Input size: 64

RUNTIME SYSTEM STATISTICS:

Wall-clock running time on 48 processors: 12.369000 ms
Total work = 2.817000 ms
Total work (accumulated) = 1.639000 ms
Span = 1.349000 ms
Parallelism = 1.214974
Total cilk time: 0.00305
Total sequential time: 0.00000
CHECK SUCCESSFUL - Results match

Input size: 1000

RUNTIME SYSTEM STATISTICS:

Wall-clock running time on 48 processors: 19.339000 ms
Total work = 21.605000 ms
Total work (accumulated) = 6.324000 ms
Span = 3.416000 ms
Parallelism = 1.851288
Total cilk time: 0.01005
Total sequential time: 0.00003
CHECK SUCCESSFUL - Results match

Input size: 1023

RUNTIME SYSTEM STATISTICS:

Wall-clock running time on 48 processors: 28.830000 ms
Total work = 28.104000 ms
Total work (accumulated) = 10.074000 ms
Span = 6.037000 ms
Parallelism = 1.668710
Total cilk time: 0.01776
Total sequential time: 0.00003
CHECK SUCCESSFUL - Results match

Input size: 1024

RUNTIME SYSTEM STATISTICS:

Wall-clock running time on 48 processors: 16.183000 ms
Total work = 14.934000 ms
Total work (accumulated) = 6.131000 ms
Span = 2.890000 ms
Parallelism = 2.121453
Total cilk time: 0.00652
Total sequential time: 0.00003
CHECK SUCCESSFUL - Results match

Input size: 5000

RUNTIME SYSTEM STATISTICS:

Wall-clock running time on 48 processors: 29.441000 ms
Total work = 50.368000 ms
Total work (accumulated) = 27.163000 ms
Span = 10.765000 ms
Parallelism = 2.523270
Total cilk time: 0.01541
Total sequential time: 0.00014
CHECK SUCCESSFUL - Results match

Input size: 10000

RUNTIME SYSTEM STATISTICS:

Wall-clock running time on 48 processors: 41.125000 ms
Total work = 77.222000 ms
Total work (accumulated) = 43.830000 ms
Span = 14.567000 ms
Parallelism = 3.008856
Total cilk time: 0.02095
Total sequential time: 0.00028
CHECK SUCCESSFUL - Results match

Input size: 16384

RUNTIME SYSTEM STATISTICS:

Wall-clock running time on 48 processors: 36.770000 ms
Total work = 85.866000 ms
Total work (accumulated) = 60.857000 ms
Span = 22.191000 ms
Parallelism = 2.742418
Total cilk time: 0.00766
Total sequential time: 0.00045
CHECK SUCCESSFUL - Results match

Input size: 30000

RUNTIME SYSTEM STATISTICS:

Wall-clock running time on 48 processors: 59.812000 ms
Total work = 166.382000 ms
Total work (accumulated) = 105.189000 ms
Span = 33.021000 ms
Parallelism = 3.185518
Total cilk time: 0.02654
Total sequential time: 0.00052
CHECK SUCCESSFUL - Results match

Input size: 60000

RUNTIME SYSTEM STATISTICS:

Wall-clock running time on 48 processors: 78.913000 ms
Total work = 241.850000 ms
Total work (accumulated) = 154.839000 ms
Span = 44.236000 ms
Parallelism = 3.500294
Total cilk time: 0.03777
Total sequential time: 0.00070
CHECK SUCCESSFUL - Results match

Input size: 65535

RUNTIME SYSTEM STATISTICS:

Wall-clock running time on 48 processors: 115.473000 ms
Total work = 308.303000 ms
Total work (accumulated) = 203.772000 ms
Span = 67.982000 ms
Parallelism = 2.997440
Total cilk time: 0.05260
Total sequential time: 0.00100
CHECK SUCCESSFUL - Results match

Input size: 65536

RUNTIME SYSTEM STATISTICS:

Wall-clock running time on 48 processors: 65.560000 ms
Total work = 165.519000 ms
Total work (accumulated) = 131.011000 ms
Span = 52.311000 ms
Parallelism = 2.504464
Total cilk time: 0.01046
Total sequential time: 0.00094
CHECK SUCCESSFUL - Results match

Input size: 100000

RUNTIME SYSTEM STATISTICS:

Wall-clock running time on 48 processors: 91.822000 ms
Total work = 266.086000 ms
Total work (accumulated) = 197.606000 ms
Span = 62.456000 ms
Parallelism = 3.163923
Total cilk time: 0.03184
Total sequential time: 0.00120
CHECK SUCCESSFUL - Results match

Input size: 500000

RUNTIME SYSTEM STATISTICS:

Wall-clock running time on 48 processors: 316.191000 ms
Total work = 712.927000 ms
Total work (accumulated) = 602.399000 ms
Span = 272.219000 ms
Parallelism = 2.212920
Total cilk time: 0.05355
Total sequential time: 0.00604
CHECK SUCCESSFUL - Results match

Input size: 750000

RUNTIME SYSTEM STATISTICS:

Wall-clock running time on 48 processors: 453.902000 ms
Total work = 890.980000 ms
Total work (accumulated) = 764.158000 ms
Span = 399.151000 ms
Parallelism = 1.914458
Total cilk time: 0.07240
Total sequential time: 0.00860
CHECK SUCCESSFUL - Results match

Input size: 1000000

RUNTIME SYSTEM STATISTICS:

Wall-clock running time on 48 processors: 580.174000 ms
Total work = 1.114901 s
Total work (accumulated) = 993.814000 ms
Span = 533.215000 ms
Parallelism = 1.863815
Total cilk time: 0.06185
Total sequential time: 0.01214
CHECK SUCCESSFUL - Results match

Input size: 2000000

RUNTIME SYSTEM STATISTICS:

Wall-clock running time on 48 processors: 1.087163 s
Total work = 1.862088 s
Total work (accumulated) = 1.731101 s
Span = 1.026399 s
Parallelism = 1.686577
Total cilk time: 0.10263
Total sequential time: 0.02431
CHECK SUCCESSFUL - Results match

Input size: 4194303

RUNTIME SYSTEM STATISTICS:

Wall-clock running time on 48 processors: 2.318805 s
Total work = 3.855232 s
Total work (accumulated) = 3.612635 s
Span = 2.214605 s
Parallelism = 1.631277
Total cilk time: 0.25039
Total sequential time: 0.05090
CHECK SUCCESSFUL - Results match

Input size: 4194304

RUNTIME SYSTEM STATISTICS:

Wall-clock running time on 48 processors: 2.091031 s
Total work = 3.295969 s
Total work (accumulated) = 3.238735 s
Span = 2.051678 s
Parallelism = 1.578579
Total cilk time: 0.03653
Total sequential time: 0.05065
CHECK SUCCESSFUL - Results match

Input size: 5000000

RUNTIME SYSTEM STATISTICS:

Wall-clock running time on 48 processors: 2.894700 s
Total work = 5.341233 s
Total work (accumulated) = 5.046910 s
Span = 2.793737 s
Parallelism = 1.806509
Total cilk time: 0.35685
Total sequential time: 0.06080
CHECK SUCCESSFUL - Results match

Input size: 8388608

RUNTIME SYSTEM STATISTICS:

Wall-clock running time on 48 processors: 4.325052 s
Total work = 6.105160 s
Total work (accumulated) = 6.062972 s
Span = 4.286330 s
Parallelism = 1.414490
Total cilk time: 0.04657
Total sequential time: 0.09611
CHECK SUCCESSFUL - Results match

Input size: 10000000

RUNTIME SYSTEM STATISTICS:

Wall-clock running time on 48 processors: 6.516835 s
Total work = 8.306078 s
Total work (accumulated) = 8.128103 s
Span = 5.578659 s
Parallelism = 1.456999
Total cilk time: 0.64398
Total sequential time: 0.12094
CHECK SUCCESSFUL - Results match

Input size: 16777215

RUNTIME SYSTEM STATISTICS:

Wall-clock running time on 48 processors: 9.600828 s
Total work = 16.210811 s
Total work (accumulated) = 15.489971 s
Span = 9.324794 s
Parallelism = 1.661160
Total cilk time: 1.24835
Total sequential time: 0.18976
CHECK SUCCESSFUL - Results match

Input size: 16777216

RUNTIME SYSTEM STATISTICS:

Wall-clock running time on 48 processors: 8.292947 s
Total work = 11.685667 s
Total work (accumulated) = 11.646146 s
Span = 8.230415 s
Parallelism = 1.415013
Total cilk time: 0.08470
Total sequential time: 0.20331
CHECK SUCCESSFUL - Results match

Input size: 20000000

RUNTIME SYSTEM STATISTICS:

Wall-clock running time on 48 processors: 11.551113 s
Total work = 15.820072 s
Total work (accumulated) = 15.688379 s
Span = 11.409385 s
Parallelism = 1.375042
Total cilk time: 1.70351
Total sequential time: 0.22582
CHECK SUCCESSFUL - Results match

Input size: 30000000

RUNTIME SYSTEM STATISTICS:

Wall-clock running time on 48 processors: 16.876335 s
Total work = 23.259421 s
Total work (accumulated) = 23.089814 s
Span = 16.702901 s
Parallelism = 1.382383
Total cilk time: 1.77951
Total sequential time: 0.34567
CHECK SUCCESSFUL - Results match

Input size: 33554432

RUNTIME SYSTEM STATISTICS:

Wall-clock running time on 48 processors: 20.500722 s
Total work = 27.245330 s
Total work (accumulated) = 27.214781 s
Span = 20.374614 s
Parallelism = 1.335720
Total cilk time: 0.15420
Total sequential time: 0.40023
CHECK SUCCESSFUL - Results match

Input size: 67108864

RUNTIME SYSTEM STATISTICS:

Wall-clock running time on 48 processors: 33.009004 s
Total work = 46.214452 s
Total work (accumulated) = 46.183636 s
Span = 32.713123 s
Parallelism = 1.411777
Total cilk time: 0.29214
Total sequential time: 0.81217
CHECK SUCCESSFUL - Results match

Input size: 134217728

RUNTIME SYSTEM STATISTICS:

Wall-clock running time on 48 processors: 66.436644 s
Total work = 93.956818 s
Total work (accumulated) = 93.924137 s
Span = 65.832486 s
Parallelism = 1.426714
Total cilk time: 0.60055
Total sequential time: 1.50462
CHECK SUCCESSFUL - Results match

