Input size: 2
Total mpi time: 0.08070
Total sequential time: 0.00000
CHECK SUCCESSFUL - Results match

Input size: 4
Total mpi time: 0.07205
Total sequential time: 0.00000
CHECK SUCCESSFUL - Results match

Input size: 8
Total mpi time: 0.05490
Total sequential time: 0.00000
CHECK SUCCESSFUL - Results match

Input size: 10
Total mpi time: 0.05860
Total sequential time: 0.00000
CHECK SUCCESSFUL - Results match

Input size: 15
Total mpi time: 0.05251
Total sequential time: 0.00000
CHECK SUCCESSFUL - Results match

Input size: 16
Total mpi time: 0.04156
Total sequential time: 0.00000
CHECK SUCCESSFUL - Results match

Input size: 63
Total mpi time: 0.04372
Total sequential time: 0.00000
CHECK SUCCESSFUL - Results match

Input size: 64
Total mpi time: 0.04923
Total sequential time: 0.00000
CHECK SUCCESSFUL - Results match

Input size: 1000
Total mpi time: 0.04220
Total sequential time: 0.00002
CHECK SUCCESSFUL - Results match

Input size: 1023
Total mpi time: 0.04749
Total sequential time: 0.00002
CHECK SUCCESSFUL - Results match

Input size: 1024
Total mpi time: 0.05828
Total sequential time: 0.00002
CHECK SUCCESSFUL - Results match

Input size: 5000
Total mpi time: 0.03664
Total sequential time: 0.00011
CHECK SUCCESSFUL - Results match

Input size: 10000
Total mpi time: 0.05268
Total sequential time: 0.00019
CHECK SUCCESSFUL - Results match

Input size: 16384
Total mpi time: 0.05211
Total sequential time: 0.00044
CHECK SUCCESSFUL - Results match

Input size: 30000
Total mpi time: 0.05471
Total sequential time: 0.00079
CHECK SUCCESSFUL - Results match

Input size: 60000
Total mpi time: 0.03583
Total sequential time: 0.00050
CHECK SUCCESSFUL - Results match

Input size: 65535
Total mpi time: 0.04908
Total sequential time: 0.00051
CHECK SUCCESSFUL - Results match

Input size: 65536
Total mpi time: 0.03882
Total sequential time: 0.00045
CHECK SUCCESSFUL - Results match

Input size: 100000
Total mpi time: 0.05334
Total sequential time: 0.00083
CHECK SUCCESSFUL - Results match

Input size: 500000
Total mpi time: 0.06069
Total sequential time: 0.00365
CHECK SUCCESSFUL - Results match

Input size: 750000
Total mpi time: 0.05175
Total sequential time: 0.00593
CHECK SUCCESSFUL - Results match

Input size: 1000000
Total mpi time: 0.15716
Total sequential time: 0.00848
CHECK SUCCESSFUL - Results match

Input size: 2000000
Total mpi time: 0.05107
Total sequential time: 0.01732
CHECK SUCCESSFUL - Results match

Input size: 4194303
Total mpi time: 0.07707
Total sequential time: 0.03318
CHECK SUCCESSFUL - Results match

Input size: 4194304
Total mpi time: 0.08056
Total sequential time: 0.03591
CHECK SUCCESSFUL - Results match

Input size: 5000000
Total mpi time: 0.08403
Total sequential time: 0.04463
CHECK SUCCESSFUL - Results match

Input size: 8388608
Total mpi time: 0.09333
Total sequential time: 0.06629
CHECK SUCCESSFUL - Results match

Input size: 10000000
Total mpi time: 0.11729
Total sequential time: 0.08830
CHECK SUCCESSFUL - Results match

Input size: 16777215
Total mpi time: 0.18174
Total sequential time: 0.14996
CHECK SUCCESSFUL - Results match

Input size: 16777216
Total mpi time: 0.24511
Total sequential time: 0.15027
CHECK SUCCESSFUL - Results match

Input size: 20000000
Total mpi time: 0.19972
Total sequential time: 0.17773
CHECK SUCCESSFUL - Results match

Input size: 30000000
Total mpi time: 0.24670
Total sequential time: 0.26259
CHECK SUCCESSFUL - Results match

Input size: 33554432
Total mpi time: 0.26693
Total sequential time: 0.29866
CHECK SUCCESSFUL - Results match

