Input size: 2
Total mpi time: 0.03406
Total sequential time: 0.00001
CHECK SUCCESSFUL - Results match

Input size: 4
Total mpi time: 0.05325
Total sequential time: 0.00000
CHECK SUCCESSFUL - Results match

Input size: 8
Total mpi time: 0.06049
Total sequential time: 0.00000
CHECK SUCCESSFUL - Results match

Input size: 10
Total mpi time: 0.05235
Total sequential time: 0.00000
CHECK SUCCESSFUL - Results match

Input size: 15
Total mpi time: 0.03158
Total sequential time: 0.00000
CHECK SUCCESSFUL - Results match

Input size: 16
Total mpi time: 0.03324
Total sequential time: 0.00000
CHECK SUCCESSFUL - Results match

Input size: 63
Total mpi time: 0.04023
Total sequential time: 0.00000
CHECK SUCCESSFUL - Results match

Input size: 64
Total mpi time: 0.03726
Total sequential time: 0.00000
CHECK SUCCESSFUL - Results match

Input size: 1000
Total mpi time: 0.03857
Total sequential time: 0.00003
CHECK SUCCESSFUL - Results match

Input size: 1023
Total mpi time: 0.03063
Total sequential time: 0.00001
CHECK SUCCESSFUL - Results match

Input size: 1024
Total mpi time: 0.02806
Total sequential time: 0.00002
CHECK SUCCESSFUL - Results match

Input size: 5000
Total mpi time: 0.03548
Total sequential time: 0.00012
CHECK SUCCESSFUL - Results match

Input size: 10000
Total mpi time: 0.03783
Total sequential time: 0.00020
CHECK SUCCESSFUL - Results match

Input size: 16384
Total mpi time: 0.03839
Total sequential time: 0.00032
CHECK SUCCESSFUL - Results match

Input size: 30000
Total mpi time: 0.03185
Total sequential time: 0.00058
CHECK SUCCESSFUL - Results match

Input size: 60000
Total mpi time: 0.03223
Total sequential time: 0.00048
CHECK SUCCESSFUL - Results match

Input size: 65535
Total mpi time: 0.03401
Total sequential time: 0.00045
CHECK SUCCESSFUL - Results match

Input size: 65536
Total mpi time: 0.03766
Total sequential time: 0.00046
CHECK SUCCESSFUL - Results match

Input size: 100000
Total mpi time: 0.03625
Total sequential time: 0.00082
CHECK SUCCESSFUL - Results match

Input size: 500000
Total mpi time: 0.04292
Total sequential time: 0.00399
CHECK SUCCESSFUL - Results match

Input size: 750000
Total mpi time: 0.11069
Total sequential time: 0.00628
CHECK SUCCESSFUL - Results match

Input size: 1000000
Total mpi time: 0.06381
Total sequential time: 0.00857
CHECK SUCCESSFUL - Results match

Input size: 2000000
Total mpi time: 0.12180
Total sequential time: 0.01771
CHECK SUCCESSFUL - Results match

Input size: 4194303
Total mpi time: 0.06754
Total sequential time: 0.03311
CHECK SUCCESSFUL - Results match

Input size: 4194304
Total mpi time: 0.08600
Total sequential time: 0.03706
CHECK SUCCESSFUL - Results match

Input size: 5000000
Total mpi time: 0.08812
Total sequential time: 0.04429
CHECK SUCCESSFUL - Results match

Input size: 8388608
Total mpi time: 0.14485
Total sequential time: 0.07293
CHECK SUCCESSFUL - Results match

Input size: 10000000
Total mpi time: 0.12460
Total sequential time: 0.08941
CHECK SUCCESSFUL - Results match

Input size: 16777215
Total mpi time: 0.16767
Total sequential time: 0.12903
CHECK SUCCESSFUL - Results match

Input size: 16777216
Total mpi time: 0.34794
Total sequential time: 0.14452
CHECK SUCCESSFUL - Results match

Input size: 20000000
Total mpi time: 0.26016
Total sequential time: 0.17128
CHECK SUCCESSFUL - Results match

Input size: 30000000
Total mpi time: 0.41810
Total sequential time: 0.26129
CHECK SUCCESSFUL - Results match

Input size: 33554432
Total mpi time: 0.25572
Total sequential time: 0.29285
CHECK SUCCESSFUL - Results match

