Using Cutoff 6
Input size: 2

RUNTIME SYSTEM STATISTICS:

Wall-clock running time on 48 processors: 9.864000 ms
Total work = 1.457000 ms
Total cilk time: 0.00048
Total sequential time: 0.00000
CHECK SUCCESSFUL - Results match

Input size: 4

RUNTIME SYSTEM STATISTICS:

Wall-clock running time on 48 processors: 9.808000 ms
Total work = 2.280000 ms
Total work (accumulated) = 1.081000 ms
Span = 1.067000 ms
Parallelism = 1.013121
Total cilk time: 0.00119
Total sequential time: 0.00000
CHECK SUCCESSFUL - Results match

Input size: 8

RUNTIME SYSTEM STATISTICS:

Wall-clock running time on 48 processors: 9.515000 ms
Total work = 2.090000 ms
Total cilk time: 0.00168
Total sequential time: 0.00000
CHECK SUCCESSFUL - Results match

Input size: 10

RUNTIME SYSTEM STATISTICS:

Wall-clock running time on 48 processors: 12.113000 ms
Total work = 2.876000 ms
Total cilk time: 0.00302
Total sequential time: 0.00000
CHECK SUCCESSFUL - Results match

Input size: 15

RUNTIME SYSTEM STATISTICS:

Wall-clock running time on 48 processors: 15.830000 ms
Total work = 7.233000 ms
Total work (accumulated) = 1.842000 ms
Span = 1.786000 ms
Parallelism = 1.031355
Total cilk time: 0.00608
Total sequential time: 0.00000
CHECK SUCCESSFUL - Results match

Input size: 16

RUNTIME SYSTEM STATISTICS:

Wall-clock running time on 48 processors: 9.311000 ms
Total work = 2.004000 ms
Total cilk time: 0.00171
Total sequential time: 0.00000
CHECK SUCCESSFUL - Results match

Input size: 63

RUNTIME SYSTEM STATISTICS:

Wall-clock running time on 48 processors: 12.038000 ms
Total work = 4.130000 ms
Total work (accumulated) = 2.127000 ms
Span = 1.809000 ms
Parallelism = 1.175788
Total cilk time: 0.00333
Total sequential time: 0.00000
CHECK SUCCESSFUL - Results match

Input size: 64

RUNTIME SYSTEM STATISTICS:

Wall-clock running time on 48 processors: 24.277000 ms
Total work = 11.138000 ms
Total work (accumulated) = 3.685000 ms
Span = 3.225000 ms
Parallelism = 1.142636
Total cilk time: 0.01240
Total sequential time: 0.00000
CHECK SUCCESSFUL - Results match

Input size: 1000

RUNTIME SYSTEM STATISTICS:

Wall-clock running time on 48 processors: 25.662000 ms
Total work = 20.043000 ms
Total work (accumulated) = 5.936000 ms
Span = 4.260000 ms
Parallelism = 1.393427
Total cilk time: 0.01482
Total sequential time: 0.00003
CHECK SUCCESSFUL - Results match

Input size: 1023

RUNTIME SYSTEM STATISTICS:

Wall-clock running time on 48 processors: 25.829000 ms
Total work = 19.805000 ms
Total work (accumulated) = 6.349000 ms
Span = 4.627000 ms
Parallelism = 1.372163
Total cilk time: 0.01494
Total sequential time: 0.00003
CHECK SUCCESSFUL - Results match

Input size: 1024

RUNTIME SYSTEM STATISTICS:

Wall-clock running time on 48 processors: 12.856000 ms
Total work = 6.291000 ms
Total work (accumulated) = 3.046000 ms
Span = 2.212000 ms
Parallelism = 1.377034
Total cilk time: 0.00314
Total sequential time: 0.00003
CHECK SUCCESSFUL - Results match

Input size: 5000

RUNTIME SYSTEM STATISTICS:

Wall-clock running time on 48 processors: 28.780000 ms
Total work = 28.232000 ms
Total work (accumulated) = 14.009000 ms
Span = 9.199000 ms
Parallelism = 1.522883
Total cilk time: 0.01274
Total sequential time: 0.00014
CHECK SUCCESSFUL - Results match

Input size: 10000

RUNTIME SYSTEM STATISTICS:

Wall-clock running time on 48 processors: 35.569000 ms
Total work = 40.537000 ms
Total work (accumulated) = 23.583000 ms
Span = 15.584000 ms
Parallelism = 1.513283
Total cilk time: 0.01515
Total sequential time: 0.00028
CHECK SUCCESSFUL - Results match

Input size: 16384

RUNTIME SYSTEM STATISTICS:

Wall-clock running time on 48 processors: 34.233000 ms
Total work = 37.225000 ms
Total work (accumulated) = 29.756000 ms
Span = 21.275000 ms
Parallelism = 1.398637
Total cilk time: 0.00672
Total sequential time: 0.00045
CHECK SUCCESSFUL - Results match

Input size: 30000

RUNTIME SYSTEM STATISTICS:

Wall-clock running time on 48 processors: 49.806000 ms
Total work = 63.678000 ms
Total work (accumulated) = 41.795000 ms
Span = 29.319000 ms
Parallelism = 1.425526
Total cilk time: 0.02020
Total sequential time: 0.00052
CHECK SUCCESSFUL - Results match

Input size: 60000

RUNTIME SYSTEM STATISTICS:

Wall-clock running time on 48 processors: 82.846000 ms
Total work = 119.727000 ms
Total work (accumulated) = 88.373000 ms
Span = 60.763000 ms
Parallelism = 1.454388
Total cilk time: 0.02219
Total sequential time: 0.00075
CHECK SUCCESSFUL - Results match

Input size: 65535

RUNTIME SYSTEM STATISTICS:

Wall-clock running time on 48 processors: 81.153000 ms
Total work = 110.576000 ms
Total work (accumulated) = 76.717000 ms
Span = 55.635000 ms
Parallelism = 1.378934
Total cilk time: 0.03062
Total sequential time: 0.00114
CHECK SUCCESSFUL - Results match

Input size: 65536

RUNTIME SYSTEM STATISTICS:

Wall-clock running time on 48 processors: 64.389000 ms
Total work = 77.878000 ms
Total work (accumulated) = 70.923000 ms
Span = 54.502000 ms
Parallelism = 1.301292
Total cilk time: 0.00517
Total sequential time: 0.00094
CHECK SUCCESSFUL - Results match

Input size: 100000

RUNTIME SYSTEM STATISTICS:

Wall-clock running time on 48 processors: 83.897000 ms
Total work = 108.624000 ms
Total work (accumulated) = 91.933000 ms
Span = 66.301000 ms
Parallelism = 1.386601
Total cilk time: 0.01511
Total sequential time: 0.00121
CHECK SUCCESSFUL - Results match

Input size: 500000

RUNTIME SYSTEM STATISTICS:

Wall-clock running time on 48 processors: 305.599000 ms
Total work = 409.770000 ms
Total work (accumulated) = 384.335000 ms
Span = 277.028000 ms
Parallelism = 1.387351
Total cilk time: 0.03807
Total sequential time: 0.00601
CHECK SUCCESSFUL - Results match

Input size: 750000

RUNTIME SYSTEM STATISTICS:

Wall-clock running time on 48 processors: 431.887000 ms
Total work = 590.533000 ms
Total work (accumulated) = 564.791000 ms
Span = 406.210000 ms
Parallelism = 1.390392
Total cilk time: 0.04063
Total sequential time: 0.00907
CHECK SUCCESSFUL - Results match

Input size: 1000000

RUNTIME SYSTEM STATISTICS:

Wall-clock running time on 48 processors: 549.377000 ms
Total work = 764.983000 ms
Total work (accumulated) = 737.841000 ms
Span = 519.714000 ms
Parallelism = 1.419706
Total cilk time: 0.04450
Total sequential time: 0.01215
CHECK SUCCESSFUL - Results match

Input size: 2000000

RUNTIME SYSTEM STATISTICS:

Wall-clock running time on 48 processors: 1.061212 s
Total work = 1.500267 s
Total work (accumulated) = 1.480818 s
Span = 1.033554 s
Parallelism = 1.432744
Total cilk time: 0.07024
Total sequential time: 0.02431
CHECK SUCCESSFUL - Results match

Input size: 4194303

RUNTIME SYSTEM STATISTICS:

Wall-clock running time on 48 processors: 2.848088 s
Total work = 3.259367 s
Total work (accumulated) = 3.202011 s
Span = 2.244157 s
Parallelism = 1.426821
Total cilk time: 0.21796
Total sequential time: 0.04812
CHECK SUCCESSFUL - Results match

Input size: 4194304

RUNTIME SYSTEM STATISTICS:

Wall-clock running time on 48 processors: 2.121012 s
Total work = 3.359085 s
Total work (accumulated) = 3.351116 s
Span = 2.100410 s
Parallelism = 1.595458
Total cilk time: 0.05337
Total sequential time: 0.05070
CHECK SUCCESSFUL - Results match

Input size: 5000000

RUNTIME SYSTEM STATISTICS:

Wall-clock running time on 48 processors: 2.847984 s
Total work = 4.542820 s
Total work (accumulated) = 4.517156 s
Span = 2.810389 s
Parallelism = 1.607306
Total cilk time: 0.38633
Total sequential time: 0.06078
CHECK SUCCESSFUL - Results match

Input size: 8388608

RUNTIME SYSTEM STATISTICS:

Wall-clock running time on 48 processors: 4.252836 s
Total work = 8.418625 s
Total work (accumulated) = 8.406328 s
Span = 4.232476 s
Parallelism = 1.986149
Total cilk time: 0.11939
Total sequential time: 0.09692
CHECK SUCCESSFUL - Results match

Input size: 10000000

RUNTIME SYSTEM STATISTICS:

Wall-clock running time on 48 processors: 5.773035 s
Total work = 10.191930 s
Total work (accumulated) = 10.166684 s
Span = 5.737436 s
Parallelism = 1.771991
Total cilk time: 0.83517
Total sequential time: 0.11152
CHECK SUCCESSFUL - Results match

Input size: 16777215

RUNTIME SYSTEM STATISTICS:

Wall-clock running time on 48 processors: 9.612919 s
Total work = 16.528087 s
Total work (accumulated) = 16.383090 s
Span = 9.507549 s
Parallelism = 1.723167
Total cilk time: 1.31690
Total sequential time: 0.20401
CHECK SUCCESSFUL - Results match

Input size: 16777216

RUNTIME SYSTEM STATISTICS:

Wall-clock running time on 48 processors: 8.624899 s
Total work = 18.473847 s
Total work (accumulated) = 18.466577 s
Span = 8.609975 s
Parallelism = 2.144789
Total cilk time: 0.28120
Total sequential time: 0.20265
CHECK SUCCESSFUL - Results match

Input size: 20000000

RUNTIME SYSTEM STATISTICS:

Wall-clock running time on 48 processors: 11.953615 s
Total work = 23.447312 s
Total work (accumulated) = 23.409240 s
Span = 11.907225 s
Parallelism = 1.965969
Total cilk time: 2.06759
Total sequential time: 0.22332
CHECK SUCCESSFUL - Results match

Input size: 30000000

RUNTIME SYSTEM STATISTICS:

Wall-clock running time on 48 processors: 17.733794 s
Total work = 33.380920 s
Total work (accumulated) = 33.336444 s
Span = 17.679767 s
Parallelism = 1.885570
Total cilk time: 3.08508
Total sequential time: 0.34333
CHECK SUCCESSFUL - Results match

Input size: 33554432

RUNTIME SYSTEM STATISTICS:

Wall-clock running time on 48 processors: 17.173483 s
Total work = 38.209042 s
Total work (accumulated) = 38.203713 s
Span = 17.162334 s
Parallelism = 2.226021
Total cilk time: 0.55429
Total sequential time: 0.40867
CHECK SUCCESSFUL - Results match

Input size: 67108864

RUNTIME SYSTEM STATISTICS:

Wall-clock running time on 48 processors: 34.772715 s
Total work = 70.684599 s
Total work (accumulated) = 70.677331 s
Span = 34.761526 s
Parallelism = 2.033206
Total cilk time: 0.99123
Total sequential time: 0.81189
CHECK SUCCESSFUL - Results match

Input size: 134217728

RUNTIME SYSTEM STATISTICS:

Wall-clock running time on 48 processors: 68.978598 s
Total work = 154.916495 s
Total work (accumulated) = 154.903477 s
Span = 68.964983 s
Parallelism = 2.246118
Total cilk time: 2.26954
Total sequential time: 1.63687
CHECK SUCCESSFUL - Results match

