2,0.00000,0.00000,0.00000,0.00000,0.00000,0.00000,0.00000,0.00000,0.00000,0.00000,0.00000,0.00000,0.00000,0.00000,0.00000,
4,0.00000,0.00000,0.00000,0.00000,0.00000,0.00000,0.00000,0.00000,0.00000,0.00000,0.00000,0.00000,0.00000,0.00000,0.00000,
8,0.00000,0.00000,0.00000,0.00000,0.00000,0.00000,0.00000,0.00000,0.00000,0.00000,0.00000,0.00000,0.00000,0.00000,0.00000,
10,0.00000,0.00000,0.00000,0.00000,0.00000,0.00000,0.00000,0.00000,0.00000,0.00000,0.00000,0.00000,0.00000,0.00000,0.00000,
15,0.00000,0.00000,0.00000,0.00000,0.00000,0.00000,0.00000,0.00001,0.00000,0.00000,0.00000,0.00000,0.00000,0.00000,0.00000,
16,0.00000,0.00000,0.00001,0.00000,0.00000,0.00000,0.00000,0.00000,0.00000,0.00000,0.00000,0.00000,0.00000,0.00000,0.00000,
63,0.00000,0.00000,0.00000,0.00000,0.00000,0.00000,0.00000,0.00000,0.00000,0.00000,0.00000,0.00000,0.00000,0.00003,0.00000,
64,0.00000,0.00000,0.00000,0.00000,0.00000,0.00000,0.00000,0.00000,0.00000,0.00000,0.00000,0.00000,0.00000,0.00000,0.00000,
1000,0.00000,0.00000,0.00000,0.00001,0.00001,0.00001,0.00001,0.00000,0.00000,0.00001,0.00001,0.00001,0.00001,0.00000,0.00001,
1023,0.00000,0.00000,0.00001,0.00001,0.00001,0.00001,0.00000,0.00001,0.00001,0.00000,0.00000,0.00000,0.00001,0.00001,0.00001,
1024,0.00000,0.00001,0.00001,0.00001,0.00001,0.00001,0.00001,0.00000,0.00001,0.00000,0.00001,0.00001,0.00001,0.00001,0.00001,
5000,0.00001,0.00001,0.00001,0.00001,0.00001,0.00001,0.00001,0.00001,0.00001,0.00001,0.00001,0.00001,0.00001,0.00001,0.00001,
10000,0.00001,0.00001,0.00001,0.00001,0.00001,0.00001,0.00001,0.00001,0.00001,0.00001,0.00001,0.00001,0.00001,0.00001,0.00001,
16384,0.00002,0.00002,0.00002,0.00002,0.00002,0.00002,0.00002,0.00002,0.00003,0.00002,0.00002,0.00002,0.00002,0.00002,0.00002,
30000,0.00003,0.00003,0.00004,0.00003,0.00003,0.00003,0.00005,0.00003,0.00003,0.00003,0.00003,0.00003,0.00003,0.00003,0.00003,
60000,0.00006,0.00011,0.00007,0.00006,0.00006,0.00006,0.00006,0.00006,0.00006,0.00006,0.00006,0.00008,0.00006,0.00006,0.00006,
65535,0.00008,0.00007,0.00008,0.00008,0.00008,0.00008,0.00007,0.00008,0.00009,0.00007,0.00008,0.00006,0.00007,0.00016,0.00008,
65536,0.00006,0.00007,0.00008,0.00006,0.00006,0.00007,0.00007,0.00006,0.00006,0.00006,0.00007,0.00007,0.00008,0.00006,0.00007,
100000,0.00012,0.00012,0.00011,0.00009,0.00011,0.00019,0.00011,0.00010,0.00010,0.00011,0.00011,0.00011,0.00010,0.00013,0.00010,
500000,0.00026,0.00048,0.00049,0.00050,0.00060,0.00059,0.00057,0.00066,0.00063,0.00048,0.00068,0.00053,0.00050,0.00029,0.00059,
750000,0.00018,0.00079,0.00082,0.00072,0.00076,0.00094,0.00065,0.00068,0.00173,0.00067,0.00128,0.00071,0.00097,0.00075,0.00079,
1000000,0.00103,0.00135,0.00058,0.00102,0.00106,0.00097,0.00101,0.00067,0.00099,0.00093,0.00108,0.00097,0.00113,0.00112,0.00111,
2000000,0.00197,0.00170,0.00203,0.00215,0.00276,0.00276,0.00229,0.00206,0.00191,0.00147,0.00289,0.00209,0.00263,0.00255,0.00216,
4194303,0.00432,0.00504,0.00463,0.00454,0.00510,0.00447,0.00451,0.00443,0.00428,0.00477,0.00441,0.00496,0.00526,0.00466,0.00479,
4194304,0.00506,0.00397,0.00494,0.00425,0.00488,0.00485,0.00420,0.00461,0.00399,0.00432,0.00507,0.00437,0.00490,0.00510,0.00477,
5000000,0.00470,0.00601,0.00530,0.00540,0.00590,0.00524,0.00554,0.00653,0.00510,0.00486,0.00588,0.00474,0.00487,0.00489,0.00591,
8388608,0.00886,0.01045,0.00885,0.00826,0.00868,0.00846,0.01034,0.01141,0.00885,0.00972,0.00953,0.00888,0.00956,0.00966,0.00953,
10000000,0.01112,0.01060,0.01013,0.01065,0.01012,0.01075,0.00998,0.01196,0.00969,0.01134,0.01102,0.01030,0.01197,0.01126,0.01153,
16777215,0.01739,0.01816,0.01869,0.01930,0.01789,0.01782,0.01915,0.01794,0.01790,0.01767,0.01915,0.01739,0.01789,0.02114,0.01831,
16777216,0.01762,0.01799,0.01752,0.02152,0.01809,0.01973,0.01734,0.01964,0.01753,0.01811,0.01762,0.01828,0.01815,0.01787,0.01844,
20000000,0.02341,0.02138,0.02272,0.02116,0.02097,0.02100,0.02314,0.02179,0.02030,0.02284,0.02061,0.02080,0.02117,0.02122,0.02360,
30000000,0.03148,0.03549,0.03402,0.03253,0.03141,0.03496,0.03107,0.03121,0.03163,0.03133,0.03179,0.03122,0.03452,0.03171,0.03552,
33554432,0.03694,0.03534,0.03525,0.03624,0.03502,0.03974,0.03817,0.03814,0.03546,0.03493,0.03489,0.03889,0.03817,0.03809,0.03962,
67108864,0.07128,0.07711,0.07824,0.06954,0.07592,0.07067,0.07740,0.07110,0.07065,0.07683,0.07281,0.07912,0.07870,0.07096,0.07818,
134217728,0.14276,0.15158,0.15082,0.14178,0.14035,0.18702,0.14108,0.14212,0.14181,0.14123,0.15267,0.14225,0.15261,0.14534,0.15623,
