Input size: 2
type: int
Total openmp time: 0.0904362550
Input size: 4
type: int
Total openmp time: 0.0466831300
Input size: 8
type: int
Total openmp time: 0.0008064930
Input size: 10
type: int
Total openmp time: 0.0012659460
Input size: 15
type: int
Total openmp time: 0.0007695800
Input size: 16
type: int
Total openmp time: 0.0008235510
Input size: 63
type: int
Total openmp time: 0.0030126020
Input size: 64
type: int
Total openmp time: 0.0006823300
Input size: 1000
type: int
Total openmp time: 0.0008014590
Input size: 1023
type: int
Total openmp time: 0.0007142100
Input size: 1024
type: int
Total openmp time: 0.0008126450
Input size: 5000
type: int
Total openmp time: 0.0017150550
Input size: 10000
type: int
Total openmp time: 0.0011222100
Input size: 16384
type: int
Total openmp time: 0.0023204840
Input size: 30000
type: int
Total openmp time: 0.0021082350
Input size: 60000
type: int
Total openmp time: 0.0032111490
Input size: 65535
type: int
Total openmp time: 0.0049955560
Input size: 65536
type: int
Total openmp time: 0.0033641140
Input size: 100000
type: int
Total openmp time: 0.0054536140
Input size: 500000
type: int
Total openmp time: 0.0252708460
Input size: 750000
type: int
Total openmp time: 0.0396618730
Input size: 1000000
type: int
Total openmp time: 0.0448596110
Input size: 2000000
type: int
Total openmp time: 0.2395755500
Input size: 4194303
type: int
Total openmp time: 0.1795276490
Input size: 4194304
type: int
Total openmp time: 0.2731929220
Input size: 5000000
type: int
Total openmp time: 0.2135035240
Input size: 8388608
type: int
Total openmp time: 0.4212989620
Input size: 10000000
type: int
Total openmp time: 0.5952057680
Input size: 16777215
type: int
Total openmp time: 0.8550490590
Input size: 16777216
type: int
Total openmp time: 0.8680782190
Input size: 20000000
type: int
Total openmp time: 0.9576883800
Input size: 30000000
type: int
Total openmp time: 1.4697390070
Input size: 33554432
type: int
Total openmp time: 1.5670692910
Input size: 67108864
type: int
Total openmp time: 3.2304484460
Input size: 134217728
type: int
Total openmp time: 5.9441379020
