Input size: 2
type: int
Total openmp time: 0.00329
Input size: 4
type: int
Total openmp time: 0.01193
Input size: 8
type: int
Total openmp time: 0.01483
Input size: 10
type: int
Total openmp time: 0.01458
Input size: 15
type: int
Total openmp time: 0.00273
Input size: 16
type: int
Total openmp time: 0.00149
Input size: 63
type: int
Total openmp time: 0.00305
Input size: 64
type: int
Total openmp time: 0.00131
Input size: 1000
type: int
Total openmp time: 0.00282
Input size: 1023
type: int
Total openmp time: 0.00379
Input size: 1024
type: int
Total openmp time: 0.00157
Input size: 5000
type: int
Total openmp time: 0.00779
Input size: 10000
type: int
Total openmp time: 0.00940
Input size: 16384
type: int
Total openmp time: 0.01002
Input size: 30000
type: int
Total openmp time: 0.02091
Input size: 60000
type: int
Total openmp time: 0.03574
Input size: 65535
type: int
Total openmp time: 0.03830
Input size: 65536
type: int
Total openmp time: 0.02294
Input size: 100000
type: int
Total openmp time: 0.14627
Input size: 500000
type: int
Total openmp time: 0.16775
Input size: 750000
type: int
Total openmp time: 0.13396
Input size: 1000000
type: int
Total openmp time: 0.19818
Input size: 2000000
type: int
Total openmp time: 0.24088
Input size: 4194303
type: int
Total openmp time: 0.53466
Input size: 4194304
type: int
Total openmp time: 0.29074
Input size: 5000000
type: int
Total openmp time: 0.45479
Input size: 8388608
type: int
Total openmp time: 0.43829
Input size: 10000000
type: int
Total openmp time: 0.78345
Input size: 16777215
type: int
Total openmp time: 1.17849
Input size: 16777216
type: int
Total openmp time: 0.95771
Input size: 20000000
type: int
Total openmp time: 1.24168
Input size: 30000000
type: int
Total openmp time: 1.84927
Input size: 33554432
type: int
Total openmp time: 1.30428
Input size: 67108864
type: int
Total openmp time: 2.52862
Input size: 134217728
type: int
Total openmp time: 5.12551
