Input size: 2
type: int
threads: 8
Total openmp time: 0.0622336160
Input size: 4
type: int
threads: 8
Total openmp time: 0.0066703110
Input size: 8
type: int
threads: 8
Total openmp time: 0.0163792340
Input size: 10
type: int
threads: 8
Total openmp time: 0.0213591270
Input size: 15
type: int
threads: 8
Total openmp time: 0.0174679020
Input size: 16
type: int
threads: 8
Total openmp time: 0.0046329280
Input size: 63
type: int
threads: 8
Total openmp time: 0.0187105030
Input size: 64
type: int
threads: 8
Total openmp time: 0.0000125720
Input size: 1000
type: int
threads: 8
Total openmp time: 0.0000128500
Input size: 1023
type: int
threads: 8
Total openmp time: 0.0000131300
Input size: 1024
type: int
threads: 8
Total openmp time: 0.0000122920
Input size: 5000
type: int
threads: 8
Total openmp time: 0.0000173200
Input size: 10000
type: int
threads: 8
Total openmp time: 0.0000229080
Input size: 16384
type: int
threads: 8
Total openmp time: 0.0000195560
Input size: 30000
type: int
threads: 8
Total openmp time: 0.0000357580
Input size: 60000
type: int
threads: 8
Total openmp time: 0.0000371550
Input size: 65535
type: int
threads: 8
Total openmp time: 0.0000393900
Input size: 65536
type: int
threads: 8
Total openmp time: 0.0006746570
Input size: 100000
type: int
threads: 8
Total openmp time: 0.0000522400
Input size: 500000
type: int
threads: 8
Total openmp time: 0.0002363400
Input size: 750000
type: int
threads: 8
Total openmp time: 0.0004539620
Input size: 1000000
type: int
threads: 8
Total openmp time: 0.0004791050
Input size: 2000000
type: int
threads: 8
Total openmp time: 0.0011763900
Input size: 4194303
type: int
threads: 8
Total openmp time: 0.0095206320
Input size: 4194304
type: int
threads: 8
Total openmp time: 0.0349539960
Input size: 5000000
type: int
threads: 8
Total openmp time: 0.0064102250
Input size: 8388608
type: int
threads: 8
Total openmp time: 0.0130137700
Input size: 10000000
type: int
threads: 8
Total openmp time: 0.0470846780
Input size: 16777215
type: int
threads: 8
Total openmp time: 0.0700898010
Input size: 16777216
type: int
threads: 8
Total openmp time: 0.0455431620
Input size: 20000000
type: int
threads: 8
Total openmp time: 0.0278872460
Input size: 30000000
type: int
threads: 8
Total openmp time: 0.0837349260
Input size: 33554432
type: int
threads: 8
Total openmp time: 0.1244538040
Input size: 67108864
type: int
threads: 8
Total openmp time: 0.1014277280
Input size: 134217728
type: int
threads: 8
Total openmp time: 0.2152032220
