Input size: 2
type: int
threads: 8
Total openmp time: 0.0000131300
Input size: 4
type: int
threads: 8
Total openmp time: 0.0000117330
Input size: 8
type: int
threads: 8
Total openmp time: 0.0000117330
Input size: 10
type: int
threads: 8
Total openmp time: 0.0000125720
Input size: 15
type: int
threads: 8
Total openmp time: 0.0000117330
Input size: 16
type: int
threads: 8
Total openmp time: 0.0000117330
Input size: 63
type: int
threads: 8
Total openmp time: 0.0000125710
Input size: 64
type: int
threads: 8
Total openmp time: 0.0000106160
Input size: 1000
type: int
threads: 8
Total openmp time: 0.0000125710
Input size: 1023
type: int
threads: 8
Total openmp time: 0.0000125710
Input size: 1024
type: int
threads: 8
Total openmp time: 0.0000508440
Input size: 5000
type: int
threads: 8
Total openmp time: 0.0000162030
Input size: 10000
type: int
threads: 8
Total openmp time: 0.0000178790
Input size: 16384
type: int
threads: 8
Total openmp time: 0.0056749470
Input size: 30000
type: int
threads: 8
Total openmp time: 0.0053366390
Input size: 60000
type: int
threads: 8
Total openmp time: 0.0066873550
Input size: 65535
type: int
threads: 8
Total openmp time: 0.0000388310
Input size: 65536
type: int
threads: 8
Total openmp time: 0.0000388310
Input size: 100000
type: int
threads: 8
Total openmp time: 0.0000527990
Input size: 500000
type: int
threads: 8
Total openmp time: 0.0002187400
Input size: 750000
type: int
threads: 8
Total openmp time: 0.0003262940
Input size: 1000000
type: int
threads: 8
Total openmp time: 0.0004749140
Input size: 2000000
type: int
threads: 8
Total openmp time: 0.0017166760
Input size: 4194303
type: int
threads: 8
Total openmp time: 0.0068451910
Input size: 4194304
type: int
threads: 8
Total openmp time: 0.0064876100
Input size: 5000000
type: int
threads: 8
Total openmp time: 0.0192122400
Input size: 8388608
type: int
threads: 8
Total openmp time: 0.0362502110
Input size: 10000000
type: int
threads: 8
Total openmp time: 0.1406768880
Input size: 16777215
type: int
threads: 8
Total openmp time: 0.0236004490
Input size: 16777216
type: int
threads: 8
Total openmp time: 0.0513332130
Input size: 20000000
type: int
threads: 8
Total openmp time: 0.0311378990
Input size: 30000000
type: int
threads: 8
Total openmp time: 0.0715447280
Input size: 33554432
type: int
threads: 8
Total openmp time: 0.1079497090
Input size: 67108864
type: int
threads: 8
Total openmp time: 0.1283595740
Input size: 134217728
type: int
threads: 8
Total openmp time: 0.2714962640
