Input size: 2
type: int
threads: 8
Total openmp time: 0.0000117330
Input size: 4
type: int
threads: 8
Total openmp time: 0.0000114540
Input size: 8
type: int
threads: 8
Total openmp time: 0.0000120130
Input size: 10
type: int
threads: 8
Total openmp time: 0.0000120120
Input size: 15
type: int
threads: 8
Total openmp time: 0.0000259800
Input size: 16
type: int
threads: 8
Total openmp time: 0.0000117330
Input size: 63
type: int
threads: 8
Total openmp time: 0.0000122920
Input size: 64
type: int
threads: 8
Total openmp time: 0.0000122920
Input size: 1000
type: int
threads: 8
Total openmp time: 0.0000120120
Input size: 1023
type: int
threads: 8
Total openmp time: 0.0000122920
Input size: 1024
type: int
threads: 8
Total openmp time: 0.0000131300
Input size: 5000
type: int
threads: 8
Total openmp time: 0.0000164830
Input size: 10000
type: int
threads: 8
Total openmp time: 0.0000173200
Input size: 16384
type: int
threads: 8
Total openmp time: 0.0000187180
Input size: 30000
type: int
threads: 8
Total openmp time: 0.0000265400
Input size: 60000
type: int
threads: 8
Total openmp time: 0.0860190070
Input size: 65535
type: int
threads: 8
Total openmp time: 0.0166507780
Input size: 65536
type: int
threads: 8
Total openmp time: 0.0053290980
Input size: 100000
type: int
threads: 8
Total openmp time: 0.0076910980
Input size: 500000
type: int
threads: 8
Total openmp time: 0.0198505810
Input size: 750000
type: int
threads: 8
Total openmp time: 0.0005469890
Input size: 1000000
type: int
threads: 8
Total openmp time: 0.0008056790
Input size: 2000000
type: int
threads: 8
Total openmp time: 0.0026584030
Input size: 4194303
type: int
threads: 8
Total openmp time: 0.0064160940
Input size: 4194304
type: int
threads: 8
Total openmp time: 0.0058906150
Input size: 5000000
type: int
threads: 8
Total openmp time: 0.1156673640
Input size: 8388608
type: int
threads: 8
Total openmp time: 0.0450171340
Input size: 10000000
type: int
threads: 8
Total openmp time: 0.0141845780
Input size: 16777215
type: int
threads: 8
Total openmp time: 0.0663025190
Input size: 16777216
type: int
threads: 8
Total openmp time: 0.0649392330
Input size: 20000000
type: int
threads: 8
Total openmp time: 0.0282856220
Input size: 30000000
type: int
threads: 8
Total openmp time: 0.0934779610
Input size: 33554432
type: int
threads: 8
Total openmp time: 0.1540027310
Input size: 67108864
type: int
threads: 8
Total openmp time: 0.1709214240
Input size: 134217728
type: int
threads: 8
Total openmp time: 0.2203044300
