Input size: 2
Total mpi time: 0.09999
Input size: 4
Total mpi time: 0.12000
Input size: 8
Total mpi time: 0.12992
Input size: 10
Total mpi time: 0.09999
Input size: 15
Total mpi time: 0.10410
Input size: 16
Total mpi time: 0.06000
Input size: 63
Total mpi time: 0.10216
Input size: 64
Total mpi time: 0.06000
Input size: 1000
Total mpi time: 0.10700
Input size: 1023
Total mpi time: 0.07997
Input size: 1024
Total mpi time: 0.06987
Input size: 5000
Total mpi time: 0.13296
Input size: 10000
Total mpi time: 0.09309
Input size: 16384
Total mpi time: 0.08793
Input size: 30000
Total mpi time: 0.11995
Input size: 60000
Total mpi time: 0.11996
Input size: 65535
Total mpi time: 0.11498
Input size: 65536
Total mpi time: 0.06001
Input size: 100000
Total mpi time: 0.11999
Input size: 500000
Total mpi time: 0.07990
Input size: 750000
Total mpi time: 0.05984
Input size: 1000000
Total mpi time: 0.08979
Input size: 2000000
Total mpi time: 0.05752
Input size: 4194303
Total mpi time: 0.07757
Input size: 4194304
Total mpi time: 0.07870
Input size: 5000000
Total mpi time: 0.13898
Input size: 8388608
Total mpi time: 0.17850
Input size: 10000000
Total mpi time: 0.23787
Input size: 16777215
Total mpi time: 0.24498
Input size: 16777216
Total mpi time: 0.38800
Input size: 20000000
Total mpi time: 0.30407
Input size: 30000000
Total mpi time: 0.43518
Input size: 33554432
Total mpi time: 0.63621
Input size: 67108864
Total mpi time: 0.51073
Input size: 134217728
Total mpi time: 2.18025
