Input size: 2
Total mpi time: 0.14708
Input size: 4
Total mpi time: 0.13399
Input size: 8
Total mpi time: 0.13300
Input size: 10
Total mpi time: 0.14698
Input size: 15
Total mpi time: 0.13005
Input size: 16
Total mpi time: 0.13200
Input size: 63
Total mpi time: 0.14202
Input size: 64
Total mpi time: 0.15999
Input size: 1000
Total mpi time: 0.15193
Input size: 1023
Total mpi time: 0.15500
Input size: 1024
Total mpi time: 0.19502
Input size: 5000
Total mpi time: 0.17990
Input size: 10000
Total mpi time: 0.17000
Input size: 16384
Total mpi time: 0.14005
Input size: 30000
Total mpi time: 0.13297
Input size: 60000
Total mpi time: 0.14996
Input size: 65535
Total mpi time: 0.15099
Input size: 65536
Total mpi time: 0.16995
Input size: 100000
Total mpi time: 0.16198
Input size: 500000
Total mpi time: 0.17926
Input size: 750000
Total mpi time: 0.12979
Input size: 1000000
Total mpi time: 0.14983
Input size: 2000000
Total mpi time: 0.15113
Input size: 4194303
Total mpi time: 0.17341
Input size: 4194304
Total mpi time: 0.19419
Input size: 5000000
Total mpi time: 0.15038
Input size: 8388608
Total mpi time: 0.23080
Input size: 10000000
Total mpi time: 0.18084
Input size: 16777215
Total mpi time: 0.32767
Input size: 16777216
Total mpi time: 0.35489
Input size: 20000000
Total mpi time: 0.44517
Input size: 30000000
Total mpi time: 0.62497
Input size: 33554432
Total mpi time: 0.61125
Input size: 67108864
Total mpi time: 1.11042
Input size: 134217728
Total mpi time: 1.53425
