2,0.04565,0.02445,0.02284,0.02505,0.00814,0.01776,0.04762,0.02580,0.01557,0.01209,0.02461,0.03973,0.02824,0.02706,0.00654,0.01300,0.01759,0.03507,0.04265,0.05405,0.03571,0.01895,0.01605,0.00782,0.04370,
4,0.05353,0.02987,0.03910,0.02873,0.01210,0.02031,0.04667,0.02823,0.01670,0.01698,0.03259,0.04210,0.06142,0.01764,0.01020,0.02218,0.01200,0.05038,0.04385,0.02723,0.04093,0.05964,0.02881,0.03755,0.04542,
8,0.05694,0.03476,0.03589,0.03128,0.00972,0.01560,0.04164,0.03138,0.01187,0.00835,0.03446,0.04214,0.04156,0.03782,0.01125,0.01414,0.01682,0.04517,0.06969,0.04455,0.06375,0.04397,0.03844,0.05072,0.05280,
10,0.06424,0.03208,0.03354,0.02432,0.01616,0.06103,0.06334,0.04160,0.04905,0.03512,0.02170,0.05394,0.05801,0.04169,0.01347,0.02165,0.01737,0.04557,0.06464,0.09719,0.07927,0.04338,0.06521,0.06940,0.06799,
15,0.14458,0.05831,0.02346,0.02605,0.03093,0.06972,0.06843,0.15168,0.09264,0.08349,0.02467,0.07014,0.08728,0.06890,0.04143,0.07649,0.04131,0.05434,0.09742,0.08042,0.09320,0.10544,0.10546,0.05854,0.04869,
16,0.04984,0.03998,0.01052,0.01225,0.01560,0.06128,0.03226,0.04501,0.03165,0.04529,0.03005,0.03339,0.06566,0.03173,0.00779,0.04171,0.03879,0.01326,0.07504,0.02539,0.02773,0.07842,0.07703,0.02398,0.00878,
63,0.17051,0.12886,0.03452,0.03377,0.03150,0.19449,0.10536,0.09453,0.19794,0.10572,0.19518,0.05435,0.10565,0.07842,0.02649,0.10031,0.13245,0.04449,0.10327,0.03633,0.07903,0.16928,0.10968,0.07721,0.03512,
64,0.05424,0.03811,0.01022,0.06822,0.02062,0.03770,0.04118,0.02796,0.03416,0.04835,0.03679,0.04515,0.05979,0.03447,0.01882,0.02967,0.06773,0.01539,0.02836,0.01612,0.01628,0.07294,0.03440,0.03506,0.04713,
1000,0.11226,0.16480,0.04091,0.17431,0.06896,0.12199,0.13723,0.05781,0.12002,0.10055,0.08736,0.19791,0.09565,0.09691,0.05973,0.07600,0.19373,0.06153,0.12337,0.22171,0.09741,0.11325,0.08009,0.18118,0.11310,
1023,0.17887,0.16915,0.04420,0.20791,0.10742,0.10491,0.11913,0.05024,0.08874,0.12027,0.06761,0.27354,0.05721,0.13050,0.05373,0.18391,0.17266,0.05308,0.25373,0.26864,0.10066,0.09836,0.16255,0.31682,0.27241,
1024,0.01279,0.04240,0.00600,0.05024,0.02162,0.03354,0.01519,0.00720,0.03855,0.03310,0.00785,0.07780,0.00646,0.04871,0.01861,0.04383,0.01147,0.00744,0.05271,0.05267,0.02042,0.03655,0.02673,0.03192,0.07307,
5000,0.17496,0.08644,0.05760,0.12607,0.05422,0.13524,0.04528,0.09462,0.11078,0.07286,0.07179,0.12810,0.14605,0.16956,0.05083,0.18342,0.08351,0.03757,0.09646,0.11927,0.16442,0.10400,0.04583,0.10462,0.12243,
10000,0.15954,0.11999,0.02909,0.10195,0.05383,0.13266,0.12427,0.09142,0.17220,0.06097,0.14623,0.11517,0.20107,0.11806,0.03930,0.13591,0.17049,0.03750,0.10694,0.15806,0.16889,0.10946,0.10011,0.08455,0.15499,
16384,0.04667,0.04357,0.04841,0.04149,0.03499,0.05276,0.07777,0.07323,0.05387,0.03019,0.05370,0.03564,0.04606,0.03317,0.04257,0.04007,0.06883,0.02936,0.04034,0.03500,0.06226,0.08174,0.07370,0.03452,0.07291,
30000,0.26427,0.23440,0.18186,0.17641,0.12071,0.22776,0.15415,0.15196,0.16682,0.16150,0.10585,0.21728,0.18067,0.14187,0.09043,0.09528,0.26443,0.21317,0.24915,0.23710,0.17858,0.22669,0.20074,0.14077,0.15910,
60000,0.26850,0.18299,0.17291,0.27853,0.12502,0.17008,0.14183,0.18687,0.21157,0.18027,0.22274,0.27485,0.14153,0.16905,0.17449,0.18448,0.19368,0.16932,0.21287,0.30382,0.16156,0.21269,0.27900,0.17074,0.18345,
65535,0.44800,0.19398,0.23572,0.25688,0.16228,0.35143,0.29716,0.24748,0.32182,0.28034,0.28396,0.40002,0.37324,0.40882,0.37858,0.37295,0.41380,0.18337,0.35662,0.38272,0.22072,0.40222,0.41734,0.34581,0.43002,
65536,0.13998,0.09035,0.05221,0.10023,0.05389,0.10568,0.06389,0.05728,0.12219,0.06733,0.08276,0.09780,0.13151,0.07091,0.06089,0.13719,0.14683,0.07118,0.09373,0.07900,0.06910,0.12097,0.10828,0.12806,0.13893,
100000,0.23697,0.21382,0.12509,0.24922,0.12115,0.18488,0.16609,0.27951,0.21257,0.17400,0.23730,0.26523,0.22911,0.24110,0.19955,0.19266,0.17526,0.23564,0.21248,0.31418,0.29702,0.18974,0.24122,0.24298,0.18730,
500000,0.39239,0.38152,0.37937,0.36055,0.52389,0.33248,0.51033,0.33187,0.35556,0.32055,0.34290,0.53660,0.36479,0.31918,0.33928,0.44379,0.36048,0.34275,0.44004,0.48374,0.40749,0.36828,0.55499,0.33429,0.33932,
750000,0.63746,0.45135,0.37223,0.59266,0.42385,0.44350,0.63483,0.51458,0.58342,0.37917,0.47192,0.47707,0.58315,0.50031,0.49625,0.53021,0.54062,0.41971,0.61708,0.60375,0.58793,1.07573,0.48903,0.65972,0.55282,
1000000,0.55804,0.49888,0.47350,0.77583,0.89537,0.44926,0.46339,0.45569,0.51413,0.48159,0.56544,0.93454,0.44492,0.54133,0.56844,0.56362,0.47123,0.37071,0.45966,0.58258,0.51436,0.53467,0.46766,0.48072,0.53999,
2000000,1.30055,0.76409,0.78030,0.69430,0.74462,0.75652,0.70036,0.76070,0.66387,0.65741,0.73130,0.97838,0.61956,0.79914,0.75597,0.62790,0.80328,0.65473,0.91968,0.91290,0.86453,1.31514,1.06036,1.11150,0.91346,
4194303,1.79221,1.46979,1.79457,1.42385,1.29337,1.46575,1.45283,1.66649,1.08617,1.69211,1.70205,1.33057,1.75718,1.84122,1.80378,1.52682,1.60098,1.44128,1.84547,1.88839,1.66114,2.20763,1.78548,1.71488,2.16174,
4194304,0.68209,0.71241,0.49506,0.69406,0.72875,0.52678,0.52376,0.52378,0.55839,0.70003,0.71502,0.57451,0.49890,0.54859,0.73303,0.65609,0.69227,0.50271,0.55357,0.86399,0.74533,0.75008,0.74989,0.59335,0.92812,
5000000,1.68457,1.41897,2.22729,1.40632,1.11941,1.44744,1.20644,1.16438,1.09823,1.49386,1.45934,1.73583,1.38858,1.73426,1.56863,1.46573,1.25356,1.17114,1.50542,2.06149,2.62017,1.17009,1.56835,1.63503,1.57925,
8388608,1.57754,1.17031,1.14955,1.18583,1.37803,1.33870,1.44639,1.15155,1.31866,1.18767,1.11246,1.26977,1.20161,1.13717,1.15916,1.20872,1.21878,1.37294,1.25839,1.54884,1.59251,1.93977,1.64879,1.24386,1.19623,
10000000,2.37273,3.82583,2.47817,1.80741,2.03593,2.90008,2.42321,2.51163,2.15371,3.16043,2.33579,2.50394,1.84119,2.60063,3.99527,2.68801,2.64849,2.06394,4.26362,2.70613,4.22127,2.33130,2.92636,2.97603,2.47688,
16777215,4.43630,5.05381,4.78587,4.62549,4.32068,3.74980,4.24655,6.69232,4.46854,5.75838,4.61535,4.52221,3.73303,4.30150,5.51675,4.39986,4.30401,3.93394,9.59854,6.47179,6.30463,7.42436,5.11317,4.29814,8.99229,
16777216,1.91184,2.47177,1.89273,2.52024,2.15986,2.37711,2.09146,2.22468,2.19224,2.43289,1.78190,2.63747,1.90445,2.02891,2.69597,1.95732,2.78126,1.79727,3.62030,2.30458,2.12722,2.21083,2.30972,2.71850,2.81462,
20000000,4.40498,5.81726,5.86605,5.43042,7.07675,4.58262,6.29989,4.42602,4.00424,7.43348,5.62110,5.10856,3.82130,4.29919,4.79282,3.86484,4.65072,3.84811,5.60774,5.29228,5.40853,7.60820,4.54372,9.76406,9.13014,
30000000,7.35286,7.48120,6.79795,7.79437,9.33827,7.71717,7.55709,6.07632,6.86536,7.25046,6.63656,6.89395,7.93999,6.69384,7.83604,7.41772,6.38958,6.65368,8.35485,7.95206,6.97381,7.40054,6.51886,7.56493,8.50281,
33554432,5.33158,3.35698,4.34478,4.74315,3.95702,3.97419,3.76734,3.74867,4.46477,4.09640,4.00569,4.13398,4.18624,3.79720,4.63174,4.37185,3.78716,4.56635,4.27295,4.57180,4.99102,4.44800,5.27275,4.41166,4.55423,
67108864,9.22055,8.37495,7.81755,9.05265,8.76152,7.91498,9.29572,7.28628,8.72002,8.64187,7.65907,10.08580,8.17045,8.55791,7.16141,8.53250,7.50283,7.70938,9.15629,9.09364,10.24941,8.59375,15.11908,7.19049,7.47258,
134217728,16.79594,16.76906,15.92097,17.95238,19.12873,14.03767,14.05137,16.27099,13.65127,15.22936,16.39363,17.40053,20.12473,18.06751,17.20051,15.93180,15.68219,14.00113,16.09990,16.37796,15.36614,17.48650,17.99831,15.88494,15.61293,
