2,0.00116,0.00084,0.00858,0.06915,0.04104,0.06049,0.00283,0.00329,0.00063,0.01650,0.00329,0.06876,0.00320,0.00070,0.00624,
4,0.00619,0.00174,0.00809,0.00512,0.00685,0.00517,0.00633,0.01193,0.00097,0.00620,0.07965,0.00094,0.00768,0.00209,0.02168,
8,0.00708,0.00162,0.07696,0.00123,0.01478,0.00684,0.00784,0.01483,0.00148,0.00910,0.00570,0.00328,0.05198,0.00127,0.02365,
10,0.00970,0.00146,0.00328,0.00177,0.01635,0.00809,0.00814,0.01458,0.00140,0.01465,0.00846,0.00133,0.00116,0.00264,0.06467,
15,0.03369,0.00247,0.00174,0.00189,0.02900,0.02271,0.03160,0.00273,0.00282,0.02573,0.01547,0.00231,0.00193,0.00698,0.08506,
16,0.00212,0.00194,0.00179,0.00178,0.00120,0.00176,0.00126,0.00149,0.00142,0.00489,0.00687,0.00174,0.00128,0.00178,0.03579,
63,0.00307,0.00190,0.00238,0.00477,0.00314,0.00220,0.00253,0.00305,0.00531,0.01627,0.02219,0.00187,0.00324,0.00563,0.04959,
64,0.00381,0.00125,0.00363,0.00183,0.00145,0.00136,0.00396,0.00131,0.00190,0.00308,0.00116,0.00134,0.00188,0.00132,0.01501,
1000,0.00850,0.00347,0.00321,0.00410,0.00316,0.00277,0.00362,0.00282,0.00409,0.00324,0.00394,0.00440,0.00286,0.00385,0.02880,
1023,0.00404,0.00306,0.00560,0.00368,0.00643,0.00516,0.00841,0.00379,0.00369,0.00353,0.00906,0.00369,0.00341,0.00360,0.00453,
1024,0.00198,0.00189,0.00365,0.00472,0.00233,0.00280,0.01292,0.00157,0.00215,0.00259,0.00158,0.00184,0.00272,0.00222,0.00598,
5000,0.00626,0.00504,0.01010,0.00509,0.00707,0.00925,0.02807,0.00779,0.00732,0.00559,0.00537,0.00617,0.00582,0.00513,0.03255,
10000,0.00968,0.00922,0.00827,0.00931,0.00748,0.00773,0.00881,0.00940,0.00709,0.00782,0.00689,0.00828,0.00809,0.00801,0.03879,
16384,0.00832,0.01018,0.01071,0.00947,0.00905,0.01150,0.01214,0.01002,0.00871,0.01033,0.01070,0.01142,0.01036,0.00948,0.03361,
30000,0.01775,0.01912,0.02212,0.06135,0.02060,0.02380,0.02096,0.02091,0.02185,0.01909,0.01978,0.02349,0.01913,0.03181,0.08012,
60000,0.03330,0.03309,0.03453,0.04006,0.03853,0.03448,0.04003,0.03574,0.03585,0.03056,0.03338,0.03263,0.03267,0.03726,0.13242,
65535,0.04077,0.12089,0.03664,0.12122,0.04204,0.03906,0.03975,0.03830,0.10907,0.03939,0.03889,0.12408,0.03853,0.11371,0.09015,
65536,0.02516,0.02167,0.02280,0.02433,0.02516,0.04321,0.02698,0.02294,0.02134,0.02335,0.02170,0.02411,0.02459,0.02221,0.05098,
100000,0.09309,0.04070,0.06421,0.04175,0.10334,0.09317,0.10456,0.14627,0.04169,0.11968,0.09407,0.03829,0.09150,0.03942,0.10393,
500000,0.10117,0.10392,0.10104,0.10867,0.10217,0.09741,0.13947,0.16775,0.12580,0.13886,0.15130,0.10020,0.10131,0.10354,0.20746,
750000,0.12099,0.17290,0.11948,0.21451,0.11569,0.11560,0.19372,0.13396,0.20687,0.11207,0.14102,0.19902,0.11124,0.19712,0.16309,
1000000,0.26955,0.19013,0.24860,0.20187,0.26576,0.28293,0.13673,0.19818,0.16143,0.19165,0.13826,0.14287,0.22097,0.17764,0.35427,
2000000,0.19104,0.18609,0.19990,0.26590,0.19371,0.25375,0.29542,0.24088,0.20296,0.31826,0.29336,0.24268,0.20177,0.26434,0.23844,
4194303,0.49145,0.43454,0.52313,0.48255,0.38551,0.50201,0.46367,0.53466,0.52339,0.48516,0.50868,0.50789,0.41413,0.36170,0.38898,
4194304,0.19583,0.23231,0.19864,0.21570,0.28742,0.37094,0.18611,0.29074,0.23140,0.21453,0.18982,0.21993,0.19616,0.20315,0.21854,
5000000,0.38775,0.42093,0.32613,0.34631,0.53110,0.44149,0.33688,0.45479,0.33055,0.49011,0.52793,0.38388,0.44364,0.37631,0.32405,
8388608,0.44864,0.48044,0.47018,0.39364,0.33699,0.48671,0.48980,0.43829,0.38452,0.37765,0.38539,0.37329,0.37985,0.47746,0.37710,
10000000,0.58879,0.72038,0.64843,0.61752,0.65255,0.61912,0.64288,0.78345,0.55814,0.67224,0.63936,0.63291,0.54033,0.77736,0.69328,
16777215,1.10637,1.09051,1.21550,1.25449,1.09770,1.17261,1.15159,1.17849,1.18354,1.14856,1.14628,1.06841,1.17895,1.16519,1.11070,
16777216,0.79963,0.73281,0.88350,0.69763,0.74666,0.71254,0.69028,0.95771,0.73890,0.93893,0.75972,0.75841,0.62843,0.67704,0.88398,
20000000,1.03689,1.13078,1.12619,1.02770,1.21172,1.11525,1.08435,1.24168,1.05465,1.18027,1.17314,1.08866,1.02575,1.10658,0.97937,
30000000,1.55698,1.58752,1.79438,1.52806,1.71417,1.58375,1.67343,1.84927,1.46298,1.53455,1.90405,1.60689,1.62139,1.58169,1.59892,
33554432,1.49876,1.35621,1.30569,1.54623,1.30344,1.31150,1.34770,1.30428,1.37718,1.40754,1.60265,1.36968,1.34902,1.34828,1.32040,
67108864,2.55092,2.78432,2.63796,2.59680,2.54984,2.74963,2.62464,2.52862,2.64516,2.83731,2.64679,2.61421,2.57283,2.60730,2.65585,
134217728,5.08519,5.08787,5.00048,5.01351,5.32445,5.42741,5.07238,5.12551,5.35500,5.53500,4.96184,4.99409,5.12704,5.81712,5.13573,
