2,0.0238716397,0.0104300249,0.0170805100,0.0220017564,0.0163422748,0.0088333432,0.0112797190,0.0447542518,0.0273742974,0.0133803282,0.0170907844,0.0218046866,0.0127970837,0.0109663550,0.0259392727,0.0248837955,0.0187134668,0.0165400095,0.0207374245,0.0081284028,0.0140494853,0.0183012653,0.0294709001,0.0157972928,0.0157853421,
4,0.0276426002,0.0181253776,0.0137052275,0.0196602345,0.0102494434,0.0078102574,0.0379750542,0.0267948769,0.0445355605,0.0123591069,0.0265521836,0.0275358837,0.0092523787,0.0123335607,0.0192585699,0.0409576036,0.0053073894,0.0247411579,0.0249201991,0.0115333889,0.0109708067,0.0073117558,0.0357012041,0.0131066367,0.0131802596,
8,0.0342222378,0.0167857502,0.0129988752,0.0204208940,0.0162159707,0.0063994676,0.0167618915,0.0150995851,0.0228807237,0.0167021062,0.0199083183,0.0132731982,0.0108542778,0.0193234514,0.0318546072,0.0398093648,0.0117965527,0.0203315020,0.0319517609,0.0075490717,0.0241395496,0.0399114415,0.0438158251,0.0182986315,0.0125236176,
10,0.0229672026,0.0208151732,0.0139859095,0.0137498416,0.0160135683,0.0071358848,0.0176203735,0.0264182612,0.0120831132,0.0179243647,0.0149191841,0.0174075402,0.0076313224,0.0127024706,0.0196836963,0.0359489061,0.0197930206,0.0197742078,0.0160567481,0.0127627701,0.0116286147,0.0460746344,0.0178829711,0.0146223921,0.0174550228,
15,0.0280656889,0.0139104929,0.0284222402,0.0130919944,0.0322470628,0.0160582680,0.0263716765,0.0263123531,0.0350557324,0.0137547385,0.0124824382,0.0175202973,0.0083275270,0.0157252494,0.0239756536,0.0266353730,0.0162647814,0.0360733327,0.0212455150,0.0250826459,0.0127698947,0.0448692851,0.0201454330,0.0132056642,0.0422596764,
16,0.0293077957,0.0090632048,0.0293086022,0.0111844130,0.0263620261,0.0121620242,0.0265757907,0.0321215428,0.0136194360,0.0134179909,0.0175903216,0.0230268985,0.0110534299,0.0315447096,0.0158991292,0.0136598777,0.0183004159,0.0343518369,0.0113590248,0.0257525444,0.0450195335,0.0251140576,0.0338397510,0.0210299548,0.0093742143,
63,0.0273654833,0.0208907407,0.0230969749,0.0074296761,0.0238181166,0.0214743856,0.0196202341,0.0188179780,0.0168552008,0.0136562195,0.0115097202,0.0097585618,0.0083395913,0.0111697186,0.0120860115,0.0251192600,0.0387629997,0.0240298193,0.0256348569,0.0210169069,0.0132046267,0.0390787348,0.0209060721,0.0070492886,0.0169792324,
64,0.0292808469,0.0179200657,0.0369414669,0.0078477710,0.0287593268,0.0225461479,0.0204276405,0.0076161642,0.0173599254,0.0138729364,0.0155501030,0.0306720845,0.0073287413,0.0374147724,0.0172231104,0.0187834445,0.0227414034,0.0111634322,0.0192127414,0.0202375129,0.0141327102,0.0147918202,0.0210811682,0.0162664484,0.0158814024,
1000,0.0384496823,0.0275135878,0.0191606339,0.0060666315,0.0275483932,0.0271924827,0.0207398646,0.0275721364,0.0328326076,0.0157770310,0.0125904698,0.0061576944,0.0104045104,0.0120387468,0.0149648618,0.0070976950,0.0230271481,0.0408265814,0.0050935932,0.0176240224,0.0092991758,0.0218622331,0.0090509802,0.0120580904,0.0208118241,
1023,0.0305802003,0.0111441314,0.0248863976,0.0092488602,0.0253391843,0.0165933464,0.0182666779,0.0188987367,0.0114265978,0.0110747069,0.0119586494,0.0344424862,0.0059223399,0.0358554032,0.0243771765,0.0408027358,0.0254958738,0.0098153707,0.0289609842,0.0093888715,0.0478854477,0.0238767620,0.0197902471,0.0237214770,0.0248166695,
1024,0.0281409491,0.0239567291,0.0140191335,0.0087996535,0.0257174931,0.0164955482,0.0260503925,0.0170228407,0.0125424173,0.0087903943,0.0111565441,0.0139202178,0.0141485929,0.0269776229,0.0130739324,0.0134211257,0.0256185327,0.0272401907,0.0098865274,0.0510365572,0.0057040863,0.0104358438,0.0419767722,0.0237177107,0.0200443529,
5000,0.0262353029,0.0128956102,0.0308450498,0.0089020003,0.0170760769,0.0138921812,0.0140602197,0.0203492455,0.0136433598,0.0104504805,0.0124075506,0.0078599826,0.0115486681,0.0157506894,0.0414043125,0.0116743930,0.0092896763,0.0146340970,0.0440688021,0.0340794418,0.0252576377,0.0205108356,0.0246180277,0.0209533423,0.0197091419,
10000,0.0446953904,0.0121115539,0.0299572274,0.0069848336,0.0231600218,0.0177616552,0.0188249145,0.0290640164,0.0088044740,0.0082876682,0.0084261969,0.0200908668,0.0139949825,0.0229830649,0.0191928670,0.0098318178,0.0190285854,0.0153455399,0.0219972450,0.0191399287,0.0296955053,0.0190016013,0.0230356287,0.0119141024,0.0126592275,
16384,0.0380341560,0.0150579382,0.0197162274,0.0078107473,0.0480854325,0.0158398487,0.0119743943,0.0237991251,0.0119233541,0.0163184907,0.0147347003,0.0262287594,0.0127808470,0.0454252847,0.0310785584,0.0176584441,0.0366083421,0.0149434581,0.0209459197,0.0297420640,0.0271052439,0.0113453045,0.0136418678,0.0338688605,0.0208082367,
30000,0.0171277802,0.0117948316,0.0191765856,0.0098875351,0.0310215894,0.0106602088,0.0190905016,0.0215160381,0.0084052179,0.0155001860,0.0126033537,0.0142073799,0.0108444765,0.0211926736,0.0314844381,0.0144453105,0.0304836631,0.0136333182,0.0176579561,0.0210432429,0.0206346940,0.0229804926,0.0133972093,0.0081911031,0.0398807786,
60000,0.0241753012,0.0081873350,0.0145940222,0.0178679693,0.0299178697,0.0302796774,0.0167143699,0.0219015852,0.0080168024,0.0183802415,0.0128164422,0.0122695565,0.0347208530,0.0221260991,0.0212990604,0.0170035362,0.0110408273,0.0168280676,0.0253897943,0.0193570089,0.0156419184,0.0247574747,0.0122193154,0.0140428767,0.0161841940,
65535,0.0328354072,0.0071960595,0.0154809542,0.0230374541,0.0137457382,0.0212410893,0.0309049487,0.0184202753,0.0099942107,0.0185732674,0.0100283679,0.0132491011,0.0321891550,0.0194932222,0.0152092446,0.0171270687,0.0242142323,0.0114483200,0.0170838851,0.0176900774,0.0200013909,0.0202615187,0.0061753094,0.0100636110,0.0142795555,
65536,0.0112440921,0.0097969323,0.0140438713,0.0190546121,0.0252080038,0.0142712314,0.0178998914,0.0158652626,0.0095660463,0.0150591377,0.0100230463,0.0203359276,0.0349122807,0.0369356722,0.0294753928,0.0120971762,0.0137684327,0.0099419076,0.0261364784,0.0138300918,0.0131927561,0.0179967266,0.0071317479,0.0213456340,0.0152087603,
100000,0.0087726638,0.0211135261,0.0089069791,0.0353823993,0.0132702440,0.0218610130,0.0098444354,0.0108679663,0.0160319880,0.0152300596,0.0083982088,0.0280762482,0.0126708858,0.0310749020,0.0108630899,0.0120485350,0.0166975558,0.0095722675,0.0166439116,0.0133539941,0.0112851858,0.0359425694,0.0302360449,0.0110229533,0.0139538664,
500000,0.0154388677,0.0127899256,0.0119369682,0.0238114335,0.0194900185,0.0226402059,0.0408519488,0.0202921443,0.0162819605,0.0193201806,0.0138528496,0.0346089173,0.0254101213,0.0057489201,0.0402919408,0.0142685007,0.0218065251,0.0141033605,0.0199167226,0.0158340652,0.0092022102,0.0161548201,0.0486699250,0.0087209679,0.0073356144,
750000,0.0127065256,0.0161403473,0.0369707905,0.0305574462,0.0195830893,0.0122206584,0.0103885755,0.0149753951,0.0167841557,0.0164619833,0.0162927192,0.0224522892,0.0204667635,0.0208907668,0.0203046855,0.0156640969,0.0209537894,0.0159534868,0.0291378647,0.0149902366,0.0137525965,0.0308530871,0.0190693960,0.0071490873,0.0139087103,
1000000,0.0100531913,0.0127013382,0.0121991485,0.0172496065,0.0135365706,0.0194506086,0.0289005060,0.0155609734,0.0509212166,0.0172937978,0.0241519045,0.0175362900,0.0377029199,0.0284119006,0.0111484192,0.0181070976,0.0226525068,0.0470733717,0.0204905383,0.0272425301,0.0288044866,0.0110223405,0.0222988520,0.0129487272,0.0107944775,
2000000,0.0180523470,0.0229519363,0.0239357892,0.0256033186,0.0183016881,0.0219262596,0.0380476955,0.0123537276,0.0360330027,0.0158215538,0.0336519405,0.0278203990,0.0255517028,0.0291892402,0.0265046135,0.0506961457,0.0216182955,0.0104344729,0.0493488368,0.0182258617,0.0342386104,0.0218181461,0.0223804638,0.0492752921,0.0221188590,
4194303,0.0365733039,0.0214240067,0.0362221114,0.0235686973,0.0560126510,0.0237523969,0.0391522683,0.0338765215,0.0534269921,0.0311219376,0.0649260208,0.0255569164,0.0327168517,0.0663393084,0.0369047150,0.0424587522,0.0337536111,0.0524758063,0.0281848200,0.0391972773,0.0365046039,0.0272033494,0.0401254874,0.0284550078,0.0311573334,
4194304,0.0307085160,0.0283984058,0.0349804927,0.0247540511,0.0264762193,0.0227820929,0.0244790372,0.0351178236,0.0666699875,0.0695870947,0.0337333195,0.0488308817,0.0250964221,0.0482008234,0.0212532543,0.0353727154,0.0398537423,0.0275027882,0.0337582342,0.0383383539,0.0325967204,0.0213420391,0.0393601917,0.0367224980,0.0404110122,
5000000,0.0976861808,0.0272414684,0.0501780771,0.0647408478,0.0385492016,0.0528619904,0.0317728538,0.0471191928,0.0277943145,0.0413144436,0.0545287505,0.0211186763,0.0315627549,0.0543874651,0.0270598605,0.0325928871,0.0292561315,0.0688498076,0.0362809263,0.0370159075,0.0338079482,0.0379604064,0.0358637590,0.0473309718,0.0451221801,
8388608,0.0895911455,0.0541575495,0.0744481105,0.0536354203,0.0433404092,0.0915711857,0.0499785524,0.0544672143,0.0368617792,0.0388125796,0.0586574282,0.0438897330,0.0394572318,0.0507435594,0.0888431184,0.0463371389,0.0487016495,0.0470098443,0.1111318041,0.0909355804,0.0672810413,0.0403993689,0.0554376077,0.0442066565,0.0614822190,
10000000,0.0798221640,0.0774544924,0.0850742608,0.0647342894,0.0697619803,0.0393658318,0.0801095776,0.0589802638,0.0391411390,0.0663167965,0.0369024277,0.0489597917,0.0469012801,0.0447920710,0.0727916509,0.0510239396,0.0603769999,0.0511606950,0.0473259762,0.0679086931,0.0492686257,0.0937143024,0.0585871525,0.0667762253,0.0636048019,
16777215,0.2565861084,0.0797866508,0.1016735509,0.1062528398,0.1140344776,0.1815327462,0.1040077079,0.0826542545,0.0996769350,0.0619551111,0.0842025280,0.1237746868,0.0861883257,0.1098632365,0.0515311267,0.0833396073,0.1081193574,0.0928523578,0.0927716792,0.0791332610,0.0577126071,0.1206034068,0.0909346081,0.1145818476,0.1128332391,
16777216,0.1024921592,0.0932870954,0.1159838177,0.1105310693,0.1127080694,0.1124404818,0.1068194769,0.1011501830,0.1091034114,0.0926162638,0.1188082416,0.0897958968,0.1549192611,0.0745681189,0.0959750433,0.0799948275,0.0976015273,0.0867026262,0.0991801117,0.0888809022,0.1469355077,0.0886374805,0.1192399170,0.0846912675,0.1028983109,
20000000,0.0981812142,0.0576346740,0.1001846436,0.1185821965,0.1662553512,0.0724199209,0.0846786238,0.1097489744,0.0797125325,0.1286455337,0.0611316469,0.1094054058,0.0718105957,0.0911817234,0.0768482387,0.1161648631,0.0753019750,0.0819852613,0.0940423720,0.0927705858,0.0932439417,0.0749737844,0.1070848536,0.0950661674,0.1056681257,
30000000,0.1170750894,0.1721903998,0.1258317344,0.1250484847,0.1360119097,0.1386796888,0.1648005620,0.1385218985,0.1355948504,0.1086222716,0.1981829926,0.1139283311,0.1057111528,0.1607200950,0.1913255714,0.0771715511,0.1853157058,0.1101556346,0.1695765313,0.1397573706,0.1250519678,0.1486605983,0.2184200808,0.1429380029,0.1729581133,
33554432,0.1200772934,0.1043970101,0.1526405569,0.1602480691,0.1795733143,0.1393451616,0.1075318735,0.2250213996,0.1163700186,0.1420092918,0.1148482226,0.1155744605,0.1215718780,0.1378446966,0.1409463026,0.0777241644,0.1837187447,0.1919231564,0.1261110045,0.2680255864,0.1609365698,0.1609672941,0.2752986327,0.1394302230,0.2070745602,
67108864,0.2466401011,0.2325418182,0.2616389059,0.1935025305,0.3000081871,0.3062085696,0.2893899735,0.2497799657,0.2291661762,0.4961551838,0.2467196472,0.2599149775,0.2701506577,0.2539513651,0.2384875081,0.2438260578,0.2838255111,0.2290245891,0.2463372368,0.3165982086,0.2481822111,0.2807627432,0.2315563187,0.2645185497,0.3005037885,
134217728,0.5585971382,0.5145535581,0.5427492298,0.4850829560,0.4143323414,0.3846945893,0.3862486668,0.4462630525,0.4782428294,0.3606383912,0.4792796429,0.2761067133,0.4491926488,0.5080624260,0.4439788088,0.6095784940,0.4524017293,0.6776034459,0.3017390445,0.3574355897,0.4958846774,0.2764852196,0.5354299713,0.6805424094,0.3683021851,
