2,0.00228,0.00155,0.00828,0.00554,0.00775,0.00146,0.00140,0.00149,0.00145,0.00149,
4,0.00175,0.00299,0.00891,0.00618,0.01275,0.00241,0.00263,0.00332,0.00276,0.00520,
8,0.00273,0.00271,0.01031,0.01276,0.00896,0.00259,0.00253,0.00516,0.00256,0.00261,
10,0.00266,0.00259,0.01024,0.01016,0.00750,0.00253,0.00261,0.00264,0.00280,0.00359,
15,0.00436,0.00262,0.01724,0.01495,0.02013,0.00324,0.00277,0.00279,0.00269,0.00296,
16,0.00285,0.00247,0.01558,0.00892,0.00863,0.00245,0.00290,0.00323,0.00292,0.00252,
63,0.00309,0.00278,0.02312,0.03443,0.03363,0.00306,0.00313,0.00302,0.00308,0.00319,
64,0.00257,0.00271,0.00869,0.01122,0.00837,0.00248,0.00274,0.00248,0.00272,0.00258,
1000,0.00453,0.00503,0.03363,0.04615,0.03791,0.00468,0.00460,0.00459,0.00460,0.00487,
1023,0.00497,0.00486,0.05451,0.06193,0.03298,0.00482,0.00465,0.00484,0.00499,0.00588,
1024,0.00435,0.00426,0.00522,0.00969,0.01265,0.00426,0.00422,0.00342,0.00428,0.00411,
5000,0.01121,0.01150,0.03302,0.03785,0.03149,0.01158,0.01099,0.01124,0.01195,0.01154,
10000,0.03258,0.01654,0.03997,0.03161,0.02830,0.01853,0.01934,0.01927,0.02099,0.01930,
16384,0.02840,0.02827,0.02129,0.02764,0.01992,0.02720,0.02771,0.02308,0.02941,0.02524,
30000,0.05018,0.03397,0.05598,0.07013,0.06124,0.03554,0.04827,0.05344,0.04682,0.04658,
60000,0.08802,0.08312,0.09238,0.07906,0.09652,0.07495,0.07444,0.07752,0.07736,0.07236,
65535,0.09300,0.06776,0.14413,0.13124,0.10458,0.09348,0.07957,0.07988,0.08883,0.07477,
65536,0.05646,0.05340,0.04498,0.04194,0.05356,0.05447,0.05084,0.05834,0.05154,0.05083,
100000,0.07398,0.07572,0.09103,0.09830,0.11103,0.07901,0.09329,0.07557,0.07373,0.08238,
500000,0.20680,0.20522,0.23660,0.22225,0.22577,0.18513,0.20987,0.21235,0.18613,0.19551,
750000,0.27283,0.23946,0.26172,0.26816,0.25957,0.26431,0.26061,0.24589,0.22661,0.25840,
1000000,0.28346,0.30585,0.33655,0.28195,0.32351,0.29835,0.29092,0.28313,0.30561,0.29095,
2000000,0.44182,0.48294,0.45029,0.45706,0.44536,0.43871,0.45095,0.46305,0.42677,0.44628,
4194303,0.82250,0.82893,0.94426,0.98101,0.90339,0.84482,0.92305,0.87322,0.94963,0.86880,
4194304,0.45098,0.46519,0.46812,0.49069,0.46871,0.46673,0.47001,0.45416,0.47133,0.46711,
5000000,0.84964,0.85754,1.06167,0.89609,0.99339,0.84048,0.83254,0.82471,0.81064,0.85617,
8388608,0.84856,0.83306,0.89258,0.82746,0.84354,0.86116,0.86537,0.86334,0.85890,0.86284,
10000000,1.54092,1.77820,1.54363,2.00589,1.68058,1.51182,1.89945,1.79239,1.76963,1.54421,
16777215,2.75501,3.35195,3.10813,3.06444,3.07562,2.68105,2.64935,3.01933,3.33155,3.38194,
16777216,1.64695,1.68922,1.65893,1.69972,1.65441,1.64551,1.64168,1.66342,1.66959,1.66832,
20000000,3.40225,3.36081,3.08887,3.92282,3.40299,3.46325,3.80080,2.94542,3.88995,3.84329,
30000000,5.03145,4.43111,5.22671,4.60614,5.07970,5.67886,5.03751,4.86845,4.47998,5.89961,
33554432,3.13932,3.23400,3.30437,3.22589,3.29210,3.19747,3.17982,3.32382,3.31779,3.22217,
67108864,6.11689,6.17462,6.30016,6.42266,6.38436,6.42606,6.33713,6.36782,6.38476,6.32726,
134217728,13.02473,12.23592,12.93939,13.01925,12.59617,12.82258,13.01289,12.48859,12.73379,12.90821,
