2,0.00000,0.00000,0.00000,0.00000,0.00000,0.00000,0.00000,0.00000,0.00000,0.00000,
4,0.00000,0.00000,0.00000,0.00000,0.00000,0.00000,0.00000,0.00000,0.00000,0.00000,
8,0.00000,0.00000,0.00000,0.00000,0.00024,0.00000,0.00000,0.00000,0.00000,0.00000,
10,0.00000,0.00000,0.00000,0.00000,0.00000,0.00000,0.00000,0.00000,0.00000,0.00000,
15,0.00000,0.00000,0.00000,0.00000,0.00000,0.00000,0.00000,0.00000,0.00000,0.00000,
16,0.00000,0.00000,0.00000,0.00000,0.00000,0.00000,0.00000,0.00000,0.00000,0.00000,
63,0.00000,0.00000,0.00000,0.00000,0.00000,0.00000,0.00000,0.00000,0.00000,0.00000,
64,0.00000,0.00000,0.00000,0.00000,0.00000,0.00000,0.00000,0.00000,0.00000,0.00000,
1000,0.00003,0.00001,0.00001,0.00006,0.00001,0.00001,0.00003,0.00003,0.00003,0.00003,
1023,0.00003,0.00001,0.00001,0.00001,0.00001,0.00001,0.00003,0.00003,0.00003,0.00003,
1024,0.00003,0.00001,0.00003,0.00002,0.00001,0.00001,0.00003,0.00003,0.00003,0.00003,
5000,0.00013,0.00006,0.00013,0.00013,0.00005,0.00011,0.00013,0.00013,0.00016,0.00013,
10000,0.00026,0.00011,0.00026,0.00011,0.00011,0.00011,0.00026,0.00026,0.00026,0.00011,
16384,0.00043,0.00019,0.00018,0.00018,0.00026,0.00018,0.00042,0.00042,0.00018,0.00050,
30000,0.00078,0.00046,0.00051,0.00032,0.00076,0.00076,0.00035,0.00033,0.00078,0.00078,
60000,0.00065,0.00065,0.00067,0.00066,0.00065,0.00065,0.00068,0.00065,0.00065,0.00066,
65535,0.00073,0.00099,0.00071,0.00086,0.00072,0.00073,0.00071,0.00071,0.00071,0.00072,
65536,0.00071,0.00073,0.00071,0.00072,0.00071,0.00071,0.00073,0.00071,0.00074,0.00074,
100000,0.00114,0.00109,0.00111,0.00109,0.00109,0.00113,0.00109,0.00113,0.00109,0.00111,
500000,0.00556,0.00772,0.00554,0.00566,0.00556,0.00568,0.00552,0.00555,0.00563,0.00559,
750000,0.00836,0.00976,0.00840,0.00855,0.00878,0.00838,0.00834,0.00839,0.00899,0.00840,
1000000,0.01118,0.01145,0.01138,0.01126,0.01163,0.01127,0.01138,0.01135,0.01196,0.01124,
2000000,0.02235,0.02310,0.02250,0.02276,0.02226,0.02255,0.02254,0.02265,0.02425,0.02263,
4194303,0.04685,0.04750,0.04671,0.04690,0.04863,0.04698,0.04753,0.04720,0.04727,0.04678,
4194304,0.04824,0.06840,0.04784,0.04735,0.04921,0.04709,0.04801,0.04721,0.05013,0.04670,
5000000,0.05645,0.07962,0.05611,0.05621,0.05646,0.05632,0.05703,0.05695,0.05557,0.05633,
8388608,0.09461,0.09466,0.09440,0.09559,0.09486,0.09391,0.09406,0.09369,0.09402,0.09457,
10000000,0.11315,0.11181,0.11443,0.11290,0.11319,0.11187,0.11284,0.11609,0.11658,0.11230,
16777215,0.18830,0.18848,0.18971,0.18743,0.18807,0.19520,0.18936,0.19132,0.19179,0.18696,
16777216,0.18636,0.18931,0.18828,0.18918,0.19961,0.19855,0.18892,0.19073,0.18935,0.18705,
20000000,0.22230,0.22379,0.23137,0.22907,0.23240,0.23648,0.22829,0.22601,0.22841,0.22673,
30000000,0.33854,0.33315,0.33967,0.33845,0.34354,0.33415,0.33867,0.33385,0.33608,0.33617,
33554432,0.37789,0.37558,0.38393,0.38586,0.37941,0.37361,0.37992,0.37976,0.37539,0.37759,
67108864,0.76142,0.75096,0.75327,0.74880,0.75082,0.75741,0.75918,0.76661,0.75108,1.08902,
134217728,1.62327,1.50573,1.52551,1.56520,1.50101,1.53542,1.51832,1.52760,1.58809,1.54187,
