Input size: 2
CHECK FAILED - Results do not match

Total sequential time: 0.00000
Input size: 4
threads: 32
CHECK FAILED - Results do not match

Total sequential time: 0.00000
Input size: 8
threads: 32
CHECK FAILED - Results do not match

Total sequential time: 0.00000
Input size: 10
CHECK FAILED - Results do not match

Total sequential time: 0.00000
Input size: 15
threads: 32
CHECK FAILED - Results do not match

Total sequential time: 0.00000
Input size: 16
threads: 32
CHECK FAILED - Results do not match

Total sequential time: 0.00000
Input size: 63
threads: 32
Total openmp time: 0.0074023474
Total sequential time: 0.00000
CHECK SUCCESSFUL - Results match

Input size: 64
threads: 32
Total openmp time: 0.0048437100
Total sequential time: 0.00000
CHECK SUCCESSFUL - Results match

Input size: 1000
threads: 32
Total openmp time: 0.0108192619
Total sequential time: 0.00003
CHECK SUCCESSFUL - Results match

Input size: 1023
threads: 32
Total openmp time: 0.0102647077
Total sequential time: 0.00001
CHECK SUCCESSFUL - Results match

Input size: 1024
threads: 32
Total openmp time: 0.0126734097
Total sequential time: 0.00001
CHECK SUCCESSFUL - Results match

Input size: 5000
threads: 32
Total openmp time: 0.0000577904
Total sequential time: 0.00007
CHECK SUCCESSFUL - Results match

Input size: 10000
threads: 32
Total openmp time: 0.0113375019
Total sequential time: 0.00014
CHECK SUCCESSFUL - Results match

Input size: 16384
threads: 32
Total openmp time: 0.0093568377
Total sequential time: 0.00042
CHECK SUCCESSFUL - Results match

Input size: 30000
threads: 32
Total openmp time: 0.0106877182
Total sequential time: 0.00078
CHECK SUCCESSFUL - Results match

Input size: 60000
threads: 32
Total openmp time: 0.0102406405
Total sequential time: 0.00066
CHECK SUCCESSFUL - Results match

Input size: 65535
threads: 32
Total openmp time: 0.0102964863
Total sequential time: 0.00103
CHECK SUCCESSFUL - Results match

Input size: 65536
threads: 32
Total openmp time: 0.0105914734
Total sequential time: 0.00093
CHECK SUCCESSFUL - Results match

Input size: 100000
threads: 32
Total openmp time: 0.0098706540
Total sequential time: 0.00109
CHECK SUCCESSFUL - Results match

Input size: 500000
threads: 32
Total openmp time: 0.0129119549
Total sequential time: 0.00568
CHECK SUCCESSFUL - Results match

Input size: 750000
threads: 32
Total openmp time: 0.0113434233
Total sequential time: 0.01175
CHECK SUCCESSFUL - Results match

Input size: 1000000
threads: 32
Total openmp time: 0.0090910159
Total sequential time: 0.01202
CHECK SUCCESSFUL - Results match

Input size: 2000000
threads: 32
Total openmp time: 0.0160484277
Total sequential time: 0.02254
CHECK SUCCESSFUL - Results match

Input size: 4194303
threads: 32
Total openmp time: 0.0168656502
Total sequential time: 0.04682
CHECK SUCCESSFUL - Results match

Input size: 4194304
threads: 32
Total openmp time: 0.0237745121
Total sequential time: 0.06510
CHECK SUCCESSFUL - Results match

Input size: 5000000
threads: 32
Total openmp time: 0.0384679921
Total sequential time: 0.05651
CHECK SUCCESSFUL - Results match

Input size: 8388608
threads: 32
Total openmp time: 0.0554049797
Total sequential time: 0.10543
CHECK SUCCESSFUL - Results match

Input size: 10000000
threads: 32
Total openmp time: 0.0676528048
Total sequential time: 0.15780
CHECK SUCCESSFUL - Results match

Input size: 16777215
threads: 32
Total openmp time: 0.0627422296
Total sequential time: 0.18715
CHECK SUCCESSFUL - Results match

Input size: 16777216
threads: 32
Total openmp time: 0.1043196786
Total sequential time: 0.19061
CHECK SUCCESSFUL - Results match

Input size: 20000000
threads: 32
Total openmp time: 0.0956175365
Total sequential time: 0.33662
CHECK SUCCESSFUL - Results match

Input size: 30000000
threads: 32
Total openmp time: 0.2042169422
Total sequential time: 0.38719
CHECK SUCCESSFUL - Results match

Input size: 33554432
threads: 32
Total openmp time: 0.2048321236
Total sequential time: 0.38005
CHECK SUCCESSFUL - Results match

Input size: 67108864
threads: 32
Total openmp time: 0.2515092138
Total sequential time: 0.77476
CHECK SUCCESSFUL - Results match

Input size: 134217728
threads: 32
Total openmp time: 0.4840585291
Total sequential time: 1.69686
CHECK SUCCESSFUL - Results match

