Input size: 64
Total sequential time: 0.00000
Input size: 1000
Total sequential time: 0.00000
Input size: 1023
Total sequential time: 0.00000
Input size: 1024
Total sequential time: 0.00000
Input size: 5000
Total sequential time: 0.00001
Input size: 10000
Total sequential time: 0.00003
Input size: 16384
Total sequential time: 0.00004
Input size: 30000
Total sequential time: 0.00008
Input size: 60000
Total sequential time: 0.00017
Input size: 65535
Total sequential time: 0.00019
Input size: 65536
Total sequential time: 0.00019
Input size: 100000
Total sequential time: 0.00029
Input size: 500000
Total sequential time: 0.00085
Input size: 750000
Total sequential time: 0.00163
Input size: 1000000
Total sequential time: 0.00241
Input size: 2000000
Total sequential time: 0.00619
Input size: 4194303
Total sequential time: 0.01154
Input size: 4194304
Total sequential time: 0.01253
Input size: 5000000
Total sequential time: 0.01504
Input size: 8388608
Total sequential time: 0.02609
Input size: 10000000
Total sequential time: 0.02876
Input size: 16777215
Total sequential time: 0.05286
Input size: 16777216
Total sequential time: 0.04691
Input size: 20000000
Total sequential time: 0.05671
Input size: 30000000
Total sequential time: 0.08782
Input size: 33554432
Total sequential time: 0.09006
Input size: 67108864
Total sequential time: 0.19038
Input size: 134217728
Total sequential time: 0.39001
Input size: 268435456
Total sequential time: 0.75885
Input size: 536870912
Total sequential time: 1.52565
Input size: 64
Total sequential time: 0.00000
Input size: 1000
Total sequential time: 0.00000
Input size: 1023
Total sequential time: 0.00000
Input size: 1024
Total sequential time: 0.00000
Input size: 5000
Total sequential time: 0.00001
Input size: 10000
Total sequential time: 0.00003
Input size: 16384
Total sequential time: 0.00004
Input size: 30000
Total sequential time: 0.00008
Input size: 60000
Total sequential time: 0.00017
Input size: 65535
Total sequential time: 0.00019
Input size: 65536
Total sequential time: 0.00019
Input size: 100000
Total sequential time: 0.00030
Input size: 500000
Total sequential time: 0.00082
Input size: 750000
Total sequential time: 0.00165
Input size: 1000000
Total sequential time: 0.00243
Input size: 2000000
Total sequential time: 0.00520
Input size: 4194303
Total sequential time: 0.01146
Input size: 4194304
Total sequential time: 0.01085
Input size: 5000000
Total sequential time: 0.01279
Input size: 8388608
Total sequential time: 0.02549
Input size: 10000000
Total sequential time: 0.02692
Input size: 16777215
Total sequential time: 0.04966
Input size: 16777216
Total sequential time: 0.04858
Input size: 20000000
Total sequential time: 0.05554
Input size: 30000000
Total sequential time: 0.09392
Input size: 33554432
Total sequential time: 0.10022
Input size: 67108864
Total sequential time: 0.19165
Input size: 134217728
Total sequential time: 0.39286
Input size: 268435456
Total sequential time: 0.76468
Input size: 536870912
Total sequential time: 1.54688
Input size: 64
Total sequential time: 0.00000
Input size: 1000
Total sequential time: 0.00000
Input size: 1023
Total sequential time: 0.00000
Input size: 1024
Total sequential time: 0.00000
Input size: 5000
Total sequential time: 0.00001
Input size: 10000
Total sequential time: 0.00003
Input size: 16384
Total sequential time: 0.00004
Input size: 30000
Total sequential time: 0.00008
Input size: 60000
Total sequential time: 0.00017
Input size: 65535
Total sequential time: 0.00019
Input size: 65536
Total sequential time: 0.00019
Input size: 100000
Total sequential time: 0.00030
Input size: 500000
Total sequential time: 0.00085
Input size: 750000
Total sequential time: 0.00168
Input size: 1000000
Total sequential time: 0.00251
Input size: 2000000
Total sequential time: 0.00584
Input size: 4194303
Total sequential time: 0.01286
Input size: 4194304
Total sequential time: 0.01067
Input size: 5000000
Total sequential time: 0.01307
Input size: 8388608
Total sequential time: 0.02271
Input size: 10000000
Total sequential time: 0.02589
Input size: 16777215
Total sequential time: 0.04647
Input size: 16777216
Total sequential time: 0.04645
Input size: 20000000
Total sequential time: 0.05515
Input size: 30000000
Total sequential time: 0.08837
Input size: 33554432
Total sequential time: 0.09830
Input size: 67108864
Total sequential time: 0.19755
Input size: 134217728
Total sequential time: 0.37255
Input size: 268435456
Total sequential time: 0.78965
Input size: 536870912
Total sequential time: 1.46457
