Input size: 64
Total sequential time: 0.00000
Input size: 1000
Total sequential time: 0.00000
Input size: 1023
Total sequential time: 0.00000
Input size: 1024
Total sequential time: 0.00000
Input size: 5000
Total sequential time: 0.00001
Input size: 10000
Total sequential time: 0.00003
Input size: 16384
Total sequential time: 0.00004
Input size: 30000
Total sequential time: 0.00009
Input size: 60000
Total sequential time: 0.00017
Input size: 65535
Total sequential time: 0.00019
Input size: 65536
Total sequential time: 0.00019
Input size: 100000
Total sequential time: 0.00030
Input size: 500000
Total sequential time: 0.00086
Input size: 750000
Total sequential time: 0.00183
Input size: 1000000
Total sequential time: 0.00248
Input size: 2000000
Total sequential time: 0.00527
Input size: 4194303
Total sequential time: 0.01150
Input size: 4194304
Total sequential time: 0.01093
Input size: 5000000
Total sequential time: 0.01611
Input size: 8388608
Total sequential time: 0.02441
Input size: 10000000
Total sequential time: 0.02596
Input size: 16777215
Total sequential time: 0.04911
Input size: 16777216
Total sequential time: 0.04700
Input size: 20000000
Total sequential time: 0.05779
Input size: 30000000
Total sequential time: 0.08936
Input size: 33554432
Total sequential time: 0.09334
Input size: 67108864
Total sequential time: 0.18708
Input size: 134217728
Total sequential time: 0.40060
Input size: 268435456
Total sequential time: 0.92648
Input size: 536870912
Total sequential time: 1.82064
Input size: 64
Total sequential time: 0.00000
Input size: 1000
Total sequential time: 0.00000
Input size: 1023
Total sequential time: 0.00000
Input size: 1024
Total sequential time: 0.00000
Input size: 5000
Total sequential time: 0.00001
Input size: 10000
Total sequential time: 0.00003
Input size: 16384
Total sequential time: 0.00004
Input size: 30000
Total sequential time: 0.00008
Input size: 60000
Total sequential time: 0.00017
Input size: 65535
Total sequential time: 0.00019
Input size: 65536
Total sequential time: 0.00019
Input size: 100000
Total sequential time: 0.00030
Input size: 500000
Total sequential time: 0.00083
Input size: 750000
Total sequential time: 0.00164
Input size: 1000000
Total sequential time: 0.00298
Input size: 2000000
Total sequential time: 0.00511
Input size: 4194303
Total sequential time: 0.01273
Input size: 4194304
Total sequential time: 0.01274
Input size: 5000000
Total sequential time: 0.01355
Input size: 8388608
Total sequential time: 0.02241
Input size: 10000000
Total sequential time: 0.02811
Input size: 16777215
Total sequential time: 0.05213
Input size: 16777216
Total sequential time: 0.05059
Input size: 20000000
Total sequential time: 0.05738
Input size: 30000000
Total sequential time: 0.08566
Input size: 33554432
Total sequential time: 0.10303
Input size: 67108864
Total sequential time: 0.19216
Input size: 134217728
Total sequential time: 0.73557
Input size: 268435456
Total sequential time: 0.73499
Input size: 536870912
Total sequential time: 25.44440
