Input size: 2
type: int
Total openmp time: 0.00708
Input size: 4
type: int
Total openmp time: 0.01479
Input size: 8
type: int
Total openmp time: 0.01325
Input size: 10
type: int
Total openmp time: 0.01881
Input size: 15
type: int
Total openmp time: 0.01830
Input size: 16
type: int
Total openmp time: 0.00658
Input size: 63
type: int
Total openmp time: 0.03325
Input size: 64
type: int
Total openmp time: 0.03819
Input size: 1000
type: int
Total openmp time: 0.27602
Input size: 1023
type: int
Total openmp time: 0.15161
Input size: 1024
type: int
Total openmp time: 0.03376
Input size: 5000
type: int
Total openmp time: 0.07488
Input size: 10000
type: int
Total openmp time: 0.08769
Input size: 16384
type: int
Total openmp time: 0.03540
Input size: 30000
type: int
Total openmp time: 2.41352
Input size: 60000
type: int
Total openmp time: 0.48952
Input size: 65535
type: int
Total openmp time: 0.37311
Input size: 65536
type: int
Total openmp time: 0.09426
Input size: 100000
type: int
Total openmp time: 0.36603
Input size: 500000
type: int
Total openmp time: 0.36103
Input size: 750000
type: int
Total openmp time: 4.97505
Input size: 1000000
type: int
Total openmp time: 0.49957
Input size: 2000000
type: int
Total openmp time: 1.71724
Input size: 4194303
type: int
Total openmp time: 19.28245
Input size: 4194304
type: int
Total openmp time: 0.46913
Input size: 5000000
type: int
Total openmp time: 5.03641
Input size: 8388608
type: int
Total openmp time: 1.18333
Input size: 10000000
type: int
Total openmp time: 7.55178
Input size: 16777215
type: int
Total openmp time: 7.69935
Input size: 16777216
type: int
Total openmp time: 2.89173
Input size: 20000000
type: int
Total openmp time: 3.83890
Input size: 30000000
type: int
Total openmp time: 6.78577
Input size: 33554432
type: int
Total openmp time: 4.21449
Input size: 67108864
type: int
Total openmp time: 9.16164
Input size: 134217728
type: int
Total openmp time: 18.65928
