Input size: 2
type: int
threads: 16
Total openmp time: 0.0338827353
Input size: 4
type: int
threads: 16
Total openmp time: 0.0242530052
Input size: 8
type: int
threads: 16
Total openmp time: 0.0467722453
Input size: 10
type: int
threads: 16
Total openmp time: 0.0231689718
Input size: 15
type: int
threads: 16
Total openmp time: 0.0289279055
Input size: 16
type: int
threads: 16
Total openmp time: 0.0216086879
Input size: 63
type: int
threads: 16
Total openmp time: 0.0277156420
Input size: 64
type: int
threads: 16
Total openmp time: 0.0088797603
Input size: 1000
type: int
threads: 16
Total openmp time: 0.0219777897
Input size: 1023
type: int
threads: 16
Total openmp time: 0.0035077259
Input size: 1024
type: int
threads: 16
Total openmp time: 0.0171767697
Input size: 5000
type: int
threads: 16
Total openmp time: 0.0378089640
Input size: 10000
type: int
threads: 16
Total openmp time: 0.2564832419
Input size: 16384
type: int
threads: 16
Total openmp time: 0.0177457407
Input size: 30000
type: int
threads: 16
Total openmp time: 0.0041109100
Input size: 60000
type: int
threads: 16
Total openmp time: 0.0042131003
Input size: 65535
type: int
threads: 16
Total openmp time: 0.0108937155
Input size: 65536
type: int
threads: 16
Total openmp time: 0.0222501121
Input size: 100000
type: int
threads: 16
Total openmp time: 0.0481703691
Input size: 500000
type: int
threads: 16
Total openmp time: 0.0043062195
Input size: 750000
type: int
threads: 16
Total openmp time: 0.0671525244
Input size: 1000000
type: int
threads: 16
Total openmp time: 0.0150822923
Input size: 2000000
type: int
threads: 16
Total openmp time: 0.0156709887
Input size: 4194303
type: int
threads: 16
Total openmp time: 0.0055924822
Input size: 4194304
type: int
threads: 16
Total openmp time: 0.0109254774
Input size: 5000000
type: int
threads: 16
Total openmp time: 0.1425478794
Input size: 8388608
type: int
threads: 16
Total openmp time: 0.0445057992
Input size: 10000000
type: int
threads: 16
Total openmp time: 0.0323654804
Input size: 16777215
type: int
threads: 16
Total openmp time: 0.0523822419
Input size: 16777216
type: int
threads: 16
Total openmp time: 0.0459554400
Input size: 20000000
type: int
threads: 16
Total openmp time: 0.0456827935
Input size: 30000000
type: int
threads: 16
Total openmp time: 0.1133991517
Input size: 33554432
type: int
threads: 16
Total openmp time: 0.1047884952
Input size: 67108864
type: int
threads: 16
Total openmp time: 0.7782139834
Input size: 134217728
type: int
threads: 16
Total openmp time: 0.2448286489
