2,0.06503,0.01521,0.03621,0.01903,0.00812,0.01712,0.03181,0.01658,0.03876,0.01828,0.03855,0.01474,0.07377,0.01651,0.02142,0.01000,0.07535,0.02820,0.00708,0.00719,0.02609,0.01796,0.02349,0.09878,1.49825,
4,0.13670,0.01019,0.10047,0.03995,0.01061,0.01757,0.03831,0.04119,0.03401,0.03192,0.04025,0.02912,0.01355,0.03545,0.01498,0.02105,0.08754,0.02919,0.01479,0.01202,0.04035,0.03565,0.02984,0.15482,0.27951,
8,0.10972,0.04029,0.09724,0.02410,0.01199,0.00956,0.06082,0.02999,0.04076,0.04465,0.03770,0.01259,0.01678,0.02421,0.01331,0.03904,0.13082,0.12842,0.01325,0.01128,0.02689,0.03450,0.00971,0.16212,0.21948,
10,0.01187,0.05453,0.09500,0.03527,0.01764,0.01827,0.09075,0.02979,0.02834,0.03936,0.03814,0.01585,0.41663,0.05603,0.03351,0.05135,0.22336,0.29646,0.01881,0.01713,0.03117,0.03427,0.01654,0.23646,0.28173,
15,0.01372,0.07528,0.18882,0.05712,0.02131,0.04129,0.12784,0.06764,0.05920,0.05901,0.05743,0.02973,0.61623,0.10487,0.05202,0.04563,0.29465,0.17899,0.01830,0.01500,0.04320,0.04193,0.02437,0.43655,0.44799,
16,0.00725,0.03047,0.11788,0.03643,0.00996,0.06175,0.07061,0.02723,0.03286,0.03652,0.03900,0.00964,0.00560,0.11429,0.01806,0.10357,0.17220,0.00925,0.00658,0.00565,0.03688,0.02424,0.01014,0.86580,0.16264,
63,0.03746,0.11085,0.40258,0.09674,0.03535,0.14847,0.12195,0.09133,0.10046,0.30367,0.14034,0.19878,0.03254,0.48783,0.06598,0.59811,0.45521,0.03847,0.03325,0.03225,0.06991,0.07310,0.05309,0.65074,0.71870,
64,0.00779,0.04136,0.16645,0.02663,0.00947,0.04361,0.04129,0.01621,0.02929,0.04052,0.03045,0.00835,0.03313,0.24782,0.01700,0.11913,0.06036,0.00992,0.03819,0.00887,0.02846,0.02210,0.01159,0.23734,0.23058,
1000,0.04183,0.12107,0.53971,0.10189,0.04536,0.19627,0.18736,0.08577,0.12806,0.12873,0.15120,0.03807,0.08356,2.35242,0.04887,0.49178,1.89165,0.05047,0.27602,0.04372,0.08745,0.12130,0.04721,0.86003,0.77180,
1023,0.05660,0.17642,0.10036,0.23263,0.08106,0.45608,0.27923,0.13043,0.15396,0.15372,0.18666,0.04943,0.20858,4.22608,0.35945,1.13794,2.27659,0.08419,0.15161,0.16956,0.16081,0.14044,0.05368,2.06702,1.07863,
1024,0.03594,0.03743,0.01422,0.02940,0.01517,0.28917,0.09931,0.00919,0.04861,0.03718,0.02921,0.00855,0.74393,0.75258,0.15848,0.13385,0.00726,0.01285,0.03376,0.02790,0.02675,0.03069,0.01006,0.67028,0.18352,
5000,0.03133,0.16402,0.32417,0.10443,0.21801,0.11292,0.26352,0.04722,0.08991,0.08875,0.11457,0.23679,0.08908,1.92146,1.64236,0.15102,1.69802,0.04774,0.07488,0.08764,0.06938,0.06360,1.12181,0.65874,0.56328,
10000,0.06305,0.11260,0.68292,0.08960,0.24487,0.08733,0.12140,0.04632,0.10306,0.33172,0.13660,0.04284,2.48823,1.21990,0.22808,1.08495,0.55118,0.05670,0.08769,0.07202,0.36859,0.59502,2.36051,0.20064,0.10697,
16384,0.03575,0.03790,0.27723,0.04773,2.92626,0.03776,0.03971,0.05102,5.06230,0.04739,0.05263,0.02738,0.05531,0.33072,0.04185,0.05026,0.16030,0.01794,0.03540,0.03627,0.03047,0.02380,0.62200,0.10549,3.13177,
30000,0.13599,0.37236,1.23200,0.13190,4.02969,0.15118,0.21294,0.13072,7.28109,0.16173,3.16360,0.11046,0.56789,0.15207,0.10833,0.71953,0.59432,0.68843,2.41352,0.62417,0.08746,0.08936,3.25306,0.15471,0.63952,
60000,0.14833,11.55894,1.69252,0.20614,2.49321,2.08117,0.21402,0.22961,0.14928,0.15764,3.21691,0.11216,2.00268,0.25352,0.12736,0.09807,0.13125,0.81740,0.48952,0.32854,0.15898,0.11818,1.48351,0.13191,1.39275,
65535,1.11008,2.86607,19.35245,0.46682,2.93224,2.18023,0.18290,0.62574,0.34143,0.22184,0.72486,4.93264,9.60238,0.27346,0.32240,0.25520,0.26609,0.30036,0.37311,0.51010,0.17416,0.16476,1.09448,0.36185,1.98858,
65536,1.77100,0.89267,1.29820,0.17746,0.05551,0.07506,0.04804,0.12552,0.34190,0.05474,0.47538,0.06923,1.07384,0.42941,0.08043,0.05006,0.06359,0.10040,0.09426,6.86860,0.73551,0.04729,0.29032,1.67441,3.13859,
100000,0.73411,2.59116,7.13679,0.16616,0.55154,0.22634,0.17038,0.70400,7.45059,0.16352,1.04899,0.85282,0.54646,0.24750,0.65362,0.61775,5.10356,0.13872,0.36603,4.22179,1.28502,0.13199,0.75919,0.53170,3.18573,
500000,0.38237,23.30738,16.68546,0.36438,0.84130,0.76061,1.83360,0.31531,35.55336,0.68605,0.57922,2.02650,8.74158,1.25172,2.02351,0.46936,1.43673,0.46061,0.36103,0.34681,1.66463,3.84013,1.37814,3.01884,6.62083,
750000,1.55391,14.63293,6.03952,0.40579,1.51851,0.35936,1.41652,6.39316,36.12547,7.74307,0.69826,0.50698,0.44239,0.65646,0.36733,0.63571,0.61440,0.43238,4.97505,1.32643,0.61453,2.70871,4.61456,5.47030,3.69620,
1000000,0.68429,0.60793,20.64159,0.43630,1.08475,5.52464,16.45401,1.34885,38.77255,11.21648,0.44246,0.36272,0.54006,1.37002,1.26755,2.03472,0.57139,0.37909,0.49957,0.89583,1.31431,0.36022,6.67827,3.56433,4.23161,
2000000,0.62673,1.00984,9.76534,1.42947,0.84680,0.64419,31.19419,5.77564,32.29896,18.22532,0.58869,0.66664,0.61356,8.36044,2.14472,1.06699,3.61684,4.23830,1.71724,0.58644,0.74984,0.87076,2.45273,2.58337,9.03513,
4194303,1.52457,6.76389,39.35639,56.56963,4.40657,15.19235,21.94302,1.79036,9.29392,118.77909,10.04946,1.96711,3.83630,3.31058,3.91622,1.12961,1.27697,2.62902,19.28245,4.20762,8.15282,1.20795,13.49476,13.29432,12.40853,
4194304,0.55526,27.55142,0.61987,1.03668,0.58047,45.34681,2.19265,2.64421,0.47699,9.45199,2.31598,3.63834,28.81584,6.75543,3.44488,0.60819,2.86861,0.50004,0.46913,0.63489,0.46918,1.84667,4.71660,5.46478,9.90069,
5000000,1.70535,14.50026,3.55667,1.14697,1.76512,2.01781,0.96743,18.42505,1.12800,2.94068,1.21367,2.45283,111.80846,2.99767,4.01292,5.68667,1.25398,3.92738,5.03641,1.13162,1.28835,1.19282,5.32937,13.49985,1.61789,
8388608,1.64416,17.71461,11.68911,0.96060,1.72579,1.04634,2.95174,4.73841,5.74932,7.02112,0.87673,4.18376,0.91912,3.29854,4.33960,1.00555,2.14707,2.76121,1.18333,1.75514,2.90545,1.41910,4.82632,17.95470,15.31085,
10000000,5.69488,26.09809,28.76915,51.20162,10.87625,4.98977,3.76104,2.08242,1.58268,12.69137,6.90003,8.07814,6.56197,5.73537,7.23156,5.04781,4.00682,4.72963,7.55178,2.63601,2.75090,1.53013,11.02761,20.65880,14.53076,
16777215,3.99112,4.45485,46.40971,57.41636,4.81595,4.52973,9.58033,12.50448,22.96962,22.85054,9.99974,5.23468,7.45620,18.60693,14.01205,12.09610,9.12343,6.39490,7.69935,8.42178,5.91992,15.13010,18.47176,34.79557,9.38642,
16777216,2.76852,25.59902,4.16713,45.06220,2.72422,17.02067,2.15199,2.07659,6.40468,2.41273,2.06110,1.93545,5.82300,5.70658,8.73531,2.15322,3.74119,1.82351,2.89173,1.99985,1.99817,2.11765,12.14218,9.94386,40.01919,
20000000,4.50827,44.22540,79.15869,4.49301,84.18820,5.13742,87.01280,10.97313,135.40290,5.85963,10.50366,7.48835,3.52567,18.97604,10.94457,13.12517,11.81996,12.26956,3.83890,3.65630,9.36566,32.21309,19.43780,29.56999,38.15152,
30000000,6.92814,55.95763,52.38897,108.60230,11.40434,7.37587,12.25441,16.13949,14.45730,7.43684,10.99159,5.05846,115.37412,18.74435,16.10871,8.25003,10.02734,7.33564,6.78577,14.13153,23.91692,24.72810,37.21862,44.86017,56.05238,
33554432,5.08955,5.76728,95.34118,72.57609,4.68935,76.49920,15.99132,6.47477,31.41236,129.41288,20.00981,4.56767,24.56731,10.52924,11.44923,5.30101,8.99738,5.02270,4.21449,5.27303,4.39948,20.95811,24.69859,44.79951,31.41531,
67108864,9.46884,86.25126,85.73084,102.33417,11.84036,17.72982,56.69037,15.48728,13.70203,30.56541,82.65357,11.52129,26.04663,23.77581,19.89846,17.03779,15.27063,8.08423,9.16164,14.73219,8.35283,35.05880,48.17443,81.64822,74.88036,
134217728,17.68181,144.17802,82.82066,54.96913,109.63077,27.95179,58.41884,36.82139,192.12855,29.15036,87.83795,18.77107,23.25288,47.65472,33.46108,26.72734,23.67238,25.53080,18.65928,15.82416,17.77778,101.58419,140.60155,157.32192,179.96736,
