Input size: 2
type: int
Total openmp time: 0.11179
The total number of operations is: 0
Input size: 4
type: int
Total openmp time: 0.23073
The total number of operations is: 0
Input size: 8
type: int
Total openmp time: 0.28746
The total number of operations is: 0
Input size: 10
type: int
Total openmp time: 0.37552
The total number of operations is: 0
Input size: 15
type: int
Total openmp time: 0.27519
The total number of operations is: 0
Input size: 16
type: int
Total openmp time: 0.19020
The total number of operations is: 0
Input size: 63
type: int
Total openmp time: 0.29682
The total number of operations is: 0
Input size: 64
type: int
Total openmp time: 0.29740
The total number of operations is: 0
Input size: 1000
type: int
Total openmp time: 0.04627
The total number of operations is: 0
Input size: 1023
type: int
Total openmp time: 0.04984
The total number of operations is: 0
Input size: 1024
type: int
Total openmp time: 0.04318
The total number of operations is: 0
Input size: 5000
type: int
Total openmp time: 0.05672
The total number of operations is: 0
Input size: 10000
type: int
Total openmp time: 0.06111
The total number of operations is: 0
Input size: 16384
type: int
Total openmp time: 0.07656
The total number of operations is: 0
Input size: 30000
type: int
Total openmp time: 0.27792
The total number of operations is: 0
Input size: 60000
type: int
Total openmp time: 0.24819
The total number of operations is: 0
Input size: 65535
type: int
Total openmp time: 0.18562
The total number of operations is: 0
Input size: 65536
type: int
Total openmp time: 0.25220
The total number of operations is: 0
Input size: 100000
type: int
Total openmp time: 0.24208
The total number of operations is: 0
Input size: 500000
type: int
Total openmp time: 0.47846
The total number of operations is: 0
Input size: 750000
type: int
Total openmp time: 0.60846
The total number of operations is: 0
Input size: 1000000
type: int
Total openmp time: 0.50178
The total number of operations is: 0
Input size: 2000000
type: int
Total openmp time: 0.86181
The total number of operations is: 0
Input size: 4194303
type: int
Total openmp time: 2.09503
The total number of operations is: 0
Input size: 4194304
type: int
Total openmp time: 4.52520
The total number of operations is: 0
Input size: 5000000
type: int
Total openmp time: 5.65029
The total number of operations is: 0
Input size: 8388608
type: int
Total openmp time: 4.12988
The total number of operations is: 0
Input size: 10000000
type: int
Total openmp time: 6.08047
The total number of operations is: 0
Input size: 16777215
type: int
Total openmp time: 13.64212
The total number of operations is: 0
Input size: 16777216
type: int
Total openmp time: 10.78603
The total number of operations is: 0
Input size: 20000000
type: int
Total openmp time: 13.40616
The total number of operations is: 0
Input size: 30000000
type: int
Total openmp time: 19.51247
The total number of operations is: 0
Input size: 33554432
type: int
Total openmp time: 22.05951
The total number of operations is: 0
Input size: 67108864
type: int
Total openmp time: 42.54435
The total number of operations is: 0
Input size: 134217728
type: int
Total openmp time: 91.50748
The total number of operations is: 0
