Input size: 2
Total sequential time: 0.00000
Input size: 4
Total sequential time: 0.00000
Input size: 8
Total sequential time: 0.00000
Input size: 10
Total sequential time: 0.00000
Input size: 15
Total sequential time: 0.00000
Input size: 16
Total sequential time: 0.00000
Input size: 63
Total sequential time: 0.00000
Input size: 64
Total sequential time: 0.00000
Input size: 1000
Total sequential time: 0.00000
Input size: 1023
Total sequential time: 0.00000
Input size: 1024
Total sequential time: 0.00000
Input size: 5000
Total sequential time: 0.00002
Input size: 10000
Total sequential time: 0.00004
Input size: 16384
Total sequential time: 0.00007
Input size: 30000
Total sequential time: 0.00015
Input size: 60000
Total sequential time: 0.00030
Input size: 65535
Total sequential time: 0.00033
Input size: 65536
Total sequential time: 0.00033
Input size: 100000
Total sequential time: 0.00051
Input size: 500000
Total sequential time: 0.00126
Input size: 750000
Total sequential time: 0.00203
Input size: 1000000
Total sequential time: 0.00291
Input size: 2000000
Total sequential time: 0.00593
Input size: 4194303
Total sequential time: 0.01234
Input size: 4194304
Total sequential time: 0.01229
Input size: 5000000
Total sequential time: 0.01472
Input size: 8388608
Total sequential time: 0.02465
Input size: 10000000
Total sequential time: 0.02951
Input size: 16777215
Total sequential time: 0.04944
Input size: 16777216
Total sequential time: 0.04957
Input size: 20000000
Total sequential time: 0.05890
Input size: 30000000
Total sequential time: 0.08874
Input size: 33554432
Total sequential time: 0.09824
Input size: 67108864
Total sequential time: 0.18949
Input size: 134217728
Total sequential time: 0.39698
