Input size: 2
Input size: 4
threads: 32
Input size: 8
threads: 32
Input size: 10
Input size: 15
threads: 32
Input size: 16
threads: 32
Input size: 63
threads: 32
Total openmp time: 0.0000773091
Input size: 64
threads: 32
Total openmp time: 0.0000721160
Input size: 1000
threads: 32
Total openmp time: 0.0001103040
Input size: 1023
threads: 32
Total openmp time: 0.0000690259
Input size: 1024
threads: 32
Total openmp time: 0.0000714697
Input size: 5000
threads: 32
Total openmp time: 0.0000766069
Input size: 10000
threads: 32
Total openmp time: 0.0000924747
Input size: 16384
threads: 32
Total openmp time: 0.0000945590
Input size: 30000
threads: 32
Total openmp time: 0.0001002662
Input size: 60000
threads: 32
Total openmp time: 0.0001623575
Input size: 65535
threads: 32
Total openmp time: 0.0001705382
Input size: 65536
threads: 32
Total openmp time: 0.0001751203
Input size: 100000
threads: 32
Total openmp time: 0.0002265330
Input size: 500000
threads: 32
Total openmp time: 0.0008595400
Input size: 750000
threads: 32
Total openmp time: 0.0010135230
Input size: 1000000
threads: 32
Total openmp time: 0.0016400758
Input size: 2000000
threads: 32
Total openmp time: 0.0041806791
Input size: 4194303
threads: 32
Total openmp time: 0.0132481772
Input size: 4194304
threads: 32
Total openmp time: 0.0133366007
Input size: 5000000
threads: 32
Total openmp time: 0.0148782451
Input size: 8388608
threads: 32
Total openmp time: 0.0281401221
Input size: 10000000
threads: 32
Total openmp time: 0.0323102418
Input size: 16777215
threads: 32
Total openmp time: 0.0590726081
Input size: 16777216
threads: 32
Total openmp time: 0.0558741633
Input size: 20000000
threads: 32
Total openmp time: 0.0694902167
Input size: 30000000
threads: 32
Total openmp time: 0.1092293896
Input size: 33554432
threads: 32
Total openmp time: 0.1073235329
Input size: 67108864
threads: 32
Total openmp time: 0.1168651320
Input size: 134217728
threads: 32
Total openmp time: 0.5116771236
