Input size: 2
Input size: 4
threads: 48
Input size: 8
threads: 48
Input size: 10
Input size: 15
threads: 48
Input size: 16
threads: 48
Input size: 63
threads: 48
Total openmp time: 0.0050943512
Input size: 64
threads: 48
Total openmp time: 0.0058623254
Input size: 1000
threads: 48
Total openmp time: 0.0080900341
Input size: 1023
threads: 48
Total openmp time: 0.0094772596
Input size: 1024
threads: 48
Total openmp time: 0.0042835642
Input size: 5000
threads: 48
Total openmp time: 0.0071600433
Input size: 10000
threads: 48
Total openmp time: 0.0097115878
Input size: 16384
threads: 48
Total openmp time: 0.0069262441
Input size: 30000
threads: 48
Total openmp time: 0.0097598936
Input size: 60000
threads: 48
Total openmp time: 0.0061952751
Input size: 65535
threads: 48
Total openmp time: 0.0085471701
Input size: 65536
threads: 48
Total openmp time: 0.0098230913
Input size: 100000
threads: 48
Total openmp time: 0.0101191923
Input size: 500000
threads: 48
Total openmp time: 0.0112917852
Input size: 750000
threads: 48
Total openmp time: 0.0147736147
Input size: 1000000
threads: 48
Total openmp time: 0.0134751890
Input size: 2000000
threads: 48
Total openmp time: 0.0102670752
Input size: 4194303
threads: 48
Total openmp time: 0.0184357837
Input size: 4194304
threads: 48
Total openmp time: 0.0169843901
Input size: 5000000
threads: 48
Total openmp time: 0.0197061915
Input size: 8388608
threads: 48
Total openmp time: 0.0312584415
Input size: 10000000
threads: 48
Total openmp time: 0.0365443006
Input size: 16777215
threads: 48
Total openmp time: 0.0637354106
Input size: 16777216
threads: 48
Total openmp time: 0.0603216682
Input size: 20000000
threads: 48
Total openmp time: 0.0695609022
Input size: 30000000
threads: 48
Total openmp time: 0.1014510412
Input size: 33554432
threads: 48
Total openmp time: 0.1112167500
Input size: 67108864
threads: 48
Total openmp time: 0.2534368671
Input size: 134217728
threads: 48
Total openmp time: 0.4440671485
