Input size: 2
Total sequential time: 0.00000
Input size: 4
Total sequential time: 0.00000
Input size: 8
Total sequential time: 0.00000
Input size: 10
Total sequential time: 0.00000
Input size: 15
Total sequential time: 0.00000
Input size: 16
Total sequential time: 0.00000
Input size: 63
Total sequential time: 0.00000
Input size: 64
Total sequential time: 0.00000
Input size: 1000
Total sequential time: 0.00001
Input size: 1023
Total sequential time: 0.00000
Input size: 1024
Total sequential time: 0.00001
Input size: 5000
Total sequential time: 0.00003
Input size: 10000
Total sequential time: 0.00005
Input size: 16384
Total sequential time: 0.00020
Input size: 30000
Total sequential time: 0.00015
Input size: 60000
Total sequential time: 0.00030
Input size: 65535
Total sequential time: 0.00033
Input size: 65536
Total sequential time: 0.00033
Input size: 100000
Total sequential time: 0.00051
Input size: 500000
Total sequential time: 0.00127
Input size: 750000
Total sequential time: 0.00209
Input size: 1000000
Total sequential time: 0.00289
Input size: 2000000
Total sequential time: 0.00588
Input size: 4194303
Total sequential time: 0.01247
Input size: 4194304
Total sequential time: 0.01248
Input size: 5000000
Total sequential time: 0.01482
Input size: 8388608
Total sequential time: 0.02462
Input size: 10000000
Total sequential time: 0.02897
Input size: 16777215
Total sequential time: 0.04804
Input size: 16777216
Total sequential time: 0.04792
Input size: 20000000
Total sequential time: 0.05667
Input size: 30000000
Total sequential time: 0.08449
Input size: 33554432
Total sequential time: 0.09861
Input size: 67108864
Total sequential time: 0.19979
Input size: 134217728
Total sequential time: 0.39799
