n;seq;cilk;openmp;mpi
2;0,00001;;0,00693;
4;0,00001;;0,01784;
8;0;;0,01362;
16;0,00001;;0,05269;
32;0;;0,05708;
64;0,00001;;0,0359;
128;0;;0,06695;
256;0,00001;;0,12764;
512;0,00001;;0,0476;
1024;0,00009;;0,08967;
2048;0,00004;;0,04077;
4096;0,00002;;0,07568;
8192;0,00006;;0,06553;
16384;0,00011;;0,10758;
32768;0,00025;;0,17731;
65536;0,0003;;0,24615;
131072;0,00083;;0,57579;
262144;0,00128;;0,81529;
524288;0,00312;;1,9492;
1048576;0,00693;;4,03434;
2097152;0,01035;;7,56218;
4194304;0,01801;;18,25676;
8388608;0,04831;;35,94352;
16777216;0,07699;;78,05538;
33554432;;;;
