Input size: 2
Total mpi time: 0.03578
Input size: 4
Total mpi time: 0.04997
Input size: 8
Total mpi time: 0.03000
Input size: 10
Total mpi time: 0.03085
Input size: 15
Total mpi time: 0.00021
Input size: 16
Total mpi time: 0.03996
Input size: 63
Total mpi time: 0.02999
Input size: 64
Total mpi time: 0.04000
Input size: 1000
Total mpi time: 0.03999
Input size: 1023
Total mpi time: 0.03998
Input size: 1024
Total mpi time: 0.03990
Input size: 5000
Total mpi time: 0.05999
Input size: 10000
Total mpi time: 0.03005
Input size: 16384
Total mpi time: 0.02097
Input size: 30000
Total mpi time: 0.05988
Input size: 60000
Total mpi time: 0.02995
Input size: 65535
Total mpi time: 0.00026
Input size: 65536
Total mpi time: 0.08005
Input size: 100000
Total mpi time: 0.03997
Input size: 500000
Total mpi time: 0.03990
Input size: 750000
Total mpi time: 0.05908
Input size: 1000000
Total mpi time: 0.02981
Input size: 2000000
Total mpi time: 0.03972
Input size: 4194303
Total mpi time: 0.05412
Input size: 4194304
Total mpi time: 0.04746
Input size: 5000000
Total mpi time: 0.01761
Input size: 8388608
Total mpi time: 0.04839
Input size: 10000000
Total mpi time: 0.12797
Input size: 16777215
Total mpi time: 0.08242
Input size: 16777216
Total mpi time: 0.23823
Input size: 20000000
Total mpi time: 0.11641
Input size: 30000000
Total mpi time: 0.11684
Input size: 33554432
Total mpi time: 0.11626
Input size: 67108864
Total mpi time: 0.20643
Input size: 134217728
Total mpi time: 0.39550
Input size: 2
Total mpi time: 0.03998
Input size: 4
Total mpi time: 0.08003
Input size: 8
Total mpi time: 0.04902
Input size: 10
Total mpi time: 0.03992
Input size: 15
Total mpi time: 0.03995
Input size: 16
Total mpi time: 0.03998
Input size: 63
Total mpi time: 0.02016
Input size: 64
Total mpi time: 0.00022
Input size: 1000
Total mpi time: 0.02999
Input size: 1023
Total mpi time: 0.00026
Input size: 1024
Total mpi time: 0.06298
Input size: 5000
Total mpi time: 0.02994
Input size: 10000
Total mpi time: 0.03000
Input size: 16384
Total mpi time: 0.02994
Input size: 30000
Total mpi time: 0.03989
Input size: 60000
Total mpi time: 0.05283
Input size: 65535
Total mpi time: 0.03981
Input size: 65536
Total mpi time: 0.03995
Input size: 100000
Total mpi time: 0.04994
Input size: 500000
Total mpi time: 0.03887
Input size: 750000
Total mpi time: 0.02984
Input size: 1000000
Total mpi time: 0.02327
Input size: 2000000
Total mpi time: 0.06669
Input size: 4194303
Total mpi time: 0.04731
Input size: 4194304
Total mpi time: 0.03880
Input size: 5000000
Total mpi time: 0.03902
Input size: 8388608
Total mpi time: 0.05548
Input size: 10000000
Total mpi time: 0.05514
Input size: 16777215
Total mpi time: 0.23705
Input size: 16777216
Total mpi time: 0.06476
Input size: 20000000
Total mpi time: 0.08674
Input size: 30000000
Total mpi time: 0.15525
Input size: 33554432
Total mpi time: 0.11684
Input size: 67108864
Total mpi time: 0.23288
Input size: 134217728
Total mpi time: 0.41721
