2,0.00555,0.00180,0.00151,0.01118,0.00143,0.00150,0.00144,0.00140,0.00156,0.00145,0.00140,0.00143,0.00155,0.00147,0.00149,0.00213,0.00218,0.00138,0.00141,0.00142,0.00143,0.00142,0.00299,0.00979,0.00158
4,0.00248,0.00237,0.00242,0.01737,0.00234,0.00144,0.00250,0.00238,0.01775,0.00133,0.00241,0.00247,0.00255,0.00295,0.00243,0.01860,0.00237,0.00231,0.00237,0.00244,0.00168,0.00237,0.00311,0.00231,0.00255
8,0.00245,0.00272,0.00250,0.02479,0.00251,0.00140,0.00253,0.00250,0.01702,0.00247,0.00241,0.00254,0.02123,0.00768,0.00284,0.02239,0.00301,0.00243,0.00145,0.00237,0.00252,0.00256,0.00869,0.00245,0.00259
10,0.00248,0.00249,0.00237,0.02347,0.00245,0.00241,0.00242,0.00248,0.00199,0.00247,0.00242,0.00237,0.01484,0.01232,0.00253,0.00255,0.00326,0.00252,0.00246,0.00243,0.00139,0.00349,0.00433,0.00251,0.00266
15,0.00356,0.00241,0.00247,0.01994,0.00238,0.00245,0.00247,0.00270,0.01258,0.00278,0.00248,0.00239,0.01189,0.00250,0.00261,0.00275,0.01663,0.00244,0.00254,0.00259,0.00252,0.00238,0.00889,0.00157,0.00247
16,0.00251,0.00252,0.00272,0.02894,0.00265,0.00273,0.00256,0.00262,0.01493,0.00253,0.00257,0.00261,0.01772,0.00279,0.00272,0.01801,0.00352,0.00251,0.00332,0.00259,0.00337,0.00258,0.01279,0.00249,0.00254
63,0.00271,0.00294,0.00256,0.02939,0.00266,0.00285,0.00268,0.00259,0.01910,0.00282,0.00262,0.00281,0.02263,0.00262,0.00290,0.00176,0.00301,0.00267,0.00663,0.00270,0.00257,0.00268,0.01503,0.00198,0.00268
64,0.00275,0.00274,0.00291,0.00168,0.00267,0.00282,0.00325,0.00271,0.01793,0.00296,0.00265,0.00268,0.01728,0.00285,0.00333,0.02024,0.00287,0.00285,0.00264,0.00294,0.00282,0.00277,0.02252,0.00342,0.00263
1000,0.00320,0.00300,0.00349,0.00229,0.00308,0.00303,0.00304,0.00316,0.00688,0.01175,0.00312,0.00307,0.01352,0.00322,0.00333,0.00228,0.02057,0.00294,0.00326,0.00316,0.00303,0.00311,0.01669,0.00233,0.00417
1023,0.00299,0.00312,0.00311,0.00411,0.00292,0.00296,0.00307,0.00321,0.00550,0.00208,0.00318,0.00308,0.00554,0.00310,0.00329,0.00762,0.03054,0.00300,0.00297,0.00295,0.00296,0.00334,0.02851,0.00283,0.00314
1024,0.00355,0.00320,0.00313,0.00295,0.00381,0.00362,0.00320,0.00309,0.00333,0.00227,0.01441,0.00314,0.00297,0.00350,0.00322,0.00345,0.01796,0.00315,0.00311,0.00326,0.00389,0.00320,0.02099,0.00324,0.00367
5000,0.00522,0.00444,0.00492,0.00501,0.00434,0.00438,0.00442,0.00452,0.00446,0.00360,0.00445,0.00494,0.00447,0.00461,0.00725,0.00434,0.00468,0.00433,0.00439,0.00428,0.00526,0.00467,0.01849,0.00429,0.00398
10000,0.00638,0.00609,0.00624,0.04016,0.00618,0.00629,0.00557,0.00599,0.00633,0.00581,0.00595,0.00617,0.00667,0.01050,0.00638,0.06476,0.00607,0.00604,0.00585,0.00605,0.00599,0.00615,0.00592,0.00614,0.00582
16384,0.00838,0.01976,0.00848,0.07344,0.00879,0.00841,0.00717,0.00826,0.00840,0.00818,0.00821,0.00827,0.00864,0.00850,0.00846,0.06106,0.00831,0.00771,0.00836,0.00836,0.00829,0.00871,0.01670,0.00765,0.00827
30000,0.01216,0.01222,0.01199,0.07297,0.01192,0.01223,0.01200,0.01305,0.04599,0.01213,0.01199,0.01184,0.04017,0.01428,0.01225,0.02116,0.01305,0.01292,0.01187,0.01195,0.01185,0.01192,0.01390,0.01306,0.01248
60000,0.02114,0.02102,0.02341,0.02335,0.02334,0.02420,0.01941,0.02068,0.02226,0.02160,0.02346,0.02358,0.02448,0.01857,0.02076,0.02810,0.01984,0.02335,0.02065,0.02334,0.02293,0.02341,0.03501,0.02115,0.02156
65535,0.02550,0.02548,0.02123,0.10707,0.02214,0.02098,0.01911,0.02484,0.03361,0.02026,0.02549,0.02194,0.02633,0.02233,0.02269,0.08025,0.02360,0.02588,0.02232,0.02052,0.02113,0.02186,0.03394,0.02536,0.02472
65536,0.02417,0.02189,0.02605,0.07648,0.02215,0.02273,0.02241,0.02418,0.02198,0.02692,0.02026,0.02207,0.04918,0.02553,0.02019,0.02336,0.02058,0.02323,0.02008,0.02209,0.02406,0.02388,0.05232,0.01967,0.02179
100000,0.02874,0.02997,0.03140,0.09184,0.04158,0.03202,0.02950,0.02921,0.04292,0.02574,0.03253,0.02790,0.02890,0.03336,0.02972,0.03066,0.05242,0.03036,0.03245,0.02987,0.03306,0.03258,0.05350,0.03065,0.03185
500000,0.13586,0.10692,0.10768,0.25495,0.12645,0.11332,0.10109,0.10635,0.13231,0.10237,0.12187,0.11519,0.17864,0.13817,0.12124,0.15485,0.10490,0.11807,0.11087,0.10435,0.09851,0.11559,0.24343,0.14594,0.14570
750000,0.17994,0.18653,0.15916,0.32609,0.18140,0.23174,0.16840,0.15668,0.23164,0.17487,0.17849,0.16684,0.24976,0.15839,0.15266,0.25038,0.16814,0.17370,0.16829,0.18043,0.15810,0.16278,0.38896,0.16974,0.16138
1000000,0.20198,0.24668,0.20246,0.44100,0.22523,0.21909,0.20237,0.20679,0.24504,0.22105,0.20143,0.20632,0.23929,0.23770,0.21260,0.32887,0.20549,0.20074,0.24141,0.20229,0.20201,0.20899,0.27851,0.19839,0.20443
2000000,0.45028,0.41044,0.44629,0.77369,0.40686,0.42775,0.43867,0.45614,0.54558,0.42199,0.44779,0.45152,0.56022,0.45493,0.43328,0.69534,0.47306,0.43585,0.42347,0.44563,0.45729,0.41935,0.70523,0.48451,0.48033
4194303,0.96300,0.96665,0.91792,1.47466,0.91059,0.91686,0.91988,0.91641,1.09457,0.93426,0.90959,0.91471,1.25076,0.98127,0.90518,1.31305,0.98556,0.90435,0.95476,0.98695,0.92270,0.89452,1.30734,0.93365,0.92573
4194304,1.57112,0.95939,0.98280,1.51122,0.96067,0.99423,0.96713,0.93425,1.22276,0.97494,0.98296,1.00027,1.18358,1.01728,0.91652,1.43258,1.04048,0.95661,0.91171,0.95292,0.94195,0.93940,1.41049,0.93151,0.97580
5000000,1.85529,1.12701,1.19497,1.90979,1.22402,1.14372,1.13422,1.15186,1.34170,1.18996,1.17300,1.13521,1.37377,1.17872,1.18236,1.45636,1.27042,1.12635,1.14257,1.12680,1.16711,1.20329,1.59121,1.16347,1.13026
8388608,3.04328,1.92066,2.04531,3.00892,1.93237,2.00792,1.93899,1.94194,2.34956,1.98387,1.97233,1.96888,2.60043,2.12695,1.95595,2.64626,2.06300,1.93994,1.96296,1.95250,1.92671,1.92177,2.31813,2.08566,1.98740
10000000,2.87269,2.39866,2.46962,3.50770,2.44536,2.33441,2.36415,2.44701,2.65170,2.40773,2.38892,2.40671,3.17854,2.46127,2.39533,2.33643,2.43780,2.34587,2.34868,2.41536,2.46450,2.37985,2.47693,2.57048,2.54682
16777215,3.96956,3.96587,4.01780,5.18490,3.95526,3.98716,4.01944,3.97404,4.66025,4.08663,3.98691,4.01658,5.29761,4.16889,3.97896,4.02162,4.03874,3.96408,3.96162,3.98318,4.01048,4.04453,4.01905,4.11233,4.06162
16777216,4.09045,4.10404,4.16262,5.31000,4.14213,4.10100,4.12724,4.05484,5.15853,4.15841,4.07668,4.04170,5.54237,4.22058,4.12967,4.09819,4.16557,4.03368,4.11645,4.05203,4.06715,4.04731,4.38634,4.33396,4.18842
20000000,4.97267,4.95770,5.10026,6.27237,4.91891,5.00434,5.00964,4.92755,5.90286,5.07374,4.98793,4.97304,6.67918,5.14330,5.01670,4.93910,5.15153,4.95458,4.94005,4.88053,5.00061,4.95228,5.44441,5.23369,5.25898
30000000,7.36331,7.37569,7.47698,8.66617,7.35566,7.38224,7.40572,7.34601,9.10139,7.48732,7.42650,7.37795,7.72016,7.81258,7.43727,7.45849,7.82999,7.42225,7.36315,7.42269,7.37347,7.40608,8.18584,7.71279,7.93166
33554432,8.42238,8.43575,8.96278,10.16255,8.44986,8.52334,8.45783,8.53113,8.87618,8.71253,8.38916,8.42362,8.39096,9.80960,8.87034,8.49256,9.58535,8.51695,8.43692,8.51276,8.40920,8.52098,8.53178,8.98232,9.51515
67108864,17.61146,17.69881,18.38620,17.50730,17.57019,17.64020,17.53243,17.63396,17.54293,19.05011,17.64008,17.62645,17.57380,21.27342,17.81258,17.63162,20.48157,17.77424,17.68815,17.65356,17.56996,17.56838,17.68897,17.55608,19.17740
134217728,36.55994,36.54738,38.36421,36.55426,36.68715,36.45519,36.36157,37.33430,36.53066,41.29977,37.37089,36.48739,36.28410,36.49620,38.03716,36.96274,36.43727,38.06793,36.53438,36.49523,36.45142,36.50558,36.74348,36.54951,39.10927