2,0.00000,0.00000,0.00000,0.00000,0.00000,0.00000,0.00000,0.00000,0.00000,0.00000,0.00000,0.00000,0.00000,0.00000,0.00000,0.00000,0.00000,0.00000,0.00000,0.00000,0.00000,0.00000,0.00000,0.00000,0.00000
4,0.00000,0.00000,0.00000,0.00000,0.00000,0.00000,0.00000,0.00000,0.00000,0.00000,0.00000,0.00000,0.00000,0.00000,0.00000,0.00000,0.00000,0.00000,0.00000,0.00000,0.00000,0.00000,0.00000,0.00000,0.00000
8,0.00000,0.00000,0.00000,0.00000,0.00000,0.00000,0.00000,0.00000,0.00000,0.00000,0.00000,0.00000,0.00000,0.00000,0.00000,0.00000,0.00000,0.00000,0.00000,0.00000,0.00000,0.00000,0.00000,0.00000,0.00000
10,0.00000,0.00000,0.00000,0.00000,0.00000,0.00000,0.00000,0.00000,0.00000,0.00000,0.00000,0.00000,0.00000,0.00000,0.00000,0.00000,0.00000,0.00000,0.00000,0.00000,0.00000,0.00000,0.00000,0.00000,0.00000
15,0.00000,0.00000,0.00000,0.00000,0.00000,0.00000,0.00000,0.00000,0.00000,0.00000,0.00000,0.00000,0.00000,0.00000,0.00000,0.00000,0.00000,0.00000,0.00000,0.00000,0.00000,0.00000,0.00000,0.00000,0.00000
16,0.00000,0.00000,0.00000,0.00000,0.00000,0.00000,0.00000,0.00000,0.00000,0.00000,0.00000,0.00000,0.00000,0.00000,0.00000,0.00000,0.00000,0.00000,0.00000,0.00000,0.00000,0.00000,0.00000,0.00000,0.00000
63,0.00000,0.00000,0.00000,0.00000,0.00000,0.00000,0.00000,0.00000,0.00000,0.00000,0.00000,0.00000,0.00000,0.00000,0.00000,0.00000,0.00000,0.00000,0.00000,0.00000,0.00000,0.00000,0.00000,0.00000,0.00000
64,0.00000,0.00000,0.00000,0.00000,0.00000,0.00000,0.00000,0.00000,0.00000,0.00000,0.00000,0.00000,0.00000,0.00000,0.00000,0.00000,0.00000,0.00000,0.00000,0.00000,0.00000,0.00000,0.00000,0.00000,0.00000
1000,0.00003,0.00001,0.00003,0.00003,0.00001,0.00003,0.00003,0.00003,0.00003,0.00003,0.00003,0.00003,0.00003,0.00003,0.00003,0.00003,0.00003,0.00003,0.00003,0.00003,0.00003,0.00003,0.00003,0.00003,0.00003
1023,0.00003,0.00003,0.00003,0.00003,0.00002,0.00003,0.00003,0.00003,0.00003,0.00003,0.00003,0.00003,0.00003,0.00003,0.00003,0.00003,0.00003,0.00003,0.00003,0.00003,0.00003,0.00003,0.00003,0.00003,0.00003
1024,0.00003,0.00003,0.00003,0.00003,0.00002,0.00003,0.00003,0.00003,0.00003,0.00003,0.00003,0.00003,0.00003,0.00003,0.00003,0.00003,0.00003,0.00003,0.00003,0.00003,0.00003,0.00003,0.00003,0.00003,0.00003
5000,0.00013,0.00013,0.00013,0.00017,0.00008,0.00013,0.00013,0.00013,0.00013,0.00013,0.00013,0.00013,0.00013,0.00013,0.00013,0.00013,0.00024,0.00013,0.00013,0.00013,0.00013,0.00006,0.00013,0.00013,0.00013
10000,0.00026,0.00026,0.00026,0.00026,0.00016,0.00026,0.00026,0.00026,0.00026,0.00026,0.00026,0.00026,0.00026,0.00026,0.00029,0.00026,0.00026,0.00026,0.00026,0.00026,0.00026,0.00026,0.00026,0.00026,0.00029
16384,0.00043,0.00018,0.00042,0.00043,0.00034,0.00042,0.00042,0.00044,0.00043,0.00042,0.00042,0.00042,0.00042,0.00043,0.00042,0.00044,0.00018,0.00042,0.00042,0.00050,0.00042,0.00042,0.00042,0.00042,0.00042
30000,0.00086,0.00076,0.00076,0.00078,0.00061,0.00076,0.00076,0.00076,0.00078,0.00076,0.00076,0.00083,0.00076,0.00076,0.00081,0.00076,0.00076,0.00078,0.00078,0.00078,0.00078,0.00076,0.00078,0.00076,0.00076
60000,0.00157,0.00157,0.00159,0.00158,0.00126,0.00154,0.00154,0.00153,0.00156,0.00161,0.00157,0.00156,0.00065,0.00149,0.00102,0.00065,0.00153,0.00157,0.00158,0.00065,0.00154,0.00161,0.00138,0.00153,0.00153
65535,0.00168,0.00174,0.00168,0.00167,0.00071,0.00171,0.00171,0.00144,0.00170,0.00168,0.00114,0.00168,0.00168,0.00168,0.00071,0.00168,0.00175,0.00125,0.00071,0.00171,0.00172,0.00168,0.00168,0.00173,0.00168
65536,0.00168,0.00168,0.00171,0.00072,0.00071,0.00168,0.00171,0.00168,0.00167,0.00168,0.00168,0.00175,0.00172,0.00168,0.00072,0.00146,0.00169,0.00168,0.00171,0.00168,0.00168,0.00168,0.00168,0.00168,0.00168
100000,0.00109,0.00230,0.00109,0.00111,0.00109,0.00109,0.00147,0.00109,0.00109,0.00109,0.00109,0.00109,0.00109,0.00259,0.00114,0.00260,0.00109,0.00109,0.00109,0.00188,0.00198,0.00109,0.00261,0.00258,0.00111
500000,0.00555,0.00564,0.00576,0.00555,0.00556,0.00555,0.00569,0.00556,0.00554,0.00559,0.00558,0.00559,0.00555,0.00569,0.00563,0.00560,0.00560,0.00570,0.00564,0.00554,0.00559,0.00556,0.00555,0.00557,0.00553
750000,0.00862,0.00840,0.00871,0.00834,0.00843,0.00834,0.00850,0.00836,0.00835,0.00839,0.00900,0.00837,0.00840,0.00859,0.00832,0.00848,0.00837,0.00853,0.00836,0.00834,0.00837,0.00838,0.00851,0.00845,0.00838
1000000,0.01130,0.01124,0.01121,0.01106,0.01130,0.01113,0.01112,0.01115,0.01116,0.01129,0.01112,0.01111,0.01115,0.01135,0.01123,0.01151,0.01130,0.01119,0.01130,0.01113,0.01131,0.01121,0.01121,0.01110,0.01119
2000000,0.02270,0.02286,0.02253,0.02227,0.02270,0.02267,0.02257,0.02258,0.02240,0.02238,0.02235,0.02234,0.02234,0.02272,0.02245,0.02272,0.02287,0.02274,0.02236,0.02221,0.02234,0.02238,0.02250,0.02235,0.02225
4194303,0.04749,0.04795,0.04666,0.04658,0.04751,0.04783,0.04697,0.04714,0.04683,0.04675,0.04720,0.04740,0.04720,0.04777,0.04711,0.05467,0.04795,0.04742,0.04691,0.04638,0.04672,0.04762,0.04725,0.04662,0.04671
4194304,0.04723,0.04732,0.04802,0.04660,0.04755,0.04679,0.04678,0.04682,0.04699,0.04663,0.04677,0.04797,0.04731,0.04843,0.04707,0.04769,0.04741,0.04738,0.04685,0.04718,0.04667,0.04684,0.04724,0.04847,0.04681
5000000,0.05633,0.05708,0.05544,0.05626,0.05671,0.05799,0.05724,0.05566,0.06022,0.05629,0.05579,0.05653,0.05608,0.05697,0.05554,0.05680,0.05670,0.05726,0.05600,0.05603,0.05554,0.05577,0.05616,0.05695,0.05563
8388608,0.09437,0.09352,0.09321,0.09424,0.09519,0.09494,0.09364,0.09348,0.09337,0.09368,0.09396,0.09352,0.09441,0.09455,0.09294,0.09654,0.09527,0.09590,0.09461,0.09287,0.09329,0.09336,0.09399,0.09705,0.09335
10000000,0.11252,0.11226,0.11264,0.11230,0.11356,0.11256,0.11127,0.11221,0.11140,0.11164,0.11272,0.11285,0.11170,0.11131,0.11086,0.11332,0.11304,0.11326,0.11185,0.11124,0.11190,0.11129,0.11684,0.11389,0.11117
16777215,0.18633,0.18860,0.18606,0.18616,0.19040,0.18668,0.18610,0.18845,0.18756,0.18853,0.18722,0.18717,0.18701,0.18874,0.18634,0.18621,0.18982,0.19003,0.18897,0.19436,0.18660,0.18856,0.19476,0.19406,0.18676
16777216,0.18696,0.18889,0.18644,0.18639,0.19076,0.18607,0.18615,0.18830,0.18793,0.18877,0.18879,0.18715,0.18887,0.18635,0.18810,0.18843,0.19017,0.19175,0.19067,0.18901,0.19022,0.18710,0.19180,0.18919,0.18606
20000000,0.22948,0.22489,0.22191,0.22149,0.23015,0.22442,0.22526,0.22174,0.23777,0.22253,0.22280,0.22533,0.22270,0.22564,0.22185,0.22424,0.22660,0.22670,0.22519,0.22275,0.22654,0.22347,0.23197,0.22475,0.22186
30000000,0.33293,0.33678,0.33287,0.33947,0.34222,0.34294,0.33763,0.33237,0.33554,0.33743,0.33475,0.33467,0.34542,0.33671,0.33275,0.33246,0.33977,0.33497,0.33250,0.33696,0.33549,0.33405,0.34824,0.33357,0.33348
33554432,0.37719,0.37796,0.37340,0.37745,0.39111,0.38407,0.37513,0.37338,0.37411,0.37452,0.37531,0.37390,0.37320,0.37626,0.37199,0.37623,0.37946,0.38025,0.37738,0.37958,0.37580,0.37449,0.38904,0.37613,0.37652
67108864,0.78756,0.75337,0.74551,0.75424,0.77174,0.75646,0.74732,0.75084,0.74878,0.74587,0.75036,0.74763,0.75641,0.75434,0.74540,0.74430,0.76135,0.74960,0.75576,0.74210,0.74984,0.75095,0.74500,0.75158,0.74328
134217728,1.48873,1.56655,1.59011,1.49416,1.49206,1.53744,1.51465,1.49587,1.49627,1.49597,1.49400,1.51433,1.52759,1.49469,1.50006,1.52219,1.50814,1.58451,1.49717,1.50138,1.49659,1.52153,1.48736,1.48725,1.51405
