Input size: 2
Total sequential time: 0.00000
Input size: 4
Total sequential time: 0.00000
Input size: 8
Total sequential time: 0.00000
Input size: 10
Total sequential time: 0.00000
Input size: 15
Total sequential time: 0.00000
Input size: 16
Total sequential time: 0.00000
Input size: 63
Total sequential time: 0.00000
Input size: 64
Total sequential time: 0.00000
Input size: 1000
Total sequential time: 0.00003
Input size: 1023
Total sequential time: 0.00003
Input size: 1024
Total sequential time: 0.00003
Input size: 5000
Total sequential time: 0.00013
Input size: 10000
Total sequential time: 0.00026
Input size: 16384
Total sequential time: 0.00042
Input size: 30000
Total sequential time: 0.00076
Input size: 60000
Total sequential time: 0.00157
Input size: 65535
Total sequential time: 0.00114
Input size: 65536
Total sequential time: 0.00168
Input size: 100000
Total sequential time: 0.00109
Input size: 500000
Total sequential time: 0.00558
Input size: 750000
Total sequential time: 0.00900
Input size: 1000000
Total sequential time: 0.01112
Input size: 2000000
Total sequential time: 0.02235
Input size: 4194303
Total sequential time: 0.04720
Input size: 4194304
Total sequential time: 0.04677
Input size: 5000000
Total sequential time: 0.05579
Input size: 8388608
Total sequential time: 0.09396
Input size: 10000000
Total sequential time: 0.11272
Input size: 16777215
Total sequential time: 0.18722
Input size: 16777216
Total sequential time: 0.18879
Input size: 20000000
Total sequential time: 0.22280
Input size: 30000000
Total sequential time: 0.33475
Input size: 33554432
Total sequential time: 0.37531
Input size: 67108864
Total sequential time: 0.75036
Input size: 134217728
Total sequential time: 1.49400
