Input size: 2
Input size: 4
threads: 48
Input size: 8
threads: 48
Input size: 10
Input size: 15
threads: 48
Input size: 16
threads: 48
Input size: 63
threads: 48
Total openmp time: 0.0085287448
Input size: 64
threads: 48
Total openmp time: 0.0112054888
Input size: 1000
threads: 48
Total openmp time: 0.0104446989
Input size: 1023
threads: 48
Total openmp time: 0.0104128551
Input size: 1024
threads: 48
Total openmp time: 0.0101748127
Input size: 5000
threads: 48
Total openmp time: 0.0058943480
Input size: 10000
threads: 48
Total openmp time: 0.0089646671
Input size: 16384
threads: 48
Total openmp time: 0.0097370427
Input size: 30000
threads: 48
Total openmp time: 0.0098765492
Input size: 60000
threads: 48
Total openmp time: 0.0105120335
Input size: 65535
threads: 48
Total openmp time: 0.0086953994
Input size: 65536
threads: 48
Total openmp time: 0.0095330104
Input size: 100000
threads: 48
Total openmp time: 0.0135670248
Input size: 500000
threads: 48
Total openmp time: 0.0100342315
Input size: 750000
threads: 48
Total openmp time: 0.0109542515
Input size: 1000000
threads: 48
Total openmp time: 0.0126655642
Input size: 2000000
threads: 48
Total openmp time: 0.0104939621
Input size: 4194303
threads: 48
Total openmp time: 0.0167180672
Input size: 4194304
threads: 48
Total openmp time: 0.0207683649
Input size: 5000000
threads: 48
Total openmp time: 0.0203949492
Input size: 8388608
threads: 48
Total openmp time: 0.0357389636
Input size: 10000000
threads: 48
Total openmp time: 0.0491646696
Input size: 16777215
threads: 48
Total openmp time: 0.0683879964
Input size: 16777216
threads: 48
Total openmp time: 0.0645006504
Input size: 20000000
threads: 48
Total openmp time: 0.0725777373
Input size: 30000000
threads: 48
Total openmp time: 0.1084649563
Input size: 33554432
threads: 48
Total openmp time: 0.1255531516
Input size: 67108864
threads: 48
Total openmp time: 0.2469134815
Input size: 134217728
threads: 48
Total openmp time: 0.4990591072
