Input size: 2
Input size: 4
threads: 48
Input size: 8
threads: 48
Input size: 10
Input size: 15
threads: 48
Input size: 16
threads: 48
Input size: 63
threads: 48
Total openmp time: 0.0068283379
Input size: 64
threads: 48
Total openmp time: 0.0100973826
Input size: 1000
threads: 48
Total openmp time: 0.0068363640
Input size: 1023
threads: 48
Total openmp time: 0.0061156601
Input size: 1024
threads: 48
Total openmp time: 0.0069679264
Input size: 5000
threads: 48
Total openmp time: 0.0109919421
Input size: 10000
threads: 48
Total openmp time: 0.0095642433
Input size: 16384
threads: 48
Total openmp time: 0.0101038292
Input size: 30000
threads: 48
Total openmp time: 0.0108195767
Input size: 60000
threads: 48
Total openmp time: 0.0082114525
Input size: 65535
threads: 48
Total openmp time: 0.0085616279
Input size: 65536
threads: 48
Total openmp time: 0.0111373793
Input size: 100000
threads: 48
Total openmp time: 0.0086634848
Input size: 500000
threads: 48
Total openmp time: 0.0121512320
Input size: 750000
threads: 48
Total openmp time: 0.0104002617
Input size: 1000000
threads: 48
Total openmp time: 0.0134663936
Input size: 2000000
threads: 48
Total openmp time: 0.0124654900
Input size: 4194303
threads: 48
Total openmp time: 0.0177096166
Input size: 4194304
threads: 48
Total openmp time: 0.0239070076
Input size: 5000000
threads: 48
Total openmp time: 0.0211103130
Input size: 8388608
threads: 48
Total openmp time: 0.0290242247
Input size: 10000000
threads: 48
Total openmp time: 0.0470412597
Input size: 16777215
threads: 48
Total openmp time: 0.0698852520
Input size: 16777216
threads: 48
Total openmp time: 0.0724206921
Input size: 20000000
threads: 48
Total openmp time: 0.0788097810
Input size: 30000000
threads: 48
Total openmp time: 0.1165622938
Input size: 33554432
threads: 48
Total openmp time: 0.1054912601
Input size: 67108864
threads: 48
Total openmp time: 0.2350395080
Input size: 134217728
threads: 48
Total openmp time: 0.5251992345
