Input size: 2
type: int
Total openmp time: 0.01002
Error opening file!
couldn't open file
Input size: 4
type: int
Total openmp time: 0.02148
Error opening file!
couldn't open file
Input size: 8
type: int
Total openmp time: 0.01935
Error opening file!
couldn't open file
Input size: 10
type: int
Total openmp time: 0.02418
Error opening file!
couldn't open file
Input size: 15
type: int
Total openmp time: 0.02321
Error opening file!
couldn't open file
Input size: 16
type: int
Total openmp time: 0.01438
Error opening file!
couldn't open file
Input size: 63
type: int
Total openmp time: 0.00043
Error opening file!
couldn't open file
Input size: 64
type: int
Total openmp time: 0.01957
Error opening file!
couldn't open file
Input size: 1000
type: int
Total openmp time: 0.03724
Error opening file!
couldn't open file
Input size: 1023
type: int
Total openmp time: 0.01892
Error opening file!
couldn't open file
Input size: 1024
type: int
Total openmp time: 0.01178
Error opening file!
couldn't open file
Input size: 5000
type: int
Total openmp time: 0.03389
Error opening file!
couldn't open file
Input size: 10000
type: int
Total openmp time: 0.05350
Error opening file!
couldn't open file
Input size: 16384
type: int
Total openmp time: 0.02998
Error opening file!
couldn't open file
Input size: 30000
type: int
Total openmp time: 0.10471
Error opening file!
couldn't open file
Input size: 60000
type: int
Total openmp time: 0.13404
Error opening file!
couldn't open file
Input size: 65535
type: int
Total openmp time: 0.13248
Error opening file!
couldn't open file
Input size: 65536
type: int
Total openmp time: 0.07665
Error opening file!
couldn't open file
Input size: 100000
type: int
Total openmp time: 0.13817
Error opening file!
couldn't open file
Input size: 500000
type: int
Total openmp time: 0.23263
Error opening file!
couldn't open file
Input size: 750000
type: int
Total openmp time: 0.28290
Error opening file!
couldn't open file
Input size: 1000000
type: int
Total openmp time: 0.28271
Error opening file!
couldn't open file
Input size: 2000000
type: int
Total openmp time: 0.45148
Error opening file!
couldn't open file
