Input size: 2
type: int
Total openmp time: 0.0007936290
Input size: 4
type: int
Total openmp time: 0.0491985640
Input size: 8
type: int
Total openmp time: 0.0330253670
Input size: 10
type: int
Total openmp time: 0.0006923980
Input size: 15
type: int
Total openmp time: 0.0007021850
Input size: 16
type: int
Total openmp time: 0.0006655520
Input size: 63
type: int
Total openmp time: 0.0007318280
Input size: 64
type: int
Total openmp time: 0.0008028570
Input size: 1000
type: int
Total openmp time: 0.0007332260
Input size: 1023
type: int
Total openmp time: 0.0007597920
Input size: 1024
type: int
Total openmp time: 0.0008996130
Input size: 5000
type: int
Total openmp time: 0.0014812730
Input size: 10000
type: int
Total openmp time: 0.0010632050
Input size: 16384
type: int
Total openmp time: 0.0014337330
Input size: 30000
type: int
Total openmp time: 0.0021745100
Input size: 60000
type: int
Total openmp time: 0.0036300550
Input size: 65535
type: int
Total openmp time: 0.0041664120
Input size: 65536
type: int
Total openmp time: 0.0034396180
Input size: 100000
type: int
Total openmp time: 0.0049891240
Input size: 500000
type: int
Total openmp time: 0.0263676080
Input size: 750000
type: int
Total openmp time: 0.0348766070
Input size: 1000000
type: int
Total openmp time: 0.1149542730
Input size: 2000000
type: int
Total openmp time: 0.0855304370
Input size: 4194303
type: int
Total openmp time: 0.1861571640
Input size: 4194304
type: int
Total openmp time: 0.2581494860
Input size: 5000000
type: int
Total openmp time: 0.2410294170
Input size: 8388608
type: int
Total openmp time: 0.4735554280
Input size: 10000000
type: int
Total openmp time: 0.4885890750
Input size: 16777215
type: int
Total openmp time: 0.8251696830
Input size: 16777216
type: int
Total openmp time: 0.8481222820
Input size: 20000000
type: int
Total openmp time: 1.1256709350
Input size: 30000000
type: int
Total openmp time: 1.4438895760
Input size: 33554432
type: int
Total openmp time: 1.6023292900
Input size: 67108864
type: int
Total openmp time: 3.0729553250
Input size: 134217728
type: int
Total openmp time: 5.9517419740
