Input size: 2
type: int
threads: 4
Total openmp time: 0.0000108950
Input size: 4
type: int
threads: 4
Total openmp time: 0.0000117340
Input size: 8
type: int
threads: 4
Total openmp time: 0.0000223500
Input size: 10
type: int
threads: 4
Total openmp time: 0.0000245850
Input size: 15
type: int
threads: 4
Total openmp time: 0.0000117340
Input size: 16
type: int
threads: 4
Total openmp time: 0.0000114540
Input size: 63
type: int
threads: 4
Total openmp time: 0.0000120130
Input size: 64
type: int
threads: 4
Total openmp time: 0.0000125720
Input size: 1000
type: int
threads: 4
Total openmp time: 0.0000122920
Input size: 1023
type: int
threads: 4
Total openmp time: 0.0000120130
Input size: 1024
type: int
threads: 4
Total openmp time: 0.0000128510
Input size: 5000
type: int
threads: 4
Total openmp time: 0.0000131310
Input size: 10000
type: int
threads: 4
Total openmp time: 0.0000139680
Input size: 16384
type: int
threads: 4
Total openmp time: 0.0000201150
Input size: 30000
type: int
threads: 4
Total openmp time: 0.0000220710
Input size: 60000
type: int
threads: 4
Total openmp time: 0.0000365980
Input size: 65535
type: int
threads: 4
Total openmp time: 0.0000402290
Input size: 65536
type: int
threads: 4
Total openmp time: 0.0000391120
Input size: 100000
type: int
threads: 4
Total openmp time: 0.0000558740
Input size: 500000
type: int
threads: 4
Total openmp time: 0.0364329110
Input size: 750000
type: int
threads: 4
Total openmp time: 0.0005277340
Input size: 1000000
type: int
threads: 4
Total openmp time: 0.0007023410
Input size: 2000000
type: int
threads: 4
Total openmp time: 0.0020723820
Input size: 4194303
type: int
threads: 4
Total openmp time: 0.0046627200
Input size: 4194304
type: int
threads: 4
Total openmp time: 0.0047227860
Input size: 5000000
type: int
threads: 4
Total openmp time: 0.0060905900
Input size: 8388608
type: int
threads: 4
Total openmp time: 0.0114562100
Input size: 10000000
type: int
threads: 4
Total openmp time: 0.0127784780
Input size: 16777215
type: int
threads: 4
Total openmp time: 0.0196837170
Input size: 16777216
type: int
threads: 4
Total openmp time: 0.0200108630
Input size: 20000000
type: int
threads: 4
Total openmp time: 0.0243338650
Input size: 30000000
type: int
threads: 4
Total openmp time: 0.0355473000
Input size: 33554432
type: int
threads: 4
Total openmp time: 0.0395646700
Input size: 67108864
type: int
threads: 4
Total openmp time: 0.0844720480
Input size: 134217728
type: int
threads: 4
Total openmp time: 0.1589062520
