2,0.0120796021,0.0172484051,0.0180311576,0.0181826372,0.0154037829,0.0167463385,0.0292453337,0.0267216880,0.0317113940,0.0202511381,0.0196209028,0.0186141357,0.0354927219,0.0216670819,0.0150471497,0.0151412785,0.0232796352,0.0339509156,0.0208699219,0.0203791391,0.0133259632,0.0118989572,0.0164027940,0.0134759583,0.0172037855,
4,0.0249181241,0.0199723244,0.0204209350,0.0165138971,0.0219075195,0.0259576607,0.0407888908,0.0565151591,0.0227969270,0.0762825925,0.0627684239,0.0271586347,0.0272006243,0.0623677690,0.0153593514,0.0306549408,0.0758574922,0.0371330269,0.0164545830,0.0250798594,0.0265463497,0.0124298390,0.0235497989,0.0268183425,0.0209408253,
8,0.0267452188,0.0261909515,0.0270405114,0.0227744896,0.0318917688,0.0273375195,0.0426386595,0.0593359843,0.0575660337,0.0647454020,0.0728746224,0.0259536412,0.0280004125,0.0486818030,0.0765863899,0.1254605204,0.0978096183,0.0541455578,0.0185548551,0.0261609964,0.0399932843,0.0280006547,0.0296970252,0.0394705944,0.0318760853,
10,0.0309582204,0.0327928793,0.0289184749,0.0289282855,0.0343946256,0.0409636572,0.0740859639,0.0363882631,0.0815632287,0.0913928691,0.0326453503,0.0223606154,0.0370394811,0.0915561114,0.0997045524,0.1359794252,0.1255078651,0.1053636018,0.0241267160,0.0276999976,0.0360388178,0.0304603595,0.0280281473,0.0378656015,0.0397300068,
15,0.0256601200,0.0350171886,0.0249955468,0.0334967058,0.0348876026,0.0426491126,0.0765383728,0.0296515301,0.0353196748,0.0627233163,0.0368802734,0.0264406148,0.0363603160,0.0377232078,0.1274604946,0.0946984272,0.0936336741,0.1684495844,0.0232047830,0.0327655394,0.0298214853,0.0307003614,0.0271455012,0.0302040279,0.0322877541,
16,0.0327062439,0.0276986919,0.0283700135,0.0479823276,0.0281453840,0.0396845527,0.0669453107,0.0933907740,0.0725822151,0.0434285272,0.0795738176,0.0289163701,0.0437094308,0.0801921971,0.1140572298,0.0653908569,0.0968326163,0.1225038581,0.0328697916,0.0345988832,0.0331211146,0.0312251821,0.0267750770,0.0344185140,0.0288169943,
63,0.0445155725,0.0413223542,0.0618671775,0.0385005530,0.0525671784,0.0383388661,0.0828656666,0.0690266211,0.1060204059,0.0422008000,0.0771255922,0.0354391746,0.0770558175,0.0592079032,0.0881026704,0.0574368834,0.1364780013,0.1324582808,0.0471438486,0.0402845442,0.0375123229,0.0417946000,0.0521392412,0.0405640807,0.0456461832,
64,0.0313744079,0.0498262718,0.0657900162,0.0486154631,0.0446601547,0.0351026524,0.0889011584,0.0445072260,0.0960667171,0.0547069069,0.0540372748,0.0285332818,0.1004883870,0.1067713816,0.0782686248,0.1573591456,0.0857289433,0.1245911419,0.0500822458,0.0423923023,0.0339898039,0.0343674030,0.0382306073,0.0384771097,0.0467399396,
1000,0.0542035550,0.0816825796,0.0605400987,0.0754970461,0.0733506121,0.0729257390,0.1499994658,0.1192491520,0.1408020779,0.0884813722,0.1213793121,0.0663470346,0.1051054709,0.1440275572,0.2748609446,0.1906981040,0.1132347379,0.1087413896,0.0539897531,0.0659269821,0.0603903253,0.0583755951,0.0586681627,0.0668917038,0.0626519602,
1023,0.0590673313,0.0669038352,0.0641016308,0.0727363620,0.0767158326,0.0691021327,0.1574414913,0.1062543485,0.1339170020,0.0843503177,0.1436328404,0.0790137276,0.1647271160,0.1848103143,0.1845068224,0.1340795308,0.2456687167,0.1769742724,0.0898445193,0.0632297508,0.0714294501,0.0560548119,0.0695851631,0.0591051485,0.0671271868,
1024,0.0561459865,0.0629083663,0.0580822248,0.0632242560,0.0777668357,0.0556186568,0.1571696624,0.0722256098,0.1501316410,0.0815730598,0.0940117873,0.0569735039,0.0746958572,0.1476437841,0.1122384109,0.2542990353,0.2093321290,0.2254450768,0.0756880585,0.0591384936,0.0625195671,0.0674632713,0.0572548322,0.0527867302,0.0746435523,
5000,0.0737317894,0.0945724901,0.0692949258,0.0850185137,0.1167845149,0.0985456463,0.1718163714,0.1704567038,0.1603496596,0.1199194826,0.1776135694,0.0669881087,0.1717573069,0.2046549190,0.2912978921,0.1444255542,0.2074952610,0.2343604937,0.0806416702,0.0629183743,0.0675598904,0.0847026370,0.0932636131,0.0941599235,0.0772550050,
10000,0.0844931733,0.0864094254,0.1157178581,0.1099742390,0.0859676842,0.1046559215,0.2025802340,0.1703059524,0.2157477159,0.1100818254,0.1668412499,0.0839870404,0.1135334913,0.2146517057,0.2220457885,0.3100629710,0.2672576550,0.1628832202,0.0761138387,0.0866591074,0.0848376919,0.1036333125,0.0990675110,0.0997879859,0.0937587041,
16384,0.0947608165,0.0829253811,0.1085780878,0.1065069046,0.0827400051,0.0908063352,0.1773463227,0.1038104873,0.2156865578,0.1986284964,0.1348638833,0.1028450280,0.1832910292,0.1851509418,0.1294018812,0.1754110120,0.3945364598,0.2385974694,0.0996134952,0.0970218498,0.0743556265,0.0914975535,0.0781692285,0.0855628531,0.0944553670,
30000,0.0991742853,0.0871879272,0.0991044696,0.1043837983,0.1069772132,0.1270807143,0.1898912508,0.1926338393,0.2200854868,0.2513969634,0.1924720351,0.1147862282,0.1735066213,0.2189619150,0.3276629411,0.3553362414,0.2809063699,0.3618155029,0.1078991313,0.0958943646,0.0955706667,0.1188850589,0.0827777758,0.0954150744,0.0912773609,
60000,0.1193691250,0.1269654334,0.1028769314,0.1262325905,0.1239433829,0.1197504085,0.2389825583,0.1354265176,0.2547881175,0.2622924130,0.1984472629,0.1200920790,0.2047967035,0.2412669081,0.2271453775,0.2061709184,0.3518189583,0.1792881489,0.1166686378,0.1159268282,0.1085748579,0.1164719630,0.1096406467,0.1274345722,0.1054423917,
65535,0.1027991623,0.1137081776,0.1349865515,0.1493106820,0.1317038909,0.1304936260,0.2474538088,0.2273235843,0.2400966678,0.2477582656,0.1835528947,0.0967732053,0.1720651798,0.2692478802,0.2839309219,0.3865295593,0.3862688001,0.2673274986,0.1231193952,0.1129695643,0.1071474180,0.1209532563,0.1011464726,0.1166001838,0.1387283970,
65536,0.1005702019,0.1398821101,0.1438688971,0.1325373612,0.1218629312,0.1141048744,0.2634802666,0.1844495535,0.2339825463,0.3123534862,0.2141265944,0.1246520225,0.2040934786,0.2477670312,0.3006069474,0.2765878011,0.3016948756,0.3665155973,0.1222793646,0.1116169561,0.1137859896,0.1228392012,0.0999925062,0.1230368167,0.1032325886,
100000,0.1230625194,0.1407007314,0.1550661493,0.1511104163,0.1503046472,0.1392484494,0.2463366371,0.3072668575,0.2545379456,0.3007978648,0.2075749785,0.1442188770,0.2407518774,0.2874510922,0.1718497053,0.3332864475,0.4342597798,0.2625718266,0.1309554465,0.1224841736,0.1219947152,0.1309992652,0.1335800309,0.1485400293,0.1397515517,
500000,0.2912380807,0.2739007827,0.2821798902,0.2824833263,0.2992683519,0.2991397176,0.4475644846,0.4164233599,0.4724322837,0.4831251241,0.3732320592,0.2656815406,0.4305469394,0.4552434497,0.5219573267,0.5793045051,0.5708451886,0.5534931961,0.2682105862,0.2828926276,0.2615509871,0.2830721699,0.2800314818,0.2842036858,0.2945120987,
750000,0.3554453701,0.3570484333,0.3917559255,0.4306924623,0.4055962674,0.3873561397,0.5418708455,0.4518665355,0.5731215514,0.5674107708,0.4673109204,0.3529130351,0.4944924805,0.5699804258,0.6857047249,0.7275481150,0.6464900710,0.5546522327,0.3682491910,0.3621274326,0.3522998188,0.3397888020,0.3420858756,0.3591417428,0.3563546408,
1000000,0.4625465106,0.4501577727,0.4676811788,0.4454489648,0.4461228084,0.4602753520,0.6139948051,0.5322121270,0.6786544379,0.6988898832,0.6099696439,0.4346104562,0.6080679111,0.6702483278,0.7424310856,0.7544757184,0.8840715233,0.8080642670,0.4418366514,0.4388689566,0.4482198283,0.4387444872,0.4377687816,0.4454345275,0.4448395055,
2000000,0.7694628891,0.7841417417,0.7876472250,0.7817765586,0.8166467827,0.7776547149,1.0057825297,0.8601084501,1.0209469292,1.0784450229,0.8770039771,0.7869072817,0.9509533159,1.0762500856,1.1033438705,0.9214999489,1.1223329082,1.1425587479,0.7743443772,0.7861960232,0.7602455877,0.7733755298,0.7457659002,0.7823320404,0.7842981312,
4194303,1.4539623093,1.4412154946,1.5227833465,1.5554225445,1.4348948020,1.4737984017,1.7834123615,1.5917607751,1.7553331740,1.7825708110,1.7593036164,1.5297379140,1.6735583600,1.7345869597,1.8634745721,1.6821087897,1.9387197066,1.8818622865,1.4561819229,1.4603967909,1.4888084456,1.4726647194,1.4657167941,1.4484438188,1.5049325023,
4194304,1.4873666540,1.5101629812,1.5581624471,1.5313261561,1.5183389187,1.4589960799,1.7377322353,1.6884924453,1.8328833021,1.8634809833,1.7822122946,1.4845095575,1.7741553932,1.8391387276,1.8428776134,1.9593888894,1.9905385133,2.0711148828,1.4351995457,1.4331329092,1.4725197218,1.5003998410,1.4495065771,1.4679694474,1.4705135822,
5000000,1.7431182526,1.7532320209,1.8496160489,1.7566301282,1.7768542357,1.7761870641,1.9435943328,1.9939237945,2.0921807885,2.1274012048,2.0592542309,1.7792912535,2.0905255582,1.8779449239,1.8222500067,2.1922673583,2.2993429564,2.2795531563,1.7862415630,1.7831232622,1.8050024584,1.7320372574,1.7404318862,1.7007593159,1.7752140742,
8388608,2.8248471357,2.7886845861,2.9260945972,2.8651841525,2.8549900837,2.8461759761,3.1546161268,3.0658200160,3.0630594045,3.3096302655,3.0898506511,2.8191510327,3.1918441653,3.0471034572,3.3754269723,3.2663422823,3.3295620158,3.5481857415,2.9203628954,2.8024039716,2.8609958403,2.8470707312,2.8024836257,2.8699305095,2.8510041758,
10000000,3.3725661486,3.3863284271,3.4714753516,3.5771793239,3.4422642905,3.3450317159,3.6041420661,3.4102036674,3.6846372876,3.5715372581,3.6473206282,3.4013964664,3.6838275976,3.4063432403,3.8763330746,4.1304005291,3.9311832320,4.1042361502,3.3308297396,3.3451711461,3.3754182290,3.4622379970,3.4528191108,3.4202044569,3.3779770080,
16777215,5.5817823000,5.4436173700,5.6787083466,5.5519843139,5.5648570918,5.6397311166,6.0520303566,5.9118623398,5.9033439867,5.8553060498,5.7572313342,5.5334617607,5.9347071555,5.8884835113,6.2158363760,6.1288019251,6.3967641201,6.4158410020,5.4023954123,5.5085559245,5.5942879505,5.5791921094,5.3801757041,5.6393962484,5.4466808848,
16777216,5.5010596905,5.6803864501,5.6113375556,5.5791980643,5.5585281644,5.5257013794,5.9880285375,5.8460510187,5.9619394261,6.0098275840,5.9297432229,5.5794449579,6.0151434448,5.5704887137,6.1785637643,6.2364356816,6.2276910134,6.3704915084,5.6056219060,5.6410748381,5.5370117724,5.4035517313,5.6784605496,5.5255830176,5.4011573885,
20000000,6.4289693646,6.5593160130,6.7318601515,6.4346895777,6.6604112200,6.5294466186,6.9785789605,6.9275170565,7.0576052349,6.8851166964,6.9839119930,6.4832365606,7.0334697496,6.8334137239,7.2880882490,7.3566050474,7.4650655277,7.4310895801,6.6025560945,6.3304788973,6.4733776040,6.6398587078,6.6127865128,6.6900492627,6.5444773920,
30000000,9.6971205454,10.3351507150,9.8802857958,9.9672083408,9.7725283001,273.0983284470,10.3042842858,9.6203076765,10.3265993576,10.2277585510,10.2408763319,10.0748823527,10.4847821724,10.1990785729,10.7037742697,10.7195487581,10.2611131240,10.6425822116,9.6660277247,9.7327234335,9.6263212822,9.7481796499,9.8624736462,9.7512623016,9.8398098815,
33554432,10.6852150895,10.9612219520,10.9893853385,10.8779636547,11.0714314505,11.2820594590,11.2764777299,11.2357094958,11.4265053049,11.3857583310,11.7248853296,10.7177397851,11.3571646120,11.5582551435,11.7054748815,11.7572884168,11.7409899440,11.9644021876,10.8146210313,10.8958481755,10.9839101024,10.7954866663,11.2581855133,11.1096302774,11.2106754631,
67108864,22.4361132625,22.0313696545,21.6171636991,21.8689135797,21.2846685816,21.8293871172,90.4130933657,22.2862190455,22.4468046185,22.7186554391,22.7364533320,21.7153961919,22.3667815663,21.8982464317,23.0440144017,23.1664126795,22.7667530924,23.1886543967,22.1915904470,22.0452441107,21.4081668220,21.5564958639,21.4331533276,21.3303165678,22.2133952677,
134217728,42.5581223071,44.1167407222,44.1187691540,43.8975189105,44.1030083876,44.6496235002,43.5741187278,44.5098335836,44.6727686878,43.5107110217,44.9952075109,43.6178552415,44.5416103173,44.1977528967,44.9626237359,44.9965154845,45.9738808852,44.5774748269,43.7459048815,43.5787308645,42.4974326678,42.5406210702,42.2566237897,44.1201050226,43.2071887385,
