2,0.0180922151,0.0437794980,0.0139907561,0.0082460698,0.0126653891,0.0306750908,0.0153443571,0.0087875072,0.0120473932,0.0318513680,0.0105651040,0.0069919825,0.0109810382,0.0324748959,0.0147157982,0.0317195244,0.0113069993,0.0125675295,0.0207886957,0.0187783316,0.0271267314,0.0447441004,0.0195211172,0.0099334903,0.0100969896,
4,0.0073259976,0.0185196977,0.0072927158,0.0081468709,0.0277577974,0.0139607787,0.0129696969,0.0103569273,0.0076883063,0.0272271596,0.0313024744,0.0126153659,0.0114787687,0.0155155882,0.0172661431,0.0126789883,0.0075613018,0.0117793866,0.0206600800,0.0157449916,0.0102501865,0.0189208593,0.0294053163,0.0121514760,0.0052946378,
8,0.0121607073,0.0042225160,0.0156543776,0.0061537530,0.0290996674,0.0147391781,0.0111161973,0.0162292849,0.0061910450,0.0172401443,0.0234571528,0.0234010722,0.0143364761,0.0129115507,0.0190234184,0.0305497274,0.0079070963,0.0137257706,0.0067689698,0.0303956028,0.0178280398,0.0417873245,0.0248911176,0.0081894398,0.0059072226,
10,0.0193264075,0.0112052076,0.0139156375,0.0077620670,0.0217644665,0.0281222202,0.0106705558,0.0123712234,0.0045861937,0.0173060428,0.0151016805,0.0170435067,0.0544936191,0.0090731289,0.0185221024,0.0281087067,0.0093452465,0.0337293856,0.0201056786,0.0258526672,0.0118830558,0.0217327718,0.0076657627,0.0065906048,0.0058609582,
15,0.0104516707,0.0125942696,0.0131213162,0.0066803806,0.0309812874,0.0215333886,0.0124170892,0.0066251736,0.0063388366,0.0324635301,0.0215965416,0.0362356566,0.0129739679,0.0053856410,0.0140870363,0.0162477847,0.0108378362,0.0235819723,0.0151116755,0.0261391979,0.0178737473,0.0211929977,0.0111073814,0.0082784574,0.0058269128,
16,0.0118276980,0.0189002380,0.0078882780,0.0065901447,0.0488984939,0.0119484495,0.0055487268,0.0060509983,0.0061803423,0.0330382511,0.0188086331,0.0170216244,0.0097886752,0.0343937855,0.0154969562,0.0228959005,0.0078745894,0.0184600279,0.0193593204,0.0148449223,0.0105614476,0.0299616419,0.0152573977,0.0047379956,0.0056520328,
63,0.0105957445,0.0165070985,0.0063311383,0.0069364123,0.0219186489,0.0147286039,0.0094301905,0.0132698175,0.0109599642,0.0174200758,0.0210201070,0.0149810184,0.0180424824,0.0183513872,0.0168058909,0.0164564904,0.0180454515,0.0320483819,0.0267361291,0.0051205065,0.0264863819,0.0210624728,0.0103038661,0.0088059679,0.0058805645,
64,0.0221166667,0.0178769045,0.0085526668,0.0068556126,0.0157070737,0.0178955905,0.0071020219,0.0373561922,0.0032856353,0.0197594445,0.0186212398,0.0287455320,0.0110731851,0.0210097097,0.0205949917,0.0086904373,0.0208049268,0.0263942946,0.0095546339,0.0207093712,0.0076467041,0.0258060265,0.0074083898,0.0078912787,0.0299093332,
1000,0.0343592521,0.0155569445,0.0038081445,0.0075440649,0.0215595029,0.0119600464,0.0225590114,0.0321866479,0.0039532501,0.0199937969,0.0297458246,0.0257413778,0.0152869448,0.0165990293,0.0302383509,0.0124797374,0.0258329827,0.0330106933,0.0195690561,0.0138202738,0.0118397307,0.0474540759,0.0117041916,0.0047668945,0.0162349716,
1023,0.0092663486,0.0139144100,0.0051308163,0.0062918756,0.0187694095,0.0134940408,0.0108872335,0.0172715355,0.0387596451,0.0112319328,0.0171203632,0.0072447285,0.0092233475,0.0270644519,0.0348561648,0.0175618585,0.0235731639,0.0216822457,0.0134621225,0.0177978333,0.0195864420,0.0186365731,0.0087997671,0.0130437184,0.0456259660,
1024,0.0302768666,0.0092557948,0.0105846245,0.0063459259,0.0146132037,0.0089137293,0.0168832280,0.0296752546,0.0154304262,0.0247962959,0.0152441170,0.0167839378,0.0114616062,0.0292330887,0.0288316198,0.0127715971,0.0107519217,0.0281860773,0.0093406681,0.0110637266,0.0169073138,0.0143672526,0.0086583868,0.0210044961,0.0337227993,
5000,0.0159584135,0.0149711128,0.0098484363,0.0082238074,0.0119033605,0.0093453508,0.0200465377,0.0209058132,0.0323977601,0.0223319698,0.0116722845,0.0183520727,0.0358536188,0.0137334093,0.0279538315,0.0093604252,0.0342495311,0.0223387927,0.0102818292,0.0176531747,0.0142664555,0.0157005154,0.0074407700,0.0066287424,0.0147537515,
10000,0.0370351560,0.0382544529,0.0070847087,0.0270798728,0.0071359333,0.0047366619,0.0159360226,0.0293418933,0.0250140876,0.0120395180,0.0154537577,0.0187684055,0.0119683314,0.0164151732,0.0239526927,0.0072054472,0.0343371667,0.0318512879,0.0082467422,0.0218463298,0.0250724815,0.0080382377,0.0065324232,0.0455171820,0.0065108743,
16384,0.0188096035,0.0239525251,0.0093025696,0.0253311042,0.0414959975,0.0041848011,0.0140193924,0.0160144009,0.0275301822,0.0139388889,0.0102632921,0.0315216407,0.0101664215,0.0381464288,0.0448748954,0.0091643073,0.0311314072,0.0154613759,0.0078663994,0.0127968900,0.0257406272,0.0119031779,0.0117079783,0.0237894859,0.0502202287,
30000,0.0094684437,0.0246540140,0.0090755671,0.0361248720,0.0179589167,0.0071045998,0.0398452021,0.0173197873,0.0157300234,0.0196947809,0.0104471147,0.0418395549,0.0120854359,0.0328475479,0.0190547742,0.0073416661,0.0140289888,0.0297976900,0.0078755617,0.0159457810,0.0172995105,0.0105773266,0.0342963189,0.0203648638,0.0216338243,
60000,0.0238978341,0.0314057171,0.0120256171,0.0346491169,0.0208167471,0.0167454276,0.0200701784,0.0150374342,0.0216844957,0.0175208393,0.0105947517,0.0373978391,0.0380163882,0.0170785990,0.0176083669,0.0085716322,0.0187868215,0.0121767148,0.0078059956,0.0092886407,0.0172708966,0.0109315310,0.0092296060,0.0259476639,0.0239900351,
65535,0.0277279690,0.0167544875,0.0094849188,0.0168684106,0.0506728403,0.0124833696,0.0199749395,0.0189034566,0.0225063842,0.0134357177,0.0130288601,0.0052254274,0.0232590009,0.0332057979,0.0103627350,0.0078668837,0.0251700748,0.0219330341,0.0092254337,0.0269911177,0.0197606515,0.0140754469,0.0187210124,0.0239149407,0.0239014067,
65536,0.0265716780,0.0076180678,0.0105953980,0.0159322619,0.0426870901,0.0313852448,0.0191191025,0.0160074309,0.0129284747,0.0150134470,0.0145409349,0.0240261108,0.0142611563,0.0161088351,0.0147362594,0.0085361637,0.0329965688,0.0155430920,0.0266069807,0.0170986317,0.0042536240,0.0166865010,0.0076157749,0.0175974853,0.0098338351,
100000,0.0080567114,0.0192977805,0.0133252256,0.0398681369,0.0210078247,0.0188590474,0.0087762233,0.0183745213,0.0187523402,0.0109846294,0.0101870801,0.0178662501,0.0238273591,0.0192581117,0.0324337985,0.0093865655,0.0199957136,0.0177919995,0.0262402724,0.0246773511,0.0176518112,0.0209854506,0.0127485003,0.0251830108,0.0089792106,
500000,0.0257186964,0.0094070956,0.0344108548,0.0569862258,0.0152188074,0.0111118276,0.0230337828,0.0238711163,0.0221714750,0.0081434492,0.0114059057,0.0141968001,0.0205995981,0.0408734176,0.0192038007,0.0090188738,0.0328034293,0.0121156201,0.0177598577,0.0134865455,0.0245088898,0.0153808333,0.0152244791,0.0303057153,0.0007558446,
750000,0.0187863111,0.0484627672,0.0431670360,0.0210396312,0.0259145815,0.0171258673,0.0353141837,0.0247369539,0.0152037069,0.0133224260,0.0101989899,0.0176300555,0.0367337652,0.0097897016,0.0129071176,0.0240123998,0.0348558687,0.0104798637,0.0257942397,0.0218907036,0.0236768816,0.0330996532,0.0211283378,0.0323613528,0.0190198012,
1000000,0.0092582982,0.0153254177,0.0224721786,0.0259390566,0.0199909322,0.0411226936,0.0189387333,0.0187816527,0.0293278117,0.0105991513,0.0109462980,0.0268780831,0.0171578322,0.0200196449,0.0227841269,0.0062723141,0.0289953891,0.0107819736,0.0221237559,0.0251806974,0.0160824042,0.0133317430,0.0469093621,0.0134850722,0.0107344314,
2000000,0.0138733648,0.0240398441,0.0224701278,0.0198550224,0.0168476235,0.0284211077,0.0321148019,0.0166219082,0.0214799549,0.0150965657,0.0186592601,0.0140051730,0.0149720795,0.0146590490,0.0627838541,0.0403448474,0.0366813112,0.0202531330,0.0422307681,0.0221414156,0.0179384984,0.0105835702,0.0157039817,0.0412381720,0.0139770694,
4194303,0.0156319737,0.0284719113,0.0433613677,0.0152701344,0.0294944234,0.0199837759,0.0184896383,0.0321666654,0.0260934867,0.0233934168,0.0209762342,0.0323615652,0.0446918383,0.0617245510,0.0554150045,0.0542142205,0.0295727905,0.0299265031,0.0323426649,0.0267309286,0.0603978913,0.0357457288,0.0348057151,0.0371852722,0.0279509574,
4194304,0.0185548104,0.0297832079,0.0345246308,0.0283150189,0.0357555673,0.0304864198,0.0390624199,0.0320592374,0.0212095473,0.0205722805,0.0170091707,0.0298978817,0.0364259053,0.0422961432,0.0374824032,0.0340223163,0.0283169746,0.0374733824,0.0272121020,0.0385052450,0.0396773797,0.0435442701,0.0298839938,0.0333716143,0.0368403196,
5000000,0.0480043218,0.0409145728,0.0182632823,0.0499344077,0.0382568035,0.0271759033,0.0203294214,0.0283911433,0.0212263651,0.0215974804,0.0191559140,0.0344044585,0.0398916695,0.0365458187,0.0371395182,0.0563516375,0.0215366483,0.1020417679,0.0273309257,0.0189950541,0.0512622576,0.0461695343,0.0413580835,0.0796824321,0.0786890145,
8388608,0.0902028717,0.0426891297,0.0562497079,0.0530691203,0.0629386101,0.0342807304,0.0486497991,0.0580558740,0.0381548144,0.0580866653,0.0574049763,0.0430542137,0.0476993192,0.0803308878,0.0609050728,0.0414604805,0.0533698499,0.0491523705,0.0622326098,0.0705526061,0.0769163799,0.0324287564,0.0437976420,0.0437167622,0.0360151995,
10000000,0.0583105832,0.0600301344,0.0560018402,0.0467062090,0.0434654653,0.0977123305,0.0572283566,0.0821413230,0.0641406719,0.0641623270,0.0950096399,0.0412939452,0.0580161437,0.0509551205,0.0790304020,0.0693589821,0.0879563466,0.0861422531,0.0696854461,0.0656776521,0.0392815061,0.0493180547,0.0428947862,0.1159185953,0.0538905673,
16777215,0.1206980720,0.1252364945,0.1129370388,0.0747151244,0.0924242958,0.0953771789,0.1003625505,0.0973156150,0.0882618446,0.0872699413,0.0460960343,0.0792866442,0.0814726911,0.1035972293,0.1134997103,0.2859508432,0.0722775403,0.0778715331,0.0825963132,0.0743134134,0.0689919833,0.1073952392,0.1006805021,0.0802549962,0.0777609963,
16777216,0.1301406063,0.0649868660,0.0931074247,0.0907149184,0.0983446334,0.0947988704,0.0566941965,0.0816404279,0.1370876990,0.0875976104,0.0727452133,0.0920985807,0.0990987979,0.0817813929,0.1138518043,0.1143422704,0.0834283978,0.0881330483,0.0836458188,0.1001930516,0.0805377550,0.0785518680,0.0839336272,0.1420029942,0.0937709920,
20000000,0.1077292450,0.1125819813,0.0901477020,0.0767599698,0.1261967234,0.0993290171,0.0992578547,0.1308518201,0.0573082082,0.0665007159,0.0733192582,0.0888632741,0.1277889609,0.1282707583,0.1055489760,0.0964440182,0.1161158551,0.0970750991,0.0896894764,0.0978264157,0.1224375442,0.0996991582,0.1166439392,0.0819105096,0.0814122465,
30000000,0.1709045395,0.1284169946,0.1335966606,0.0817021970,0.1362062152,0.1706145871,0.1560538448,0.1149131693,0.2175500207,0.1400465406,0.1234393567,0.1275204811,0.1840957142,0.1481333300,0.1421098281,0.1195798293,0.1337123848,0.1613693740,0.1636252180,0.1334274672,0.1191631518,0.1530813277,0.1143746376,0.1092255786,0.1396347452,
33554432,0.1844805907,0.1794151533,0.1270161513,0.1441716198,0.1960273217,0.2098346502,0.1360312104,0.0833797734,0.1281975713,0.1413684692,0.1235529892,0.1279456113,0.1481052265,0.2264982276,0.1357500777,0.1613839101,0.1876458637,0.1221814100,0.2018137649,0.1374066677,0.2572338451,0.1565019991,0.1577833574,0.1428034585,0.1439168528,
67108864,0.2570055202,0.3205839247,0.2598335166,0.3274155483,0.2889016122,0.2756228149,0.2521417234,0.2211889401,0.2601091452,0.2864032667,0.2667601071,0.2465159688,0.3749149907,0.3057914302,0.2632737085,0.6693504993,0.3191398941,0.2069323771,0.1774512269,0.3094052728,0.2835373338,0.1816319264,0.2454441153,0.2329391371,0.2988205981,
134217728,0.4708864447,0.4252798930,0.4026037101,0.5263315979,0.5048768576,0.5375131946,0.6157991569,0.4852183945,0.5105033331,0.4068638813,0.5580764972,0.5957342405,0.4533929583,0.4083984960,0.3479586970,0.5311337579,0.6696345638,0.4639422689,0.5085109212,0.5220007207,0.3601782490,0.4887014721,0.4673234783,0.3997773938,0.4712928273,
