Input size: 2
type: double
Total openmp time: 0.0186141357
The total number of operations is: 0
Input size: 4
type: double
Total openmp time: 0.0271586347
The total number of operations is: 0
Input size: 8
type: double
Total openmp time: 0.0259536412
The total number of operations is: 0
Input size: 10
type: double
Total openmp time: 0.0223606154
The total number of operations is: 0
Input size: 15
type: double
Total openmp time: 0.0264406148
The total number of operations is: 0
Input size: 16
type: double
Total openmp time: 0.0289163701
The total number of operations is: 0
Input size: 63
type: double
Total openmp time: 0.0354391746
The total number of operations is: 0
Input size: 64
type: double
Total openmp time: 0.0285332818
The total number of operations is: 0
Input size: 1000
type: double
Total openmp time: 0.0663470346
The total number of operations is: 0
Input size: 1023
type: double
Total openmp time: 0.0790137276
The total number of operations is: 0
Input size: 1024
type: double
Total openmp time: 0.0569735039
The total number of operations is: 0
Input size: 5000
type: double
Total openmp time: 0.0669881087
The total number of operations is: 0
Input size: 10000
type: double
Total openmp time: 0.0839870404
The total number of operations is: 0
Input size: 16384
type: double
Total openmp time: 0.1028450280
The total number of operations is: 0
Input size: 30000
type: double
Total openmp time: 0.1147862282
The total number of operations is: 0
Input size: 60000
type: double
Total openmp time: 0.1200920790
The total number of operations is: 0
Input size: 65535
type: double
Total openmp time: 0.0967732053
The total number of operations is: 0
Input size: 65536
type: double
Total openmp time: 0.1246520225
The total number of operations is: 0
Input size: 100000
type: double
Total openmp time: 0.1442188770
The total number of operations is: 0
Input size: 500000
type: double
Total openmp time: 0.2656815406
The total number of operations is: 0
Input size: 750000
type: double
Total openmp time: 0.3529130351
The total number of operations is: 0
Input size: 1000000
type: double
Total openmp time: 0.4346104562
The total number of operations is: 0
Input size: 2000000
type: double
Total openmp time: 0.7869072817
The total number of operations is: 0
Input size: 4194303
type: double
Total openmp time: 1.5297379140
The total number of operations is: 0
Input size: 4194304
type: double
Total openmp time: 1.4845095575
The total number of operations is: 0
Input size: 5000000
type: double
Total openmp time: 1.7792912535
The total number of operations is: 0
Input size: 8388608
type: double
Total openmp time: 2.8191510327
The total number of operations is: 0
Input size: 10000000
type: double
Total openmp time: 3.4013964664
The total number of operations is: 0
Input size: 16777215
type: double
Total openmp time: 5.5334617607
The total number of operations is: 0
Input size: 16777216
type: double
Total openmp time: 5.5794449579
The total number of operations is: 0
Input size: 20000000
type: double
Total openmp time: 6.4832365606
The total number of operations is: 0
Input size: 30000000
type: double
Total openmp time: 10.0748823527
The total number of operations is: 0
Input size: 33554432
type: double
Total openmp time: 10.7177397851
The total number of operations is: 0
Input size: 67108864
type: double
Total openmp time: 21.7153961919
The total number of operations is: 0
Input size: 134217728
type: double
Total openmp time: 43.6178552415
The total number of operations is: 0
