Input size: 2
type: double
threads: 16
Total openmp time: 0.0200531203
Input size: 4
type: double
threads: 16
Total openmp time: 0.0163568966
Input size: 8
type: double
threads: 16
Total openmp time: 0.0128279980
Input size: 10
type: double
threads: 16
Total openmp time: 0.0200595651
Input size: 15
type: double
threads: 16
Total openmp time: 0.0192944370
Input size: 16
type: double
threads: 16
Total openmp time: 0.0140393730
Input size: 63
type: double
threads: 16
Total openmp time: 0.0096229091
Input size: 64
type: double
threads: 16
Total openmp time: 0.0205702297
Input size: 1000
type: double
threads: 16
Total openmp time: 0.0456596874
Input size: 1023
type: double
threads: 16
Total openmp time: 0.0090740658
Input size: 1024
type: double
threads: 16
Total openmp time: 0.0041010734
Input size: 5000
type: double
threads: 16
Total openmp time: 0.0099247750
Input size: 10000
type: double
threads: 16
Total openmp time: 0.0120566506
Input size: 16384
type: double
threads: 16
Total openmp time: 0.0104894470
Input size: 30000
type: double
threads: 16
Total openmp time: 0.0170008317
Input size: 60000
type: double
threads: 16
Total openmp time: 0.0151843987
Input size: 65535
type: double
threads: 16
Total openmp time: 0.0075156316
Input size: 65536
type: double
threads: 16
Total openmp time: 0.0119280294
Input size: 100000
type: double
threads: 16
Total openmp time: 0.0140310470
Input size: 500000
type: double
threads: 16
Total openmp time: 0.0256933011
Input size: 750000
type: double
threads: 16
Total openmp time: 0.0133352745
Input size: 1000000
type: double
threads: 16
Total openmp time: 0.0015913025
Input size: 2000000
type: double
threads: 16
Total openmp time: 0.0349422805
Input size: 4194303
type: double
threads: 16
Total openmp time: 0.0399967488
Input size: 4194304
type: double
threads: 16
Total openmp time: 0.0460392553
Input size: 5000000
type: double
threads: 16
Total openmp time: 0.0586322863
Input size: 8388608
type: double
threads: 16
Total openmp time: 0.0286500249
Input size: 10000000
type: double
threads: 16
Total openmp time: 0.0575932134
Input size: 16777215
type: double
threads: 16
Total openmp time: 0.0829584524
Input size: 16777216
type: double
threads: 16
Total openmp time: 0.0876526330
Input size: 20000000
type: double
threads: 16
Total openmp time: 0.0841211751
Input size: 30000000
type: double
threads: 16
Total openmp time: 0.1482421663
Input size: 33554432
type: double
threads: 16
Total openmp time: 0.1680226047
Input size: 67108864
type: double
threads: 16
Total openmp time: 0.3228215314
Input size: 134217728
type: double
threads: 16
Total openmp time: 0.3757366668
