Input size: 2
type: double
Total openmp time: 0.01921
The total number of operations is: 0
Input size: 4
type: double
Total openmp time: 0.03632
The total number of operations is: 0
Input size: 8
type: double
Total openmp time: 0.03639
The total number of operations is: 0
Input size: 10
type: double
Total openmp time: 0.03715
The total number of operations is: 0
Input size: 15
type: double
Total openmp time: 0.05278
The total number of operations is: 0
Input size: 16
type: double
Total openmp time: 0.05416
The total number of operations is: 0
Input size: 63
type: double
Total openmp time: 0.06282
The total number of operations is: 0
Input size: 64
type: double
Total openmp time: 0.05918
The total number of operations is: 0
Input size: 1000
type: double
Total openmp time: 0.07743
The total number of operations is: 0
Input size: 1023
type: double
Total openmp time: 0.08578
The total number of operations is: 0
Input size: 1024
type: double
Total openmp time: 0.09917
The total number of operations is: 0
Input size: 5000
type: double
Total openmp time: 0.10214
The total number of operations is: 0
Input size: 10000
type: double
Total openmp time: 0.08776
The total number of operations is: 0
Input size: 16384
type: double
Total openmp time: 0.06452
The total number of operations is: 0
Input size: 30000
type: double
Total openmp time: 0.06274
The total number of operations is: 0
Input size: 60000
type: double
Total openmp time: 0.09084
The total number of operations is: 0
Input size: 65535
type: double
Total openmp time: 0.15923
The total number of operations is: 0
Input size: 65536
type: double
Total openmp time: 0.16019
The total number of operations is: 0
Input size: 100000
type: double
Total openmp time: 0.26671
The total number of operations is: 0
Input size: 500000
type: double
Total openmp time: 0.47677
The total number of operations is: 0
Input size: 750000
type: double
Total openmp time: 0.60978
The total number of operations is: 0
Input size: 1000000
type: double
Total openmp time: 0.72913
The total number of operations is: 0
Input size: 2000000
type: double
Total openmp time: 1.14859
The total number of operations is: 0
Input size: 4194303
type: double
Total openmp time: 2.29612
The total number of operations is: 0
Input size: 4194304
type: double
Total openmp time: 2.31490
The total number of operations is: 0
Input size: 5000000
type: double
Total openmp time: 2.72701
The total number of operations is: 0
Input size: 8388608
type: double
Total openmp time: 4.33964
The total number of operations is: 0
Input size: 10000000
type: double
Total openmp time: 5.00133
The total number of operations is: 0
Input size: 16777215
type: double
Total openmp time: 8.06317
The total number of operations is: 0
Input size: 16777216
type: double
Total openmp time: 8.33936
The total number of operations is: 0
Input size: 20000000
type: double
Total openmp time: 8.64816
The total number of operations is: 0
Input size: 30000000
type: double
Total openmp time: 11.96123
The total number of operations is: 0
Input size: 33554432
type: double
Total openmp time: 14.18879
The total number of operations is: 0
Input size: 67108864
type: double
Total openmp time: 29.79680
The total number of operations is: 0
Input size: 134217728
type: double
Total openmp time: 65.82068
The total number of operations is: 0
