Input size: 2
Total openmp time: 0.00150
The total number of operations is: 0
Input size: 4
Total openmp time: 0.00144
The total number of operations is: 0
Input size: 8
Total openmp time: 0.00140
The total number of operations is: 0
Input size: 10
Total openmp time: 0.00241
The total number of operations is: 0
Input size: 15
Total openmp time: 0.00245
The total number of operations is: 0
Input size: 16
Total openmp time: 0.00273
The total number of operations is: 0
Input size: 63
Total openmp time: 0.00285
The total number of operations is: 0
Input size: 64
Total openmp time: 0.00282
The total number of operations is: 0
Input size: 1000
Total openmp time: 0.00303
The total number of operations is: 0
Input size: 1023
Total openmp time: 0.00296
The total number of operations is: 0
Input size: 1024
Total openmp time: 0.00362
The total number of operations is: 0
Input size: 5000
Total openmp time: 0.00438
The total number of operations is: 0
Input size: 10000
Total openmp time: 0.00629
The total number of operations is: 0
Input size: 16384
Total openmp time: 0.00841
The total number of operations is: 0
Input size: 30000
Total openmp time: 0.01223
The total number of operations is: 0
Input size: 60000
Total openmp time: 0.02420
The total number of operations is: 0
Input size: 65535
Total openmp time: 0.02098
The total number of operations is: 0
Input size: 65536
Total openmp time: 0.02273
The total number of operations is: 0
Input size: 100000
Total openmp time: 0.03202
The total number of operations is: 0
Input size: 500000
Total openmp time: 0.11332
The total number of operations is: 0
Input size: 750000
Total openmp time: 0.23174
The total number of operations is: 0
Input size: 1000000
Total openmp time: 0.21909
The total number of operations is: 0
Input size: 2000000
Total openmp time: 0.42775
The total number of operations is: 0
Input size: 4194303
Total openmp time: 0.91686
The total number of operations is: 0
Input size: 4194304
Total openmp time: 0.99423
The total number of operations is: 0
Input size: 5000000
Total openmp time: 1.14372
The total number of operations is: 0
Input size: 8388608
Total openmp time: 2.00792
The total number of operations is: 0
Input size: 10000000
Total openmp time: 2.33441
The total number of operations is: 0
Input size: 16777215
Total openmp time: 3.98716
The total number of operations is: 0
Input size: 16777216
Total openmp time: 4.10100
The total number of operations is: 0
Input size: 20000000
Total openmp time: 5.00434
The total number of operations is: 0
Input size: 30000000
Total openmp time: 7.38224
The total number of operations is: 0
Input size: 33554432
Total openmp time: 8.52334
The total number of operations is: 0
Input size: 67108864
Total openmp time: 17.64020
The total number of operations is: 0
Input size: 134217728
Total openmp time: 36.45519
The total number of operations is: 0
