Input size: 2
Total openmp time: 0.00140
The total number of operations is: 0
Input size: 4
Total openmp time: 0.00238
The total number of operations is: 0
Input size: 8
Total openmp time: 0.00250
The total number of operations is: 0
Input size: 10
Total openmp time: 0.00248
The total number of operations is: 0
Input size: 15
Total openmp time: 0.00270
The total number of operations is: 0
Input size: 16
Total openmp time: 0.00262
The total number of operations is: 0
Input size: 63
Total openmp time: 0.00259
The total number of operations is: 0
Input size: 64
Total openmp time: 0.00271
The total number of operations is: 0
Input size: 1000
Total openmp time: 0.00316
The total number of operations is: 0
Input size: 1023
Total openmp time: 0.00321
The total number of operations is: 0
Input size: 1024
Total openmp time: 0.00309
The total number of operations is: 0
Input size: 5000
Total openmp time: 0.00452
The total number of operations is: 0
Input size: 10000
Total openmp time: 0.00599
The total number of operations is: 0
Input size: 16384
Total openmp time: 0.00826
The total number of operations is: 0
Input size: 30000
Total openmp time: 0.01305
The total number of operations is: 0
Input size: 60000
Total openmp time: 0.02068
The total number of operations is: 0
Input size: 65535
Total openmp time: 0.02484
The total number of operations is: 0
Input size: 65536
Total openmp time: 0.02418
The total number of operations is: 0
Input size: 100000
Total openmp time: 0.02921
The total number of operations is: 0
Input size: 500000
Total openmp time: 0.10635
The total number of operations is: 0
Input size: 750000
Total openmp time: 0.15668
The total number of operations is: 0
Input size: 1000000
Total openmp time: 0.20679
The total number of operations is: 0
Input size: 2000000
Total openmp time: 0.45614
The total number of operations is: 0
Input size: 4194303
Total openmp time: 0.91641
The total number of operations is: 0
Input size: 4194304
Total openmp time: 0.93425
The total number of operations is: 0
Input size: 5000000
Total openmp time: 1.15186
The total number of operations is: 0
Input size: 8388608
Total openmp time: 1.94194
The total number of operations is: 0
Input size: 10000000
Total openmp time: 2.44701
The total number of operations is: 0
Input size: 16777215
Total openmp time: 3.97404
The total number of operations is: 0
Input size: 16777216
Total openmp time: 4.05484
The total number of operations is: 0
Input size: 20000000
Total openmp time: 4.92755
The total number of operations is: 0
Input size: 30000000
Total openmp time: 7.34601
The total number of operations is: 0
Input size: 33554432
Total openmp time: 8.53113
The total number of operations is: 0
Input size: 67108864
Total openmp time: 17.63396
The total number of operations is: 0
Input size: 134217728
Total openmp time: 37.33430
The total number of operations is: 0
