n;cilk;	cilk;	cilk;	cilk;	cilk;	cilk;	cilk;	cilk;	cilk;	cilk;	cilk;	cilk;	cilk;	cilk;	cilk;	cilk;	cilk;	cilk;	cilk;	cilk;	cilk;	cilk;	cilk;	cilk;	cilk
2;0.00017;	0.00017;	0.00016;	0.00018;	0.00018;	0.00013;	0.00014;	0.00015;	0.00020;	0.00018;	0.00019;	0.00014;	0.00016;	0.00017;	0.00019;	0.00026;	0.00015;	0.00024;	0.00017;	0.00022;	0.00015;	0.00017;	0.00012;	0.00021;	0.00022
4;0.00026;	0.00021;	0.00023;	0.00017;	0.00021;	0.00025;	0.00018;	0.00020;	0.00011;	0.00015;	0.00028;	0.00030;	0.00037;	0.00035;	0.00026;	0.00033;	0.00014;	0.00027;	0.00034;	0.00028;	0.00030;	0.00027;	0.00043;	0.00024;	0.00033
8;0.00043;	0.00034;	0.00040;	0.00028;	0.00030;	0.00036;	0.00033;	0.00030;	0.00020;	0.00025;	0.00035;	0.00031;	0.00024;	0.00020;	0.00038;	0.00019;	0.00028;	0.00023;	0.00033;	0.00027;	0.00030;	0.00036;	0.00021;	0.00037;	0.00023
10;0.00037;	0.00030;	0.00041;	0.00037;	0.00035;	0.00039;	0.00032;	0.00028;	0.00029;	0.00037;	0.00031;	0.00049;	0.00027;	0.00026;	0.00027;	0.00034;	0.00045;	0.00037;	0.00021;	0.00034;	0.00030;	0.00027;	0.00026;	0.00043;	0.00029
15;0.00042;	0.00040;	0.00037;	0.00043;	0.00043;	0.00035;	0.00040;	0.00042;	0.00039;	0.00046;	0.00059;	0.00038;	0.00039;	0.00055;	0.00034;	0.00036;	0.00049;	0.00044;	0.00032;	0.00033;	0.00040;	0.00044;	0.00042;	0.00034;	0.00046
16;0.00022;	0.00032;	0.00029;	0.00028;	0.00025;	0.00041;	0.00041;	0.00027;	0.00034;	0.00043;	0.00030;	0.00039;	0.00034;	0.00035;	0.00037;	0.00023;	0.00039;	0.00034;	0.00028;	0.00021;	0.00025;	0.00031;	0.00038;	0.00040;	0.00036
63;0.00080;	0.00085;	0.00081;	0.00086;	0.00094;	0.00082;	0.00083;	0.00087;	0.00085;	0.00091;	0.00076;	0.00080;	0.00099;	0.00063;	0.00073;	0.00072;	0.00095;	0.00086;	0.00094;	0.00079;	0.00100;	0.00091;	0.00066;	0.00083;	0.00087
64;0.00041;	0.00045;	0.00040;	0.00052;	0.00051;	0.00053;	0.00038;	0.00038;	0.00040;	0.00047;	0.00052;	0.00050;	0.00048;	0.00034;	0.00040;	0.00040;	0.00058;	0.00034;	0.00055;	0.00069;	0.00051;	0.00049;	0.00046;	0.00055;	0.00037
1000;0.00290;	0.00292;	0.00294;	0.00267;	0.00273;	0.00277;	0.00267;	0.00284;	0.00270;	0.00304;	0.00324;	0.00334;	0.00314;	0.00311;	0.00352;	0.00332;	0.00327;	0.00339;	0.00328;	0.00326;	0.00300;	0.00301;	0.00363;	0.00337;	0.00254
1023;0.00324;	0.00292;	0.00316;	0.00317;	0.00315;	0.00297;	0.00319;	0.00300;	0.00313;	0.00316;	0.00320;	0.00329;	0.00356;	0.00309;	0.00326;	0.00360;	0.00323;	0.00342;	0.00306;	0.00332;	0.00344;	0.00332;	0.00361;	0.00331;	0.00351
1024;0.00198;	0.00181;	0.00188;	0.00187;	0.00189;	0.00187;	0.00200;	0.00190;	0.00191;	0.00202;	0.00177;	0.00208;	0.00202;	0.00181;	0.00188;	0.00221;	0.00199;	0.00233;	0.00220;	0.00194;	0.00225;	0.00189;	0.00186;	0.00220;	0.00194
5000;0.00905;	0.00925;	0.00873;	0.00932;	0.00966;	0.00708;	0.00901;	0.00870;	0.00905;	0.00885;	0.00883;	0.00886;	0.00889;	0.00893;	0.00924;	0.00884;	0.00922;	0.00882;	0.00905;	0.00906;	0.00845;	0.00854;	0.00844;	0.00900;	0.00888
10000;0.01643;	0.01197;	0.01531;	0.01433;	0.01179;	0.01616;	0.01293;	0.01108;	0.01174;	0.01295;	0.01197;	0.01355;	0.01551;	0.01142;	0.01600;	0.01586;	0.01564;	0.01250;	0.01341;	0.01252;	0.01204;	0.01302;	0.01517;	0.01163;	0.01058
16384;0.01323;	0.01410;	0.01612;	0.01440;	0.01311;	0.01625;	0.02075;	0.01316;	0.01310;	0.01469;	0.01806;	0.01985;	0.02117;	0.01583;	0.01629;	0.02083;	0.01469;	0.01863;	0.01885;	0.02037;	0.01769;	0.01590;	0.01394;	0.01818;	0.01782
30000;0.02896;	0.02170;	0.02631;	0.02220;	0.02290;	0.02738;	0.02633;	0.02192;	0.02482;	0.02557;	0.02230;	0.02443;	0.02169;	0.02344;	0.02458;	0.02195;	0.02358;	0.02355;	0.02222;	0.02089;	0.02419;	0.02192;	0.03152;	0.02139;	0.02155
60000;0.04160;	0.03983;	0.04081;	0.04063;	0.03989;	0.04042;	0.04079;	0.04101;	0.04049;	0.04322;	0.04135;	0.04068;	0.04016;	0.03925;	0.04085;	0.04069;	0.03983;	0.04824;	0.04032;	0.04016;	0.04045;	0.04042;	0.04162;	0.04041;	0.04182
65535;0.04378;	0.04648;	0.04547;	0.04678;	0.04540;	0.04592;	0.04441;	0.04700;	0.04805;	0.04590;	0.04525;	0.04541;	0.04519;	0.04547;	0.04434;	0.04455;	0.04552;	0.04462;	0.04505;	0.04428;	0.04518;	0.04454;	0.04440;	0.04487;	0.04448
65536;0.03311;	0.03253;	0.03180;	0.03164;	0.03105;	0.03389;	0.03242;	0.03257;	0.03274;	0.03346;	0.03180;	0.03156;	0.03235;	0.03090;	0.03273;	0.03221;	0.03106;	0.03110;	0.03132;	0.03184;	0.03252;	0.03247;	0.03167;	0.03243;	0.03281
100000;0.05600;	0.05622;	0.05698;	0.05728;	0.05658;	0.05645;	0.05545;	0.05783;	0.05747;	0.05551;	0.05492;	0.05548;	0.05394;	0.05558;	0.05414;	0.05457;	0.05616;	0.05568;	0.05403;	0.05458;	0.05573;	0.05547;	0.05464;	0.05502;	0.05430
500000;0.16521;	0.16909;	0.16610;	0.16794;	0.17395;	0.17191;	0.16209;	0.17261;	0.17109;	0.17333;	0.16813;	0.16512;	0.17140;	0.16350;	0.16260;	0.16827;	0.16598;	0.16080;	0.16609;	0.16267;	0.17344;	0.16265;	0.16696;	0.16520;	0.17754
750000;0.20352;	0.19817;	0.19572;	0.18779;	0.20286;	0.20434;	0.20002;	0.19886;	0.20577;	0.21371;	0.20174;	0.19387;	0.19121;	0.19005;	0.19954;	0.18959;	0.20684;	0.19777;	0.19407;	0.18657;	0.20172;	0.20070;	0.20669;	0.19340;	0.20098
1000000;0.26599;	0.26259;	0.25086;	0.26855;	0.25289;	0.24872;	0.26350;	0.25114;	0.26135;	0.25412;	0.25556;	0.25921;	0.26077;	0.24577;	0.24905;	0.26509;	0.26273;	0.25574;	0.24676;	0.24378;	0.25161;	0.25504;	0.26042;	0.25235;	0.26256
2000000;0.41493;	0.40669;	0.45104;	0.42686;	0.41093;	0.41105;	0.41590;	0.43654;	0.41941;	0.42805;	0.42455;	0.41237;	0.41347;	0.41708;	0.41066;	0.41518;	0.43718;	0.41122;	0.41646;	0.40576;	0.40486;	0.43562;	0.41583;	0.39930;	0.43508
4194303;0.80029;	0.78949;	0.78737;	0.80096;	0.82417;	0.79160;	0.88731;	0.79583;	0.79546;	0.80132;	0.87022;	0.81207;	0.81877;	0.77145;	0.78239;	0.82050;	0.80166;	0.77833;	0.82036;	0.81909;	0.78198;	0.79835;	0.86115;	0.78653;	0.81883
4194304;0.44658;	0.43796;	0.45236;	0.45078;	0.44589;	0.45496;	0.45891;	0.44978;	0.44682;	0.44741;	0.45433;	0.45877;	0.45026;	0.44786;	0.44448;	0.44954;	0.45165;	0.44493;	0.44972;	0.44514;	0.44852;	0.44401;	0.44986;	0.45463;	0.45033
5000000;0.97264;	0.89090;	0.87320;	0.79886;	0.81147;	0.82348;	0.79934;	0.82025;	0.82031;	0.96787;	1.02300;	0.86283;	0.95281;	0.87347;	0.80278;	0.95786;	0.95538;	0.87174;	0.86575;	0.89509;	0.81744;	0.81102;	0.95090;	0.95163;	0.81018
8388608;0.84049;	0.85674;	0.83722;	0.84421;	0.83327;	0.83858;	0.84026;	0.84124;	0.85968;	0.84900;	0.85523;	0.84547;	0.85472;	0.83141;	0.84251;	0.84520;	0.84602;	0.84620;	0.83668;	0.83398;	0.84515;	0.84178;	0.84497;	0.85356;	0.84368
10000000;1.68101;	1.55725;	1.52941;	1.73100;	1.55153;	1.77565;	1.69910;	1.89592;	1.51696;	1.89213;	1.59140;	1.71391;	1.77662;	1.51542;	1.55147;	1.53281;	1.86585;	1.88363;	1.52875;	1.86505;	1.87313;	1.53966;	1.87477;	1.89069;	1.53347
16777215;2.89983;	2.89366;	2.67673;	2.94343;	2.65746;	2.85609;	2.96595;	2.74717;	2.83147;	3.01057;	2.66098;	2.97774;	2.63397;	2.85026;	3.19335;	3.13340;	2.71858;	2.70108;	2.64339;	2.68722;	2.67882;	2.95381;	2.77070;	2.78754;	2.78443
16777216;1.61581;	1.60742;	1.60650;	1.60831;	1.61288;	1.63525;	1.61516;	1.61296;	1.61745;	1.61876;	1.67355;	1.62646;	1.62652;	1.63660;	1.62515;	1.60916;	1.64838;	1.63469;	1.62434;	1.65210;	1.61431;	1.60401;	1.60301;	1.63433;	1.66224
20000000;3.66087;	3.29111;	2.97678;	3.34264;	2.97157;	3.67973;	3.78928;	2.97150;	3.27390;	3.00562;	2.99013;	3.74573;	2.95800;	2.99047;	3.65068;	2.97410;	3.36150;	3.70007;	3.22558;	3.00665;	3.31517;	2.96088;	3.20642;	3.69779;	2.92827
30000000;5.11291;	4.51566;	4.61848;	4.75816;	4.73710;	4.40578;	5.71995;	4.36838;	4.67292;	5.29808;	4.95421;	4.88557;	4.57829;	4.43169;	5.40628;	4.57596;	4.97636;	5.49388;	4.87678;	5.64286;	4.52142;	4.88901;	5.62417;	5.63103;	4.86881
33554432;3.25501;	3.18595;	3.23836;	3.16779;	3.19049;	3.18500;	3.20571;	3.15710;	3.22582;	3.16428;	3.29960;	3.15035;	3.21703;	3.15182;	3.18956;	3.15761;	3.15349;	3.27167;	3.14965;	3.17747;	3.17989;	3.20289;	3.17468;	3.22556;	3.17381
67108864;6.22420;	6.24581;	6.34425;	6.34862;	6.25381;	6.21681;	6.26526;	6.25567;	6.38531;	6.23369;	6.67622;	6.41510;	6.22186;	6.24171;	6.29669;	6.41150;	6.48404;	6.32493;	6.27128;	6.34707;	6.33925;	6.22859;	6.34466;	6.34288;	6.29648
134217728;12.33900;	12.33733;	12.60699;	12.52166;	12.58187;	12.57219;	12.37788;	12.12075;	12.43986;	12.78748;	12.67515;	12.35442;	12.32991;	12.62409;	12.45009;	12.32139;	12.38315;	12.40297;	12.58257;	12.65248;	12.89794;	12.37137;	12.47133;	12.92912;	12.40822
