n;cilk;	cilk;	cilk;	cilk;	cilk;	cilk;	cilk;	cilk;	cilk;	cilk;	cilk;	cilk;	cilk;	cilk;	cilk;	cilk;	cilk;	cilk;	cilk;	cilk;	cilk;	cilk;	cilk;	cilk;	cilk
2;0.00161;	0.00097;	0.00158;	0.00096;	0.00077;	0.00094;	0.00215;	0.00138;	0.00186;	0.00060;	0.00247;	0.00143;	0.00119;	0.00184;	0.00253;	0.00092;	0.00316;	0.00154;	0.00082;	0.00090;	0.00114;	0.00107;	0.00157;	0.00132;	0.00290
4;0.00258;	0.00211;	0.00053;	0.00056;	0.00069;	0.00361;	0.00068;	0.00209;	0.00803;	0.00019;	0.00011;	0.00246;	0.00594;	0.00155;	0.00799;	0.00106;	0.00228;	0.00218;	0.00019;	0.00240;	0.00024;	0.00059;	0.00090;	0.00361;	0.00399
8;0.00528;	0.00305;	0.00132;	0.00430;	0.00110;	0.00339;	0.00056;	0.00064;	0.00161;	0.00097;	0.00094;	0.00161;	0.00253;	0.00318;	0.00346;	0.00235;	0.00051;	0.00448;	0.00268;	0.00137;	0.00094;	0.00321;	0.00536;	0.00082;	0.00043
10;0.00122;	0.00374;	0.00149;	0.00061;	0.00191;	0.00579;	0.00126;	0.00025;	0.00016;	0.00022;	0.00505;	0.00376;	0.00217;	0.00067;	0.00196;	0.00120;	0.00182;	0.00122;	0.00418;	0.00164;	0.00318;	0.00394;	0.00059;	0.00246;	0.00424
15;0.01554;	0.00022;	0.00364;	0.00338;	0.00193;	0.00210;	0.00090;	0.00182;	0.00144;	0.00019;	0.00011;	0.00177;	0.00379;	0.00271;	0.00290;	0.00671;	0.00394;	0.00244;	0.00212;	0.00251;	0.00432;	0.00591;	0.00588;	0.00220;	0.00423
16;0.00253;	0.00455;	0.00302;	0.00111;	0.00099;	0.00274;	0.00123;	0.00024;	0.00021;	0.00024;	0.00095;	0.00313;	0.00097;	0.00084;	0.00227;	0.00072;	0.00220;	0.00258;	0.00116;	0.00090;	0.00295;	0.00167;	0.00374;	0.00118;	0.00159
63;0.00282;	0.01243;	0.00659;	0.00196;	0.00613;	0.00829;	0.01062;	0.00406;	0.01222;	0.00534;	0.00019;	0.00941;	0.00590;	0.00517;	0.01350;	0.02884;	0.00510;	0.00405;	0.00630;	0.00507;	0.01282;	0.00732;	0.00452;	0.00811;	0.00428
64;0.00215;	0.00429;	0.00221;	0.01067;	0.00371;	0.00720;	0.00235;	0.00376;	0.00033;	0.00182;	0.00097;	0.00487;	0.00241;	0.00250;	0.00439;	0.00680;	0.00322;	0.00127;	0.00285;	0.00357;	0.00359;	0.00663;	0.00186;	0.00272;	0.00456
1000;0.02761;	0.01637;	0.02074;	0.01788;	0.02941;	0.01775;	0.01117;	0.01787;	0.01937;	0.01045;	0.01899;	0.05006;	0.01429;	0.01800;	0.02386;	0.01582;	0.01171;	0.02090;	0.02106;	0.02249;	0.01481;	0.01619;	0.01353;	0.02210;	0.01979
1023;0.01833;	0.01911;	0.01987;	0.01980;	0.01341;	0.02795;	0.01200;	0.01503;	0.01662;	0.02430;	0.00220;	0.01845;	0.01975;	0.01960;	0.02051;	0.02195;	0.01479;	0.01491;	0.01734;	0.01958;	0.01578;	0.01875;	0.01753;	0.01972;	0.02749
1024;0.00518;	0.00476;	0.00548;	0.00433;	0.00426;	0.00527;	0.01221;	0.00653;	0.00839;	0.00121;	0.00679;	0.00598;	0.01867;	0.00513;	0.00594;	0.00645;	0.00532;	0.00761;	0.00372;	0.00413;	0.01061;	0.00603;	0.00741;	0.00477;	0.00406
5000;0.04270;	0.01442;	0.01825;	0.01423;	0.01693;	0.02331;	0.02536;	0.01524;	0.01807;	0.01528;	0.01118;	0.01390;	0.01770;	0.01862;	0.04844;	0.01299;	0.02172;	0.01869;	0.04207;	0.02112;	0.01698;	0.01753;	0.01645;	0.01528;	0.05564
10000;0.02087;	0.02026;	0.01811;	0.01955;	0.02321;	0.02408;	0.02622;	0.01838;	0.02105;	0.01793;	0.01278;	0.02267;	0.01904;	0.05371;	0.02349;	0.02093;	0.02260;	0.01655;	0.01965;	0.07184;	0.01789;	0.02624;	0.01827;	0.02264;	0.02305
16384;0.01080;	0.01797;	0.00841;	0.01076;	0.00830;	0.00894;	0.00851;	0.00759;	0.00607;	0.00854;	0.00641;	0.01310;	0.01034;	0.00854;	0.00907;	0.00715;	0.00832;	0.00653;	0.01607;	0.00812;	0.02578;	0.00810;	0.00942;	0.01026;	0.00737
30000;0.03062;	0.02910;	0.03793;	0.05978;	0.02396;	0.03388;	0.06483;	0.02638;	0.02556;	0.03008;	0.01968;	0.02507;	0.02672;	0.02907;	0.03320;	0.02481;	0.06830;	0.07024;	0.03183;	0.03026;	0.02683;	0.02868;	0.03265;	0.06397;	0.03253
60000;0.08172;	0.03195;	0.03062;	0.07519;	0.03327;	0.03825;	0.02744;	0.02667;	0.03147;	0.03455;	0.03305;	0.03698;	0.03424;	0.03645;	0.03996;	0.04218;	0.03508;	0.08789;	0.08418;	0.03243;	0.02846;	0.03789;	0.03213;	0.04109;	0.03503
65535;0.05231;	0.04074;	0.13614;	0.04414;	0.04352;	0.06618;	0.04257;	0.04728;	0.07427;	0.03809;	0.04824;	0.05560;	0.06124;	0.06838;	0.06880;	0.05879;	0.04926;	0.04181;	0.13580;	0.06056;	0.14751;	0.04366;	0.13801;	0.06592;	0.05965
65536;0.00946;	0.01037;	0.01291;	0.00852;	0.00999;	0.00987;	0.01190;	0.00833;	0.01798;	0.00952;	0.00866;	0.01278;	0.01212;	0.01154;	0.02623;	0.02458;	0.01155;	0.00999;	0.01115;	0.02615;	0.00880;	0.00997;	0.01354;	0.03051;	0.01331
100000;0.02850;	0.02199;	0.02479;	0.03260;	0.02342;	0.02910;	0.02719;	0.02698;	0.02501;	0.02033;	0.02453;	0.03005;	0.04195;	0.02929;	0.02870;	0.03360;	0.02606;	0.03455;	0.02586;	0.03770;	0.03252;	0.03333;	0.03732;	0.02828;	0.03321
500000;0.04578;	0.04595;	0.03818;	0.04698;	0.04839;	0.03879;	0.04256;	0.11548;	0.04583;	0.04486;	0.06311;	0.05186;	0.06017;	0.05659;	0.04610;	0.04718;	0.04127;	0.10958;	0.04957;	0.05357;	0.04423;	0.04573;	0.05323;	0.10595;	0.05647
750000;0.14123;	0.04993;	0.04835;	0.06207;	0.07115;	0.06260;	0.05843;	0.05950;	0.05138;	0.05773;	0.06890;	0.12161;	0.06982;	0.05729;	0.06328;	0.06442;	0.14493;	0.06559;	0.06567;	0.06911;	0.05819;	0.06520;	0.07755;	0.06485;	0.07159
1000000;0.06351;	0.06512;	0.05696;	0.05710;	0.06981;	0.05717;	0.09833;	0.06665;	0.05913;	0.06378;	0.06027;	0.07042;	0.06893;	0.06641;	0.06056;	0.05329;	0.05966;	0.06356;	0.12061;	0.07024;	0.06649;	0.06349;	0.07914;	0.07115;	0.06260
2000000;0.12021;	0.09982;	0.10955;	0.10667;	0.09579;	0.10594;	0.10816;	0.10990;	0.16998;	0.18456;	0.09930;	0.16667;	0.10814;	0.08921;	0.15462;	0.10185;	0.10114;	0.10144;	0.11575;	0.09480;	0.18078;	0.12102;	0.11231;	0.09817;	0.10246
4194303;0.26410;	0.24596;	0.26980;	0.29366;	0.28523;	0.38910;	0.28687;	0.25180;	0.21803;	0.26531;	0.39175;	0.28453;	0.29620;	0.27595;	0.25806;	0.30444;	0.23680;	0.24751;	0.24735;	0.26930;	0.36865;	0.30731;	0.25236;	0.27011;	0.27275
4194304;0.03321;	0.03509;	0.04004;	0.04099;	0.04300;	0.04281;	0.04143;	0.04460;	0.05303;	0.04694;	0.04922;	0.04423;	0.03390;	0.03261;	0.03159;	0.04808;	0.03996;	0.03018;	0.04296;	0.02902;	0.04263;	0.03148;	0.03171;	0.04505;	0.03030
5000000;0.31498;	0.38994;	0.32668;	0.34382;	0.31753;	0.40314;	0.38627;	0.38127;	0.26448;	0.32409;	0.41085;	0.32072;	0.36254;	0.24738;	0.50709;	0.31180;	0.31251;	0.29549;	0.30711;	0.30795;	0.43059;	0.39243;	0.33803;	0.34626;	0.31418
8388608;0.05357;	0.06162;	0.06052;	0.06109;	0.06703;	0.06875;	0.06244;	0.07115;	0.08014;	0.07753;	0.06946;	0.04597;	0.05193;	0.05738;	0.05019;	0.04829;	0.06425;	0.06573;	0.04808;	0.05814;	0.04705;	0.04673;	0.06361;	0.04573;	0.05256
10000000;0.83614;	0.63869;	0.68629;	0.83792;	0.73970;	0.71077;	0.64518;	0.71741;	0.73846;	0.77674;	0.88594;	0.83683;	0.78975;	0.78646;	0.69279;	0.63033;	1.06716;	0.49657;	0.64662;	0.50487;	0.87724;	0.82428;	0.69931;	0.69018;	0.88586
16777215;1.30868;	1.20076;	1.15385;	1.09333;	1.37901;	1.15546;	1.25031;	1.48129;	0.96219;	1.22723;	1.38332;	1.32451;	1.08241;	1.25376;	1.17255;	0.84955;	1.07563;	1.14769;	1.31843;	1.09039;	0.83106;	1.04292;	1.13920;	0.97548;	1.15019
16777216;0.09553;	0.10547;	0.10587;	0.10259;	0.14789;	0.12413;	0.12481;	0.11751;	0.12882;	0.12420;	0.11981;	0.08249;	0.08318;	0.11162;	0.09437;	0.08360;	0.08035;	0.08233;	0.07772;	0.08674;	0.08401;	0.08067;	0.08151;	0.08481;	0.07923
20000000;1.41923;	1.14451;	1.74672;	1.12201;	1.83251;	1.08049;	1.52581;	1.07714;	1.13857;	3.07732;	1.51063;	1.41355;	1.80549;	1.79592;	1.44655;	1.72771;	1.39113;	1.72471;	1.37371;	1.46400;	1.43879;	1.72531;	1.78829;	1.76618;	1.84271
30000000;2.25501;	2.13043;	2.19495;	2.29813;	2.25492;	2.12586;	2.83190;	2.78585;	2.20915;	2.67985;	2.51288;	2.65399;	2.45581;	2.33165;	2.52210;	2.34832;	1.78744;	1.99432;	2.06192;	1.92928;	2.48922;	2.20183;	1.61691;	2.14998;	2.36847
33554432;0.17870;	0.19562;	0.20389;	0.19708;	0.21054;	0.22049;	0.21798;	0.23833;	0.21321;	0.22347;	0.22510;	0.15186;	0.15298;	0.17010;	0.15135;	0.15191;	0.17941;	0.16640;	0.15278;	0.16810;	0.16398;	0.16971;	0.15534;	0.14736;	0.14924
67108864;0.33779;	0.33674;	0.37753;	0.36343;	0.37745;	0.38101;	0.43539;	0.29727;	0.45764;	0.47067;	0.47979;	0.30056;	0.29358;	0.30270;	0.29259;	0.29290;	0.29131;	0.29127;	0.30180;	0.29490;	0.29735;	0.28975;	0.29034;	0.29412;	0.28504
134217728;0.63157;	0.75261;	0.71641;	0.68464;	0.83730;	0.75801;	0.87209;	0.81820;	0.77172;	0.71610;	0.90071;	0.58210;	0.60024;	0.57717;	0.61716;	0.58118;	0.59802;	0.57836;	0.58759;	0.58922;	0.58396;	0.58986;	0.58509;	0.58222;	0.57559
